EESchema-LIBRARY Version 2.3  Date: mar 24 jul 2012 17:08:41 COT
#encoding utf-8
#
# CS5361
#
DEF CS5361 U 0 40 Y Y 1 F N
F0 "U" 450 1000 60 H V L CNN
F1 "CS5361" 400 -1000 60 H V L CNN
DRAW
S -600 900 600 -900 0 1 0 N
X RST 1 -850 -600 250 R 50 50 1 1 I
X M/S 2 -850 -700 250 R 50 50 1 1 I
X LRCK 3 850 700 250 L 50 50 1 1 B C
X SCLK 4 850 500 250 L 50 50 1 1 B C
X MCLK 5 850 300 250 L 50 50 1 1 I C
X VD 6 300 1150 250 D 50 50 1 1 W
X GND 7 300 -1150 250 U 50 50 1 1 W
X VL 8 0 1150 250 D 50 50 1 1 W
X SDOUT 9 850 100 250 L 50 50 1 1 O
X DIV 10 850 -100 250 L 50 50 1 1 I
X AINR- 20 -850 -200 250 R 50 50 1 1 I I
X HPF 11 850 -200 250 L 50 50 1 1 I
X AINR+ 21 -850 0 250 R 50 50 1 1 I
X DIF 12 850 -300 250 L 50 50 1 1 I
X VCOM 22 -850 600 250 R 50 50 1 1 w
X M0 13 850 -500 250 L 50 50 1 1 I
X REFGND 23 -850 500 250 R 50 50 1 1 W
X M1 14 850 -600 250 L 50 50 1 1 I
X FILT+ 24 -850 700 250 R 50 50 1 1 w
X TST 15 850 -700 250 L 50 50 1 1 I
X AINL+ 16 -850 400 250 R 50 50 1 1 I
X AINL- 17 -850 200 250 R 50 50 1 1 I I
X GND 18 -300 -1150 250 U 50 50 1 1 W
X VA 19 -300 1150 250 D 50 50 1 1 W
ENDDRAW
ENDDEF
#
# CS8406
#
DEF CS8406 U 0 40 Y Y 1 F N
F0 "U" 250 1100 60 H V C CNN
F1 "CS8406" 250 -1100 60 H V C CNN
DRAW
S -600 1050 600 -1050 0 0 0 N
X VD+ 6 -850 950 250 R 50 50 1 0 W
X TEST 7 850 -250 250 L 50 50 1 0 I
X TEST 8 850 -350 250 L 50 50 1 0 I
X RST 9 -850 -150 250 R 50 50 1 0 I L
X OMCK 21 850 350 250 L 50 50 1 0 I C
X ILRCK 12 850 250 250 L 50 50 1 0 B C
X GND 22 -850 -950 250 R 50 50 1 0 W
X ISCLK 13 850 150 250 L 50 50 1 0 B C
X VL+ 23 -850 850 250 R 50 50 1 0 W
X SDIN 14 850 50 250 L 50 50 1 0 I
X H/S 24 850 950 250 L 50 50 1 0 I
X TXN 25 850 550 250 L 50 50 1 0 O
X TXP 26 850 650 250 L 50 50 1 0 O
T 0 200 -650 60 0 0 1 Hard~Mode  Normal 1 C C
X COPY/C 1 -850 650 250 R 50 50 1 1 I
X TEST 2 850 -150 250 L 50 50 1 1 I
X EMPH 3 -850 -350 250 R 50 50 1 1 I
X SFMT0 4 -850 150 250 R 50 50 1 1 I
X SFMT1 5 -850 50 250 R 50 50 1 1 I
X APMS 10 -850 -50 250 R 50 50 1 1 I
X HWCK0 20 -850 450 250 R 50 50 1 1 I
X TCBLD 11 -850 -650 250 R 50 50 1 1 I
X TCBL 15 -850 -750 250 R 50 50 1 1 B
X CEN 16 -850 -250 250 R 50 50 1 1 I
X U 17 850 -850 250 L 50 50 1 1 I
X HWCK1 27 -850 350 250 R 50 50 1 1 I
X V 18 850 -950 250 L 50 50 1 1 I
X ORIG 28 -850 -550 250 R 50 50 1 1 I C
X AUDIO 19 -850 -450 250 R 50 50 1 1 O
T 0 250 -650 60 0 0 2 Soft~Mode  Normal 1 C C
X SDA/CDOUT 1 -850 650 250 R 50 50 1 2 I
X AD0/CS 2 850 -150 250 L 50 50 1 2 I
X AD2 3 -850 -350 250 R 50 50 1 2 I
X RXP 4 -850 150 250 R 50 50 1 2 I
X TEST 5 -850 50 250 R 50 50 1 2 I
X TEST 10 -850 -50 250 R 50 50 1 2 I
X Bit_User 20 -850 450 250 R 50 50 1 2 I
X TEST 11 -850 -650 250 R 50 50 1 2 I
X TCBL 15 -850 -750 250 R 50 50 1 2 B
X TEST 16 -850 -250 250 R 50 50 1 2 I
X TEST 17 850 -850 250 L 50 50 1 2 I
X AD1/CDIN 27 -850 350 250 R 50 50 1 2 I
X TEST 18 850 -950 250 L 50 50 1 2 I
X SCL/CCLK 28 -850 -550 250 R 50 50 1 2 I C
X INT 19 -850 -450 250 R 50 50 1 2 O
ENDDRAW
ENDDEF
#
# CS8414
#
DEF CS8414 U 0 30 Y Y 1 F N
F0 "U" 0 1250 60 H V C CNN
F1 "CS8414" 0 -1249 60 H V C CNN
DRAW
S -600 -1200 600 1200 0 1 0 N
X C 1 900 0 300 L 60 60 1 1 O
X CD/F1 2 900 700 300 L 60 60 1 1 O
X CC/F0 3 900 800 300 L 60 60 1 1 O
X CB/E2 4 900 900 300 L 60 60 1 1 O
X CA/E1 5 900 1000 300 L 60 60 1 1 O
X C0/E0 6 900 1100 300 L 60 60 1 1 O
X DVCC 7 -900 -1000 300 R 60 60 1 1 W
X DGND 8 -900 -1100 300 R 60 60 1 1 W
X RXP 9 -900 1100 300 R 60 60 1 1 I
X RXN 10 -900 1000 300 R 60 60 1 1 I
X FILT 20 900 -800 300 L 60 60 1 1 I
X FSYNC 11 900 -400 300 L 60 60 1 1 B
X AGND 21 900 -1100 300 L 60 60 1 1 W
X SCK 12 900 -500 300 L 60 60 1 1 B
X AVCC 22 900 -1000 300 L 60 60 1 1 W
X CS12/FCK 13 -900 400 300 R 60 60 1 1 I
X M0 23 -900 -300 300 R 60 60 1 1 I
X U 14 900 100 300 L 60 60 1 1 O
X M1 24 -900 -400 300 R 60 60 1 1 I
X CBL 15 900 200 300 L 60 60 1 1 O
X ERF 25 900 400 300 L 60 60 1 1 O
X SEL 16 -900 300 300 R 60 60 1 1 I
X SDATA 26 900 -600 300 L 60 60 1 1 O
X M3 17 -900 -600 300 R 60 60 1 1 I
X CE/F2 27 900 600 300 L 60 60 1 1 O
X M2 18 -900 -500 300 R 60 60 1 1 I
X VERF 28 900 -100 300 L 60 60 1 1 O
X MCK 19 900 -300 300 L 60 60 1 1 O
ENDDRAW
ENDDEF
#
# CS8420_SOFT
#
DEF CS8420_SOFT U 0 40 Y Y 1 F N
F0 "U" 250 1000 60 H V C CNN
F1 "CS8420_SOFT" 0 -1000 60 H V C CNN
DRAW
S -600 950 600 -950 0 1 0 N
X SDA/CDOUT 1 -850 0 250 R 50 50 1 1 B
X AD0/CS- 2 -850 -200 250 R 50 50 1 1 I
X EMPH-/AD2 3 850 -250 250 L 50 50 1 1 O
X RXP 4 -850 350 250 R 50 50 1 1 I
X RXN 5 -850 250 250 R 50 50 1 1 I
X VA+ 6 -850 -750 250 R 50 50 1 1 I
X AGND 7 -850 -850 250 R 50 50 1 1 I
X FILT 8 -850 150 250 R 50 50 1 1 I
X RST 9 -850 -550 250 R 50 50 1 1 I I
X RMCK 10 -850 500 250 R 50 50 1 1 B
X U 20 850 0 250 L 50 50 1 1 B
X RERR 11 850 -150 250 L 50 50 1 1 O
X OMCK 21 850 500 250 L 50 50 1 1 I
X ILRCK 12 -850 850 250 R 50 50 1 1 B
X DGND 22 850 -850 250 L 50 50 1 1 I
X ISCLK 13 -850 750 250 R 50 50 1 1 B
X VD+ 23 850 -750 250 L 50 50 1 1 I
X SDIN 14 -850 650 250 R 50 50 1 1 I
X H/S- 24 -850 -450 250 R 50 50 1 1 I
X TCBL 15 850 150 250 L 50 50 1 1 B
X TXN 25 850 250 250 L 50 50 1 1 O
X OSCLK 16 850 750 250 L 50 50 1 1 B
X TXP 26 850 350 250 L 50 50 1 1 O
X OLRCK 17 850 850 250 L 50 50 1 1 B
X AD1/CDIN 27 -850 -300 250 R 50 50 1 1 I
X SDOUT 18 850 650 250 L 50 50 1 1 O
X SCL/CCLK 28 -850 -100 250 R 50 50 1 1 B
X INT 19 850 -500 250 L 50 50 1 1 C
ENDDRAW
ENDDEF
#
# DRV8837
#
DEF DRV8837 U 0 40 Y Y 1 F N
F0 "U" 150 450 60 H V C CNN
F1 "DRV8837" 0 0 60 H V C CNN
DRAW
S -400 350 400 -150 0 1 0 N
X VM 1 -700 250 300 R 50 50 1 1 P
X OUT1 2 -700 150 300 R 50 50 1 1 O
X OUT2 3 -700 50 300 R 50 50 1 1 O
X GND 4 -700 -50 300 R 50 50 1 1 P
X In2 5 700 -50 300 L 50 50 1 1 I
X IN1 6 700 50 300 L 50 50 1 1 I
X SLEEP 7 700 150 300 L 50 50 1 1 I
X VCC 8 700 250 300 L 50 50 1 1 P
ENDDRAW
ENDDEF
#
# LME49740
#
DEF LME49740 LME 0 40 Y Y 1 F N
F0 "LME" 350 500 60 H V C CNN
F1 "LME49740" 0 0 60 H V C CNN
DRAW
S -450 450 450 -350 0 1 0 N
X Out1 1 -750 350 300 R 50 50 1 1 O
X in1- 2 -750 250 300 R 50 50 1 1 I
X in1+ 3 -750 150 300 R 50 50 1 1 I
X V+ 4 -750 50 300 R 50 50 1 1 P
X in2+ 5 -750 -50 300 R 50 50 1 1 I
X in2- 6 -750 -150 300 R 50 50 1 1 I
X out2 7 -750 -250 300 R 50 50 1 1 O
X Out3 8 750 -250 300 L 50 50 1 1 O
X in2- 9 750 -150 300 L 50 50 1 1 I
X in2+ 10 750 -50 300 L 50 50 1 1 I
X V- 11 750 50 300 L 50 50 1 1 P
X in4+ 12 750 150 300 L 50 50 1 1 I
X in4- 13 750 250 300 L 50 50 1 1 I
X Out4 14 750 350 300 L 50 50 1 1 O
ENDDRAW
ENDDEF
#
# TPA5050
#
DEF TPA5050 U 0 30 Y Y 1 F N
F0 "U" 0 650 60 H V C CNN
F1 "TPA5050" 0 -650 60 H V C CNN
DRAW
S -400 600 400 -600 0 1 0 N
X LRCLK 1 -700 200 300 R 60 50 1 1 I
X DATA 2 -700 500 300 R 60 50 1 1 I
X SCL 3 -700 0 300 R 60 50 1 1 I
X SDA 4 -700 -100 300 R 60 50 1 1 B
X GND 5 700 0 300 L 60 50 1 1 W
X GND 6 700 -100 300 L 60 50 1 1 W
X GND 7 700 -200 300 L 60 50 1 1 W
X GND 8 700 -300 300 L 60 50 1 1 W
X GND 9 700 -400 300 L 60 50 1 1 W
X ADD0 10 700 350 300 L 60 50 1 1 I
X ADD1 11 700 250 300 L 60 50 1 1 I
X ADD2 12 700 150 300 L 60 50 1 1 I
X VDD 13 -700 -300 300 R 60 50 1 1 W
X GND 14 700 -500 300 L 60 50 1 1 W
X DATA_OUT 15 700 500 300 L 60 50 1 1 O
X BCLK 16 -700 350 300 R 60 50 1 1 I
X THERMAL_PAD 17 -600 -500 200 R 50 30 1 1 P
ENDDRAW
ENDDEF
#
#End Library
