PCBNEW-LibModule-V1  sáb 11 ago 2012 14:42:09 COT
# encoding utf-8
$INDEX
DSG8
$EndINDEX
$MODULE DSG8
Po 0 0 0 15 5026B4B8 50269913 ~~
Li DSG8
Sc 50269913
AR 
Op 0 0 0
T0 -1654 -2441 600 600 0 120 N V 21 N "DSG8"
T1 1969 -2441 600 600 0 120 N V 21 N "VAL**"
DS 522 512 522 630 8 21
DS 423 512 522 512 8 21
DS 423 630 423 512 8 21
DS 227 630 227 512 8 21
DS 227 512 325 512 8 21
DS 325 512 325 630 8 21
DS -167 630 -167 512 8 21
DS -167 512 -69 512 8 21
DS -69 512 -69 630 8 21
DS -20 630 79 630 8 21
DS 30 630 30 512 8 21
DS 30 512 128 512 8 21
DS 128 512 128 630 8 21
DS 522 -39 522 -157 8 21
DS 30 -157 30 -39 8 21
DS 30 -39 128 -39 8 21
DS 128 -39 128 -157 8 21
DS 177 -157 276 -157 8 21
DS 227 -157 227 -39 8 21
DS 227 -39 325 -39 8 21
DS 325 -39 325 -157 8 21
DS 374 -157 472 -157 8 21
DS 423 -157 423 -39 8 21
DS 423 -39 522 -39 8 21
DS -167 -157 -167 -39 8 21
DS -167 -39 -69 -39 8 21
DS -69 -39 -69 -157 8 21
DS -217 709 571 709 8 21
DS -217 -236 571 -236 8 21
DS -217 -157 571 -157 8 21
DS 571 -157 571 630 8 21
DS 571 630 -217 630 8 21
DS -217 630 -217 -157 8 21
$PAD
Sh "1" R 110 197 0 0 0
Dr 0 0 0
At SMD N 00888000
Ne 0 ""
Po -118 -138
$EndPAD
$PAD
Sh "2" R 110 197 0 0 0
Dr 0 0 0
At SMD N 00888000
Ne 0 ""
Po 79 -138
$EndPAD
$PAD
Sh "3" R 110 197 0 0 0
Dr 0 0 0
At SMD N 00888000
Ne 0 ""
Po 276 -138
$EndPAD
$PAD
Sh "4" R 110 197 0 0 0
Dr 0 0 0
At SMD N 00888000
Ne 0 ""
Po 472 -138
$EndPAD
$PAD
Sh "5" R 110 197 0 0 0
Dr 0 0 0
At SMD N 00888000
Ne 0 ""
Po 472 610
$EndPAD
$PAD
Sh "6" R 110 197 0 0 0
Dr 0 0 0
At SMD N 00888000
Ne 0 ""
Po 276 610
$EndPAD
$PAD
Sh "7" R 110 197 0 0 0
Dr 0 0 0
At SMD N 00888000
Ne 0 ""
Po 79 610
$EndPAD
$PAD
Sh "8" R 110 197 0 0 0
Dr 0 0 0
At SMD N 00888000
Ne 0 ""
Po -118 610
$EndPAD
$EndMODULE  DSG8
$EndLIBRARY
