PCBNEW-LibModule-V1  vie 17 ago 2012 10:51:27 COT
# encoding utf-8
$INDEX
electrolitico
$EndINDEX
$MODULE electrolitico
Po 0 0 0 15 502E6870 502E6610 ~~
Li electrolitico
Cd ALUMINUM ELECTROLYTIC CAPACITORS
Kw ALUMINUM ELECTROLYTIC CAPACITORS
Sc 502E6610
AR 
Op 0 0 0
At SMD 
T0 -84 -1679 500 500 0 35 N V 21 N "electrolitico"
T1 151 1673 500 500 0 35 N V 21 N "valor"
DS 334 -689 649 -689 39 21
DS 512 -886 512 -531 39 21
DS 512 -531 512 -472 39 21
DS 944 1299 -1299 1299 80 21
DS -1299 1299 -1299 433 80 21
DS -1299 433 -1299 -433 80 21
DS -1299 -433 -1299 -1299 80 21
DS -1299 -1299 944 -1299 80 21
DS 1299 -944 1299 -433 80 21
DS 1299 -433 1299 433 80 21
DS 1299 433 1299 944 80 21
DS 1299 944 944 1299 80 21
DS 944 -1299 1299 -944 80 21
DA 3 0 1161 374 1451 80 21
DA 0 -9 -1161 354 348 80 21
DA -3 0 -1161 -374 1451 80 21
DA 0 9 1161 -354 348 80 21
$PAD
Sh "1" R 1377 629 0 0 0
Dr 0 0 0
At SMD N 00888000
Ne 0 ""
Po 1062 0
$EndPAD
$PAD
Sh "2" R 1377 629 0 0 0
Dr 0 0 0
At SMD N 00888000
Ne 0 ""
Po -1062 0
$EndPAD
$EndMODULE  electrolitico
$EndLIBRARY
