PCBNEW-LibModule-V1  dom 12 ago 2012 13:53:10 COT
# encoding utf-8
$INDEX
lm4915
$EndINDEX
$MODULE lm4915
Po 0 0 0 15 5027FAB0 5027DF43 ~~
Li lm4915
Sc 5027DF43
AR lm4915
Op 0 0 0
T0 1555 -2530 600 600 0 120 N V 21 N "lm4915"
T1 -1358 -2421 600 600 0 120 N V 21 N "VAL**"
DS -39 -1339 748 -1339 12 21
DS 748 -1339 748 -551 12 21
DS 748 -551 -39 -551 12 21
DS -39 -551 -39 -1339 12 21
$PAD
Sh "1" R 157 118 0 0 0
Dr 0 0 0
At SMD N 00888000
Ne 0 ""
Po 236 -1240
$EndPAD
$PAD
Sh "2" R 157 118 0 0 0
Dr 0 0 0
At SMD N 00888000
Ne 0 ""
Po 492 -1240
$EndPAD
$PAD
Sh "3" R 157 118 0 0 900
Dr 0 0 0
At SMD N 00888000
Ne 0 ""
Po 650 -1063
$EndPAD
$PAD
Sh "4" R 157 118 0 0 900
Dr 0 0 0
At SMD N 00888000
Ne 0 ""
Po 650 -807
$EndPAD
$PAD
Sh "5" R 157 118 0 0 0
Dr 0 0 0
At SMD N 00888000
Ne 0 ""
Po 492 -650
$EndPAD
$PAD
Sh "6" R 157 118 0 0 0
Dr 0 0 0
At SMD N 00888000
Ne 0 ""
Po 236 -650
$EndPAD
$PAD
Sh "7" R 157 118 0 0 900
Dr 0 0 0
At SMD N 00888000
Ne 0 ""
Po 59 -807
$EndPAD
$PAD
Sh "8" R 157 118 0 0 900
Dr 0 0 0
At SMD N 00888000
Ne 0 ""
Po 59 -1063
$EndPAD
$PAD
Sh "" R 315 315 0 0 0
Dr 0 0 0
At SMD N 00888000
Ne 0 ""
Po 354 -945
$EndPAD
$EndMODULE  lm4915
$EndLIBRARY
