PCBNEW-LibModule-V1  Wed 27 Oct 2010 19:54:21 EDT
$INDEX
TO92_123
TO92_x21
RRP_200
RRP_100
RR_100
RR_200
USB_UX60-MB-5ST
RCP_100
SOIC8
HOLE_200_300
HOLE_150_250
ICSP_PIC
HOLE_150
SM0402
SM0603
HC49
SSOP-20-5.3mm
SOIC-8-3.8mm
ICSP-SIL
SM1206
SM1206POL
SOT363
TRIMPOT_PV36W
SOD-123
TEST_2
SOT23-AXC
SM1812
SOT23-6
SM0805
SOD-523F
HOLE_M2_25PCT
SIL-6
8P8C_JACK_MOLEX
HOLE_M3_25PCT
$EndINDEX
$MODULE TO92_123
Po 0 0 0 15 4C6DE818 00000000 ~~
Li TO92_123
Sc 00000000
AR
Op 0 0 0
T0 -2000 0 600 600 900 120 N V 21 N"TO92_123"
T1 0 1500 600 600 0 120 N V 21 N"VAL**"
DS -850 550 850 550 150 21
DA 0 0 -850 -500 1200 150 21
$PAD
Sh "1" C 600 600 0 0 0
Dr 320 0 0
At STD N 00E0FFFF
Ne 0 ""
Po -1000 0
$EndPAD
$PAD
Sh "2" C 600 600 0 0 0
Dr 320 0 0
At STD N 00E0FFFF
Ne 0 ""
Po 0 0
$EndPAD
$PAD
Sh "3" C 600 600 0 0 0
Dr 320 0 0
At STD N 00E0FFFF
Ne 0 ""
Po 1000 0
$EndPAD
$EndMODULE  TO92_123
$MODULE TO92_x21
Po 0 0 0 15 4C6DE8D5 00000000 ~~
Li TO92_x21
Sc 00000000
AR
Op 0 0 0
T0 -2000 0 600 600 900 120 N V 21 N"TO92_x21"
T1 0 1500 600 600 0 120 N V 21 N"VAL**"
DS -850 550 850 550 150 21
DA 0 0 -850 -500 1200 150 21
$PAD
Sh "" C 600 600 0 0 0
Dr 320 0 0
At STD N 00E0FFFF
Ne 0 ""
Po -1000 0
$EndPAD
$PAD
Sh "2" C 600 600 0 0 0
Dr 320 0 0
At STD N 00E0FFFF
Ne 0 ""
Po 0 0
$EndPAD
$PAD
Sh "1" C 600 600 0 0 0
Dr 320 0 0
At STD N 00E0FFFF
Ne 0 ""
Po 1000 0
$EndPAD
$EndMODULE  TO92_x21
$MODULE RRP_200
Po 0 0 0 15 4C6DF1B7 00000000 ~~
Li RRP_200
Sc 00000000
AR
Op 0 0 0
T0 250 -1500 600 600 0 120 N V 21 N"RRP_200"
T1 0 1500 600 600 0 120 N V 21 N"VAL**"
DS 1750 -750 2000 -750 150 21
DS 2000 -750 2000 750 150 21
DS 2000 750 1750 750 150 21
DS 1500 750 1500 -750 150 21
DS -1750 -750 1750 -750 150 21
DS 1750 750 -1750 750 150 21
DS -1750 -750 -1750 750 150 21
$PAD
Sh "1" R 600 600 0 0 0
Dr 320 0 0
At STD N 00E0FFFF
Ne 0 ""
Po -1000 0
$EndPAD
$PAD
Sh "2" C 600 600 0 0 0
Dr 320 0 0
At STD N 00E0FFFF
Ne 0 ""
Po 1000 0
$EndPAD
$EndMODULE  RRP_200
$MODULE RRP_100
Po 0 0 0 15 4C6DF219 00000000 ~~
Li RRP_100
Sc 00000000
AR
Op 0 0 0
T0 0 -1250 600 600 0 120 N V 21 N"RRP_100"
T1 0 1500 600 600 0 120 N V 21 N"VAL**"
DS 1250 750 1500 750 150 21
DS 1500 750 1500 -750 150 21
DS 1500 -750 1250 -750 150 21
DS -1250 750 1250 750 150 21
DS 1250 750 1250 -750 150 21
DS 1250 -750 -1250 -750 150 21
DS -1250 -750 -1250 750 150 21
$PAD
Sh "1" R 600 600 0 0 0
Dr 320 0 0
At STD N 00E0FFFF
Ne 0 ""
Po -500 0
$EndPAD
$PAD
Sh "2" C 600 600 0 0 0
Dr 320 0 0
At STD N 00E0FFFF
Ne 0 ""
Po 500 0
$EndPAD
$EndMODULE  RRP_100
$MODULE RR_100
Po 0 0 0 15 4C6DF3A1 00000000 ~~
Li RR_100
Sc 00000000
AR
Op 0 0 0
T0 0 -1250 600 600 0 120 N V 21 N"RR_100"
T1 0 1500 600 600 0 120 N V 21 N"VAL**"
DS -1250 750 1250 750 150 21
DS 1250 750 1250 -750 150 21
DS 1250 -750 -1250 -750 150 21
DS -1250 -750 -1250 750 150 21
$PAD
Sh "1" R 600 600 0 0 0
Dr 320 0 0
At STD N 00E0FFFF
Ne 0 ""
Po -500 0
$EndPAD
$PAD
Sh "2" C 600 600 0 0 0
Dr 320 0 0
At STD N 00E0FFFF
Ne 0 ""
Po 500 0
$EndPAD
$EndMODULE  RR_100
$MODULE RR_200
Po 0 0 0 15 4C6DF3E4 00000000 ~~
Li RR_200
Sc 00000000
AR
Op 0 0 0
T0 250 -1500 600 600 0 120 N V 21 N"RR_200"
T1 0 1500 600 600 0 120 N V 21 N"VAL**"
DS 1750 750 1750 -750 150 21
DS -1750 -750 1750 -750 150 21
DS 1750 750 -1750 750 150 21
DS -1750 -750 -1750 750 150 21
$PAD
Sh "1" R 600 600 0 0 0
Dr 320 0 0
At STD N 00E0FFFF
Ne 0 ""
Po -1000 0
$EndPAD
$PAD
Sh "2" C 600 600 0 0 0
Dr 320 0 0
At STD N 00E0FFFF
Ne 0 ""
Po 1000 0
$EndPAD
$EndMODULE  RR_200
$MODULE HOLE_200_300
Po 0 0 0 15 4C78527B 00000000 ~~
Li HOLE_200_300
Sc 00000000
AR
Op 0 0 0
T0 0 -750 600 600 0 120 N V 21 N"HOLE_200_300"
T1 0 1000 600 600 0 120 N V 21 N"VAL**"
$PAD
Sh "1" C 3000 3000 0 0 0
Dr 2000 0 0
At STD N 00C0FFFF
Ne 0 ""
Po 0 0
$EndPAD
$EndMODULE  HOLE_200_300
$MODULE HOLE_150_250
Po 0 0 0 15 4C785386 00000000 ~~
Li HOLE_150_250
Sc 00000000
AR
Op 0 0 0
T0 0 -750 300 300 0 75 N I 21 N"HOLE_150_250"
T1 0 1000 300 300 0 75 N I 21 N"VAL**"
$PAD
Sh "1" C 2500 2500 0 0 0
Dr 1500 0 0
At STD N 00C0FFFF
Ne 0 ""
Po 0 0
$EndPAD
$EndMODULE  HOLE_150_250
$MODULE SOIC8
Po 0 0 0 15 4C77457E 00000000 ~~
Li SOIC8
Sc 00000000
AR
Op 0 0 0
At SMD
T0 -1500 0 400 400 900 80 N V 21 N"SOIC8"
T1 1500 0 400 400 900 80 N V 21 N"VAL**"
DS -1000 250 -750 250 150 21
DS -750 250 -750 -250 150 21
DS -750 -250 -1000 -250 150 21
DS -1000 -1000 1000 -1000 150 21
DS 1000 -1000 1000 1000 150 21
DS 1000 1000 -1000 1000 150 21
DS -1000 1000 -1000 -1000 150 21
$PAD
Sh "1" R 300 600 0 0 0
Dr 0 0 0
At SMD N 00888000
Ne 0 ""
Po -750 1500
$EndPAD
$PAD
Sh "2" R 300 600 0 0 0
Dr 0 0 0
At SMD N 00888000
Ne 0 ""
Po -250 1500
$EndPAD
$PAD
Sh "3" R 300 600 0 0 0
Dr 0 0 0
At SMD N 00888000
Ne 0 ""
Po 250 1500
$EndPAD
$PAD
Sh "4" R 300 600 0 0 0
Dr 0 0 0
At SMD N 00888000
Ne 0 ""
Po 750 1500
$EndPAD
$PAD
Sh "8" R 300 600 0 0 0
Dr 0 0 0
At SMD N 00888000
Ne 0 ""
Po -750 -1500
$EndPAD
$PAD
Sh "7" R 300 600 0 0 0
Dr 0 0 0
At SMD N 00888000
Ne 0 ""
Po -250 -1500
$EndPAD
$PAD
Sh "6" R 300 600 0 0 0
Dr 0 0 0
At SMD N 00888000
Ne 0 ""
Po 250 -1500
$EndPAD
$PAD
Sh "5" R 300 600 0 0 0
Dr 0 0 0
At SMD N 00888000
Ne 0 ""
Po 750 -1500
$EndPAD
$SHAPE3D
Na "smd/cms_so8.wrl"
Sc 0.500000 0.450000 0.500000
Of 0.000000 0.000000 0.000000
Ro 0.000000 0.000000 0.000000
$EndSHAPE3D
$EndMODULE  SOIC8
$MODULE ICSP_PIC
Po 0 0 0 15 4C79B52A 00000000 ~~
Li ICSP_PIC
Sc 00000000
AR
Op 0 0 0
T0 1750 -250 600 600 900 120 N I 21 N"ICSP_PIC"
T1 -1500 -250 600 600 900 120 N V 21 N"VAL**"
DS -1000 -3000 1000 -3000 150 21
DS 1000 -3000 1000 3000 150 21
DS 1000 3000 -1000 3000 150 21
DS -1000 3000 -1000 -3000 150 21
$PAD
Sh "3" C 600 600 0 0 0
Dr 320 0 0
At STD N 00E0FFFF
Ne 0 ""
Po -500 1000
$EndPAD
$PAD
Sh "2" C 600 600 0 0 0
Dr 320 0 0
At STD N 00E0FFFF
Ne 0 ""
Po -500 0
$EndPAD
$PAD
Sh "1" R 600 600 0 0 0
Dr 320 0 0
At STD N 00E0FFFF
Ne 0 ""
Po -500 -1000
$EndPAD
$PAD
Sh "4" C 600 600 0 0 0
Dr 320 0 0
At STD N 00E0FFFF
Ne 0 ""
Po 500 1000
$EndPAD
$PAD
Sh "5" C 600 600 0 0 0
Dr 320 0 0
At STD N 00E0FFFF
Ne 0 ""
Po 500 0
$EndPAD
$PAD
Sh "6" C 600 600 0 0 0
Dr 320 0 0
At STD N 00E0FFFF
Ne 0 ""
Po 500 -1000
$EndPAD
$PAD
Sh "3" C 1000 1000 0 0 0
Dr 750 0 0
At STD N 00E0FFFF
Ne 0 ""
Po 0 2250
$EndPAD
$PAD
Sh "3" C 1000 1000 0 0 0
Dr 750 0 0
At STD N 00E0FFFF
Ne 0 ""
Po 0 -2250
$EndPAD
$EndMODULE  ICSP_PIC
$MODULE HOLE_150
Po 0 0 0 15 4C79B90C 00000000 ~~
Li HOLE_150
Sc 00000000
AR
Op 0 0 0
T0 0 -750 300 300 0 75 N I 21 N"HOLE_150_250"
T1 0 1000 300 300 0 75 N I 21 N"VAL**"
$PAD
Sh "1" C 1500 1500 0 0 0
Dr 1500 0 0
At STD N 00C0FFFF
Ne 0 ""
Po 0 0
$EndPAD
$EndMODULE  HOLE_150
$MODULE USB_UX60-MB-5ST
Po 0 0 0 15 4C9D7894 00000000 ~~
Li USB_UX60-MB-5ST
Sc 00000000
AR /4C76FE61
Op 0 0 0
T0 3000 750 600 600 900 120 N V 21 N"USB1"
T1 0 3250 600 600 0 120 N I 21 N"MINIUSB"
DS 1654 551 1654 -79 150 21
DS 1654 2520 1654 1969 150 21
DS -1654 551 -1654 -79 150 21
DS -1654 2520 -1654 1969 150 21
DS -1654 2520 1654 2520 150 21
$PAD
Sh "3" R 197 787 0 0 0
Dr 0 0 0
At SMD N 00888000
Ne 3 "/PGD"
Po 0 -886
$EndPAD
$PAD
Sh "2" R 197 787 0 0 0
Dr 0 0 0
At SMD N 00888000
Ne 2 "/PGC"
Po -315 -886
$EndPAD
$PAD
Sh "1" R 197 787 0 0 0
Dr 0 0 0
At SMD N 00888000
Ne 1 "+5V"
Po -630 -886
$EndPAD
$PAD
Sh "4" R 197 787 0 0 0
Dr 0 0 0
At SMD N 00888000
Ne 0 ""
Po 315 -886
$EndPAD
$PAD
Sh "5" R 197 787 0 0 0
Dr 0 0 0
At SMD N 00888000
Ne 4 "GND"
Po 630 -886
$EndPAD
$PAD
Sh "" C 354 354 0 0 0
Dr 354 0 0
At STD N 00E0FFFF
Ne 0 ""
Po 689 0
$EndPAD
$PAD
Sh "6" R 984 866 0 0 0
Dr 0 0 0
At SMD N 00888000
Ne 0 ""
Po 1654 -787
$EndPAD
$PAD
Sh "6" R 984 866 0 0 0
Dr 0 0 0
At SMD N 00888000
Ne 0 ""
Po -1654 -787
$EndPAD
$PAD
Sh "6" R 984 866 0 0 0
Dr 0 0 0
At SMD N 00888000
Ne 0 ""
Po 1654 1299
$EndPAD
$PAD
Sh "6" R 984 866 0 0 0
Dr 0 0 0
At SMD N 00888000
Ne 0 ""
Po -1654 1299
$EndPAD
$PAD
Sh "" C 354 354 0 0 0
Dr 354 0 0
At STD N 00E0FFFF
Ne 0 ""
Po -689 0
$EndPAD
$EndMODULE  USB_UX60-MB-5ST
$MODULE ICSP-SIL
Po 0 0 0 15 4CA025C4 00000000 ~~
Li ICSP-SIL
Sc 00000000
AR
Op 0 0 0
T0 2441 -866 681 428 0 107 N I 21 N"ICSP-SIL"
T1 0 -1000 600 400 0 100 N V 21 N"ICSP"
DS -2500 -750 -2000 -1500 150 21
DS -2000 -1500 -3000 -1500 150 21
DS -3000 -1500 -2500 -750 150 21
DS -3000 500 -3000 -500 120 21
DS -3000 -500 3000 -500 120 21
DS 3000 -500 3000 500 120 21
DS 3000 500 -3000 500 120 21
DS -2000 500 -2000 -500 120 21
$PAD
Sh "1" R 700 700 0 0 0
Dr 450 0 0
At STD N 00E0FFFF
Ne 0 ""
Po -2500 0
$EndPAD
$PAD
Sh "2" C 700 700 0 0 0
Dr 450 0 0
At STD N 00E0FFFF
Ne 0 ""
Po -1500 0
$EndPAD
$PAD
Sh "3" C 700 700 0 0 0
Dr 450 0 0
At STD N 00E0FFFF
Ne 0 ""
Po -500 0
$EndPAD
$PAD
Sh "4" C 700 700 0 0 0
Dr 450 0 0
At STD N 00E0FFFF
Ne 0 ""
Po 500 0
$EndPAD
$PAD
Sh "5" C 700 700 0 0 0
Dr 450 0 0
At STD N 00E0FFFF
Ne 0 ""
Po 1500 0
$EndPAD
$PAD
Sh "6" C 700 700 0 0 0
Dr 450 0 0
At STD N 00E0FFFF
Ne 0 ""
Po 2500 0
$EndPAD
$SHAPE3D
Na "header_6x1_90.wrl"
Sc 1.000000 1.000000 1.000000
Of 0.000000 0.000000 0.000000
Ro 0.000000 0.000000 0.000000
$EndSHAPE3D
$EndMODULE  ICSP-SIL
$MODULE SM1206
Po 0 0 0 15 4CA779B9 00000000 ~~
Li SM1206
Sc 00000000
AR
Op 0 0 0
T0 0 -787 300 300 0 50 N V 21 N"SM1206"
T1 0 787 300 300 0 50 N I 21 N"VAL**"
DS -1181 -492 1181 -492 150 21
DS 1181 -492 1181 492 150 21
DS 1181 492 -1181 492 150 21
DS -1181 492 -1181 -492 150 21
$PAD
Sh "1" R 591 591 0 0 0
Dr 0 0 0
At SMD N 00888000
Ne 0 ""
Po -689 0
$EndPAD
$PAD
Sh "2" R 591 591 0 0 0
Dr 0 0 0
At SMD N 00888000
Ne 0 ""
Po 689 0
$EndPAD
$EndMODULE  SM1206
$MODULE RCP_100
Po 0 0 0 15 4C7743DC 00000000 ~~
Li RCP_100
Sc 00000000
AR
Op 0 0 0
T0 0 -1750 600 600 0 120 N V 21 N"RCP_100"
T1 0 2000 600 600 0 120 N V 21 N"VAL**"
DS 1000 750 1000 -750 150 21
DC 0 0 0 1250 150 21
$PAD
Sh "1" R 600 600 0 0 0
Dr 320 0 0
At STD N 00E0FFFF
Ne 0 ""
Po -500 0
$EndPAD
$PAD
Sh "2" C 600 600 0 0 0
Dr 320 0 0
At STD N 00E0FFFF
Ne 0 ""
Po 500 0
$EndPAD
$SHAPE3D
Na "discret/capacitor/electrolytic/c_vert_c1v8l.wrl"
Sc 1.000000 1.000000 1.000000
Of 0.000000 0.000000 0.000000
Ro 0.000000 0.000000 0.000000
$EndSHAPE3D
$EndMODULE  RCP_100
$MODULE TRIMPOT_PV36W
Po 0 0 0 15 4CAA6FE3 00000000 ~~
Li TRIMPOT_PV36W
Kw PV36W
Sc 00000000
AR
Op 0 0 0
T0 -39 -2835 600 600 0 120 N V 21 N"TRIMPOT_PV36W"
T1 -79 1929 600 600 0 120 N V 21 N"VAL**"
DS -1969 0 -984 -984 150 21
DS 1969 -984 -1969 -984 150 21
DS 1969 -984 1969 984 150 21
DS 1969 984 -1969 984 150 21
DS -1969 984 -1969 -984 150 21
$PAD
Sh "2" C 600 600 0 0 0
Dr 320 0 0
At STD N 00E0FFFF
Ne 0 ""
Po 0 0
$EndPAD
$PAD
Sh "3" C 600 600 0 0 0
Dr 320 0 0
At STD N 00E0FFFF
Ne 0 ""
Po 984 0
$EndPAD
$PAD
Sh "1" C 600 600 0 0 0
Dr 320 0 0
At STD N 00E0FFFF
Ne 0 ""
Po -984 0
$EndPAD
$SHAPE3D
Na "discret/adjustable_rx2v4.wrl"
Sc 0.800000 0.800000 0.800000
Of 0.000000 0.000000 0.000000
Ro 0.000000 0.000000 0.000000
$EndSHAPE3D
$EndMODULE  TRIMPOT_PV36W
$MODULE TEST_2
Po 0 0 0 15 4CAA831A 00000000 ~~
Li TEST_2
Sc 00000000
AR
Op 0 0 0
T0 0 -630 300 300 0 50 N V 21 N"TEST_2"
T1 0 630 300 300 0 50 N I 21 N"VAL**"
$PAD
Sh "1" C 500 500 0 0 0
Dr 0 0 0
At SMD N 00888000
Ne 0 ""
Po -500 0
$EndPAD
$PAD
Sh "2" C 500 500 0 0 0
Dr 0 0 0
At SMD N 00888000
Ne 0 ""
Po 500 0
$EndPAD
$EndMODULE  TEST_2
$MODULE SM1812
Po 0 0 0 15 4CAABBB6 00000000 ~~
Li SM1812
Sc 00000000
AR
Op 0 0 0
T0 0 0 300 300 0 50 N V 21 N"SM1812"
T1 0 1024 300 300 0 50 N I 21 N"VAL**"
DS 1339 -630 -1339 -630 80 21
DS -1339 -630 -1339 630 80 21
DS 1339 -630 1339 630 80 21
DS 1339 630 -1339 630 80 21
$PAD
Sh "1" R 709 984 0 0 0
Dr 0 0 0
At SMD N 00888000
Ne 0 ""
Po -827 0
$EndPAD
$PAD
Sh "2" R 709 984 0 0 0
Dr 0 0 0
At SMD N 00888000
Ne 0 ""
Po 827 0
$EndPAD
$SHAPE3D
Na "smd/cms_self.wrl"
Sc 0.400000 0.250000 0.300000
Of 0.000000 0.000000 0.000000
Ro 0.000000 0.000000 0.000000
$EndSHAPE3D
$EndMODULE  SM1812
$MODULE SOT23-AXC
Po 0 0 0 15 4CAABFA7 00000000 ~~
Li SOT23-AXC
Sc 00000000
AR
Op 0 0 0
T0 0 -984 300 300 0 50 N V 21 N"SOT23-AXC"
T1 0 1063 300 300 0 50 N V 21 N"VAL**"
DS -591 276 -315 276 80 21
DS 591 276 315 276 80 21
DS 591 276 591 0 80 21
DS -591 276 -591 0 80 21
DS -79 -276 79 -276 80 21
$PAD
Sh "" R 240 496 0 0 0
Dr 0 0 0
At SMD N 00888000
Ne 0 ""
Po -374 -392
$EndPAD
$PAD
Sh "1" R 240 496 0 0 0
Dr 0 0 0
At SMD N 00888000
Ne 0 ""
Po 374 -392
$EndPAD
$PAD
Sh "2" R 240 496 0 0 0
Dr 0 0 0
At SMD N 00888000
Ne 0 ""
Po 0 392
$EndPAD
$SHAPE3D
Na "smd/SOT23_3.wrl"
Sc 0.400000 0.300000 0.250000
Of 0.000000 0.000000 0.000000
Ro 0.000000 0.000000 0.000000
$EndSHAPE3D
$EndMODULE  SOT23-AXC
$MODULE SOIC-8-3.8mm
Po 0 0 0 15 4CAAC002 00000000 ~~
Li SOIC-8-3.8mm
Kw SOIC8 SOIC-8 M08A
Sc 00000000
AR
Op 0 0 0
At SMD
T0 -1417 -79 400 400 900 80 N V 21 N"SOIC-8-3.8mm"
T1 0 0 300 300 0 50 N I 21 N"VAL**"
DS -945 157 -709 157 80 21
DS -709 157 -709 -157 80 21
DS -709 -157 -945 -157 80 21
DS 945 -472 -945 -472 80 21
DS -945 472 945 472 80 21
DS 945 472 945 -472 80 21
DS -945 472 -945 -472 80 21
$PAD
Sh "1" R 256 689 0 0 0
Dr 0 0 0
At SMD N 00888000
Ne 0 ""
Po -750 1102
$EndPAD
$PAD
Sh "2" R 256 689 0 0 0
Dr 0 0 0
At SMD N 00888000
Ne 0 ""
Po -250 1102
$EndPAD
$PAD
Sh "3" R 256 689 0 0 0
Dr 0 0 0
At SMD N 00888000
Ne 0 ""
Po 250 1102
$EndPAD
$PAD
Sh "4" R 256 689 0 0 0
Dr 0 0 0
At SMD N 00888000
Ne 0 ""
Po 750 1102
$EndPAD
$PAD
Sh "5" R 256 689 0 0 0
Dr 0 0 0
At SMD N 00888000
Ne 0 ""
Po 750 -1102
$EndPAD
$PAD
Sh "6" R 256 689 0 0 0
Dr 0 0 0
At SMD N 00888000
Ne 0 ""
Po 250 -1102
$EndPAD
$PAD
Sh "7" R 256 689 0 0 0
Dr 0 0 0
At SMD N 00888000
Ne 0 ""
Po -250 -1102
$EndPAD
$PAD
Sh "8" R 256 689 0 0 0
Dr 0 0 0
At SMD N 00888000
Ne 0 ""
Po -750 -1102
$EndPAD
$SHAPE3D
Na "smd/cms_so8.wrl"
Sc 0.500000 0.350000 0.350000
Of -0.001500 0.000000 0.000000
Ro 0.000000 0.000000 0.000000
$EndSHAPE3D
$EndMODULE  SOIC-8-3.8mm
$MODULE SOT363
Po 0 0 0 15 4CAE861C 00000000 ~~
Li SOT363
Sc 00000000
AR
Op 0 0 0
.LocalClearance 20
T0 39 1024 300 300 0 50 N V 21 N"SOT363"
T1 -79 -906 300 300 0 50 N I 21 N"VAL**"
DS -150 -550 -150 -400 80 21
DS -150 -400 150 -400 80 21
DS 150 -400 150 -550 80 21
DS -591 -551 -591 551 80 21
DS -591 551 591 551 80 21
DS 591 512 591 551 80 21
DS 591 -551 591 512 80 21
DS -591 -551 591 -551 80 21
$PAD
Sh "2" R 236 157 0 0 0
Dr 0 0 0
At SMD N 00888000
Ne 0 ""
Po -354 0
$EndPAD
$PAD
Sh "5" R 236 157 0 0 0
Dr 0 0 0
At SMD N 00888000
Ne 0 ""
Po 354 0
$EndPAD
$PAD
Sh "1" R 236 236 0 0 0
Dr 0 0 0
At SMD N 00888000
Ne 0 ""
Po -354 -295
$EndPAD
$PAD
Sh "3" R 236 236 0 0 0
Dr 0 0 0
At SMD N 00888000
Ne 0 ""
Po -354 295
$EndPAD
$PAD
Sh "4" R 236 236 0 0 0
Dr 0 0 0
At SMD N 00888000
Ne 0 ""
Po 354 295
$EndPAD
$PAD
Sh "6" R 236 236 0 0 0
Dr 0 0 0
At SMD N 00888000
Ne 0 ""
Po 354 -295
$EndPAD
$SHAPE3D
Na "smd/SOT23_6.wrl"
Sc 0.080000 0.080000 0.080000
Of 0.000000 0.000000 0.000000
Ro 0.000000 0.000000 90.000000
$EndSHAPE3D
$EndMODULE  SOT363
$MODULE SOT23-6
Po 0 0 0 15 4CAE8C01 00000000 ~~
Li SOT23-6
Sc 00000000
AR
Op 0 0 0
.LocalClearance 20
At SMD
T0 0 -1100 300 300 0 50 N V 21 N"SOT23-6"
T1 0 0 300 300 0 50 N I 21 N"VAL**"
DS -700 -150 -500 -150 80 21
DS -500 -150 -500 150 80 21
DS -500 150 -700 150 80 21
DS -700 -850 700 -850 80 21
DS 700 -850 700 850 80 21
DS 700 850 -700 850 80 21
DS -700 850 -700 -850 80 21
$PAD
Sh "5" R 270 390 0 0 0
Dr 0 0 0
At SMD N 00888000
Ne 0 ""
Po 0 -500
$EndPAD
$PAD
Sh "6" R 270 390 0 0 0
Dr 0 0 0
At SMD N 00888000
Ne 0 ""
Po -375 -500
$EndPAD
$PAD
Sh "1" R 270 390 0 0 0
Dr 0 0 0
At SMD N 00888000
Ne 0 ""
Po -375 500
$EndPAD
$PAD
Sh "2" R 270 390 0 0 0
Dr 0 0 0
At SMD N 00888000
Ne 0 ""
Po 0 500
$EndPAD
$PAD
Sh "3" R 270 390 0 0 0
Dr 0 0 0
At SMD N 00888000
Ne 0 ""
Po 375 500
$EndPAD
$PAD
Sh "4" R 270 390 0 0 0
Dr 0 0 0
At SMD N 00888000
Ne 0 ""
Po 375 -500
$EndPAD
$SHAPE3D
Na "smd/SOT23_6.wrl"
Sc 0.100000 0.120000 0.100000
Of 0.000000 0.000000 0.000000
Ro 0.000000 0.000000 0.000000
$EndSHAPE3D
$EndMODULE  SOT23-6
$MODULE SM0805
Po 0 0 0 15 4CB299F5 00000000 ~~
Li SM0805
Sc 00000000
AR
Op 0 0 0
.LocalClearance 100
At SMD
T0 0 -591 300 300 0 50 N V 21 N"SM0805"
T1 0 0 200 200 0 40 N I 21 N"VAL**"
DS -886 394 886 394 80 21
DS 886 394 886 -394 80 21
DS 886 -394 -886 -394 80 21
DS -886 -394 -886 394 80 21
$PAD
Sh "1" R 472 512 0 0 0
Dr 0 0 0
At SMD N 00888000
Ne 0 ""
Po -472 0
$EndPAD
$PAD
Sh "2" R 472 512 0 0 0
Dr 0 0 0
At SMD N 00888000
Ne 0 ""
Po 472 0
$EndPAD
$SHAPE3D
Na "smd/chip_cms.wrl"
Sc 0.100000 0.100000 0.100000
Of 0.000000 0.000000 0.000000
Ro 0.000000 0.000000 0.000000
$EndSHAPE3D
$EndMODULE  SM0805
$MODULE SOD-123
Po 0 0 0 15 4CB2A5CB 00000000 ~~
Li SOD-123
Sc 00000000
AR
Op 0 0 0
T0 0 -709 300 300 0 50 N V 21 N"SOD-123"
T1 0 709 300 300 0 50 N V 21 N"VAL**"
DS 197 295 197 -295 80 21
DS 295 295 295 -295 80 21
DS -1181 295 1181 295 80 21
DS 1181 295 1181 -295 80 21
DS 1181 -295 -1181 -295 80 21
DS -1181 -295 -1181 295 80 21
$PAD
Sh "1" R 472 276 0 0 0
Dr 0 0 0
At SMD N 00888000
Ne 0 ""
Po -728 0
$EndPAD
$PAD
Sh "2" R 472 276 0 0 0
Dr 0 0 0
At SMD N 00888000
Ne 0 ""
Po 728 0
$EndPAD
$SHAPE3D
Na "smd/chip_cms_pol.wrl"
Sc 0.160000 0.140000 0.160000
Of 0.000000 0.000000 0.000000
Ro 0.000000 0.000000 180.000000
$EndSHAPE3D
$EndMODULE  SOD-123
$MODULE SM1206POL
Po 0 0 0 15 4CB2A62F 00000000 ~~
Li SM1206POL
Sc 00000000
AR
Op 0 0 0
T0 0 -787 300 300 0 50 N V 21 N"SM1206POL"
T1 0 787 300 300 0 50 N I 21 N"VAL**"
DS 118 433 118 -433 80 21
DS 236 -433 236 433 80 21
DS -1142 -433 1142 -433 80 21
DS 1142 -433 1142 433 80 21
DS 1142 433 -1142 433 80 21
DS -1142 433 -1142 -433 80 21
$PAD
Sh "1" R 591 591 0 0 0
Dr 0 0 0
At SMD N 00888000
Ne 0 ""
Po -689 0
$EndPAD
$PAD
Sh "2" R 591 591 0 0 0
Dr 0 0 0
At SMD N 00888000
Ne 0 ""
Po 689 0
$EndPAD
$SHAPE3D
Na "smd/led_0805.wrl"
Sc 0.750000 0.500000 0.750000
Of 0.000000 0.000000 0.002000
Ro 0.000000 0.000000 0.000000
$EndSHAPE3D
$EndMODULE  SM1206POL
$MODULE SOD-523F
Po 0 0 0 15 4CB2A693 00000000 ~~
Li SOD-523F
Sc 00000000
AR
Op 0 0 0
T0 0 -591 300 300 0 50 N V 21 N"SOD-523F"
T1 0 0 300 300 0 50 N I 21 N"VAL**"
DS 79 276 79 -276 80 21
DS 709 276 709 -276 80 21
DS 709 -276 -709 -276 80 21
DS -709 -276 -709 276 80 21
DS -709 276 709 276 80 21
$PAD
Sh "1" R 315 197 0 0 0
Dr 0 0 0
At SMD N 00888000
Ne 0 ""
Po -394 0
$EndPAD
$PAD
Sh "2" R 315 197 0 0 0
Dr 0 0 0
At SMD N 00888000
Ne 0 ""
Po 394 0
$EndPAD
$SHAPE3D
Na "smd/chip_cms_pol.wrl"
Sc 0.090000 0.090000 0.090000
Of 0.000000 0.000000 0.000000
Ro 0.000000 0.000000 180.000000
$EndSHAPE3D
$EndMODULE  SOD-523F
$MODULE HC49
Po 0 0 0 15 4CC65A92 00000000 ~~
Li HC49
Sc 00000000
AR
Op 0 0 0
T0 0 -1500 600 600 0 120 N V 21 N"HC49"
T1 0 1750 600 600 0 120 N V 21 N"VAL**"
DS 1280 984 -1280 984 150 21
DS -1280 -984 1280 -984 150 21
DA -1280 0 -1280 984 900 150 21
DA -1280 0 -2264 0 900 150 21
DA 1280 0 2264 0 900 150 21
DA 1280 0 1280 -984 900 150 21
$PAD
Sh "1" C 600 600 0 0 0
Dr 280 0 0
At STD N 00E0FFFF
Ne 0 ""
Po -961 0
$EndPAD
$PAD
Sh "2" C 600 600 0 0 0
Dr 280 0 0
At STD N 00E0FFFF
Ne 0 ""
Po 961 0
$EndPAD
$SHAPE3D
Na "discret/xtal/crystal_hc18u.wrl"
Sc 1.000000 1.000000 1.000000
Of 0.000000 0.000000 0.000000
Ro 0.000000 0.000000 0.000000
$EndSHAPE3D
$EndMODULE  HC49
$MODULE SM0402
Po 0 0 0 15 4CC65C0C 00000000 ~~
Li SM0402
Sc 00000000
AR
Op 0 0 0
At SMD
T0 0 -689 300 300 0 50 N V 21 N"SM0402"
T1 0 591 280 180 0 45 N I 21 N"Val**"
DS -591 -315 -591 315 80 21
DS -591 315 591 315 80 21
DS 591 315 591 -315 80 21
DS 591 -315 -591 -315 80 21
$PAD
Sh "1" R 320 320 0 0 0
Dr 0 0 0
At SMD N 00888000
Ne 0 ""
Po -260 0
$EndPAD
$PAD
Sh "2" R 320 320 0 0 0
Dr 0 0 0
At SMD N 00888000
Ne 0 ""
Po 260 0
$EndPAD
$SHAPE3D
Na "smd/chip_cms.wrl"
Sc 0.050000 0.050000 0.050000
Of 0.000000 0.000000 0.000000
Ro 0.000000 0.000000 0.000000
$EndSHAPE3D
$EndMODULE  SM0402
$MODULE SM0603
Po 0 0 0 15 4CC65D04 00000000 ~~
Li SM0603
Sc 00000000
AR
Op 0 0 0
At SMD
T0 0 -689 300 300 0 50 N V 21 N"SM0603"
T1 0 689 280 180 0 45 N I 21 N"Val**"
DS 650 -350 650 350 80 21
DS 650 350 -625 350 80 21
DS -625 350 -625 -350 80 21
DS -625 -350 650 -350 80 21
$PAD
Sh "1" R 360 400 0 0 0
Dr 0 0 0
At SMD N 00888000
Ne 0 ""
Po -295 0
$EndPAD
$PAD
Sh "2" R 360 400 0 0 0
Dr 0 0 0
At SMD N 00888000
Ne 0 ""
Po 320 0
$EndPAD
$SHAPE3D
Na "smd/chip_cms.wrl"
Sc 0.080000 0.080000 0.080000
Of 0.000000 0.000000 0.000000
Ro 0.000000 0.000000 0.000000
$EndSHAPE3D
$EndMODULE  SM0603
$MODULE SSOP-20-5.3mm
Po 0 0 0 15 4CC65E41 00000000 ~~
Li SSOP-20-5.3mm
Kw SSOP-20 SSOP20 20-SSOP
Sc 00000000
AR
Op 0 0 0
At SMD
T0 -1969 0 394 394 900 79 N V 21 N"SSOP-20-5.3mm"
T1 0 0 236 236 0 39 N I 21 N"VAL**"
DS -1378 -295 -984 -295 80 21
DS -984 -295 -984 295 80 21
DS -984 295 -1378 295 80 21
DS -1417 -906 1417 -906 80 21
DS 1417 -906 1417 906 80 21
DS 1417 906 -1417 906 80 21
DS -1417 906 -1417 -906 80 21
$PAD
Sh "19" R 157 787 0 0 0
Dr 0 0 0
At SMD N 00888000
Ne 0 ""
Po -896 -1465
$EndPAD
$PAD
Sh "20" R 157 787 0 0 0
Dr 0 0 0
At SMD N 00888000
Ne 0 ""
Po -1152 -1465
$EndPAD
$PAD
Sh "1" R 157 787 0 0 0
Dr 0 0 0
At SMD N 00888000
Ne 0 ""
Po -1152 1465
$EndPAD
$PAD
Sh "2" R 157 787 0 0 0
Dr 0 0 0
At SMD N 00888000
Ne 0 ""
Po -896 1465
$EndPAD
$PAD
Sh "3" R 157 787 0 0 0
Dr 0 0 0
At SMD N 00888000
Ne 0 ""
Po -640 1465
$EndPAD
$PAD
Sh "4" R 157 787 0 0 0
Dr 0 0 0
At SMD N 00888000
Ne 0 ""
Po -384 1465
$EndPAD
$PAD
Sh "5" R 157 787 0 0 0
Dr 0 0 0
At SMD N 00888000
Ne 0 ""
Po -128 1465
$EndPAD
$PAD
Sh "6" R 157 787 0 0 0
Dr 0 0 0
At SMD N 00888000
Ne 0 ""
Po 128 1465
$EndPAD
$PAD
Sh "7" R 157 787 0 0 0
Dr 0 0 0
At SMD N 00888000
Ne 0 ""
Po 384 1465
$EndPAD
$PAD
Sh "8" R 157 787 0 0 0
Dr 0 0 0
At SMD N 00888000
Ne 0 ""
Po 640 1465
$EndPAD
$PAD
Sh "9" R 157 787 0 0 0
Dr 0 0 0
At SMD N 00888000
Ne 0 ""
Po 896 1465
$EndPAD
$PAD
Sh "10" R 157 787 0 0 0
Dr 0 0 0
At SMD N 00888000
Ne 0 ""
Po 1152 1465
$EndPAD
$PAD
Sh "11" R 157 787 0 0 0
Dr 0 0 0
At SMD N 00888000
Ne 0 ""
Po 1152 -1465
$EndPAD
$PAD
Sh "12" R 157 787 0 0 0
Dr 0 0 0
At SMD N 00888000
Ne 0 ""
Po 896 -1465
$EndPAD
$PAD
Sh "13" R 157 787 0 0 0
Dr 0 0 0
At SMD N 00888000
Ne 0 ""
Po 640 -1465
$EndPAD
$PAD
Sh "14" R 157 787 0 0 0
Dr 0 0 0
At SMD N 00888000
Ne 0 ""
Po 384 -1465
$EndPAD
$PAD
Sh "15" R 157 787 0 0 0
Dr 0 0 0
At SMD N 00888000
Ne 0 ""
Po 128 -1465
$EndPAD
$PAD
Sh "16" R 157 787 0 0 0
Dr 0 0 0
At SMD N 00888000
Ne 0 ""
Po -128 -1465
$EndPAD
$PAD
Sh "17" R 157 787 0 0 0
Dr 0 0 0
At SMD N 00888000
Ne 0 ""
Po -384 -1465
$EndPAD
$PAD
Sh "18" R 157 787 0 0 0
Dr 0 0 0
At SMD N 00888000
Ne 0 ""
Po -640 -1465
$EndPAD
$SHAPE3D
Na "smd/cms_so20.wrl"
Sc 0.255000 0.400000 0.400000
Of -0.001000 0.000000 0.000000
Ro 0.000000 0.000000 0.000000
$EndSHAPE3D
$EndMODULE  SSOP-20-5.3mm
$MODULE HOLE_M2_25PCT
Po 0 0 0 15 4CC791E3 00000000 ~~
Li HOLE_M2_25PCT
Sc 00000000
AR
Op 0 0 0
T0 0 -315 157 157 0 28 N I 21 N"HOLE_M2_25PCT"
T1 0 354 157 157 0 28 N I 21 N"VAL**"
$PAD
Sh "1" C 1230 1230 0 0 0
Dr 866 0 0
At STD N 00C0FFFF
Ne 0 ""
Po 0 0
$EndPAD
$EndMODULE  HOLE_M2_25PCT
$MODULE SIL-6
Po 0 0 0 15 4CC7A9DC 00000000 ~~
Li SIL-6
Sc 00000000
AR
Op 0 0 0
T0 0 -1100 681 428 0 107 N V 21 N"SIL-6"
T1 0 1100 600 400 0 100 N I 21 N"CONN_6"
DS -3000 500 -3000 -500 120 21
DS -3000 -500 3000 -500 120 21
DS 3000 -500 3000 500 120 21
DS 3000 500 -3000 500 120 21
DS -2000 500 -2000 -500 120 21
$PAD
Sh "1" R 700 700 0 0 0
Dr 450 0 0
At STD N 00E0FFFF
Ne 0 ""
Po -2500 0
$EndPAD
$PAD
Sh "2" C 700 700 0 0 0
Dr 450 0 0
At STD N 00E0FFFF
Ne 0 ""
Po -1500 0
$EndPAD
$PAD
Sh "3" C 700 700 0 0 0
Dr 450 0 0
At STD N 00E0FFFF
Ne 0 ""
Po -500 0
$EndPAD
$PAD
Sh "4" C 700 700 0 0 0
Dr 450 0 0
At STD N 00E0FFFF
Ne 0 ""
Po 500 0
$EndPAD
$PAD
Sh "5" C 700 700 0 0 0
Dr 450 0 0
At STD N 00E0FFFF
Ne 0 ""
Po 1500 0
$EndPAD
$PAD
Sh "6" C 700 700 0 0 0
Dr 450 0 0
At STD N 00E0FFFF
Ne 0 ""
Po 2500 0
$EndPAD
$SHAPE3D
Na "header_6x1_90.wrl"
Sc 1.000000 1.000000 1.000000
Of 0.000000 0.000000 0.000000
Ro 0.000000 0.000000 0.000000
$EndSHAPE3D
$EndMODULE  SIL-6
$MODULE 8P8C_JACK_MOLEX
Po 0 0 0 15 4CC7B642 00000000 ~~
Li 8P8C_JACK_MOLEX
Sc 00000000
AR
Op 0 0 0
T0 -3600 -700 600 600 900 120 N V 21 N"8P8C_JACK_MOLEX"
T1 0 -2400 600 600 0 120 N I 21 N"VAL**"
DS -3100 400 -3100 -3900 150 21
DS -3100 -3900 3100 -3900 150 21
DS -3100 3000 -3100 1600 150 21
DS 3100 400 3100 -3900 150 21
DS 3100 3000 3100 1600 150 21
$PAD
Sh "5" C 600 600 0 0 0
Dr 320 0 0
At STD N 00E0FFFF
Ne 0 ""
Po -200 0
$EndPAD
$PAD
Sh "7" C 600 600 0 0 0
Dr 320 0 0
At STD N 00E0FFFF
Ne 0 ""
Po -1000 0
$EndPAD
$PAD
Sh "6" C 600 600 0 0 0
Dr 320 0 0
At STD N 00E0FFFF
Ne 0 ""
Po -600 -700
$EndPAD
$PAD
Sh "8" C 600 600 0 0 0
Dr 320 0 0
At STD N 00E0FFFF
Ne 0 ""
Po -1400 -700
$EndPAD
$PAD
Sh "4" C 600 600 0 0 0
Dr 320 0 0
At STD N 00E0FFFF
Ne 0 ""
Po 200 -700
$EndPAD
$PAD
Sh "3" C 600 600 0 0 0
Dr 320 0 0
At STD N 00E0FFFF
Ne 0 ""
Po 600 0
$EndPAD
$PAD
Sh "2" C 600 600 0 0 0
Dr 320 0 0
At STD N 00E0FFFF
Ne 0 ""
Po 1000 -700
$EndPAD
$PAD
Sh "1" C 600 600 0 0 0
Dr 320 0 0
At STD N 00E0FFFF
Ne 0 ""
Po 1400 0
$EndPAD
$PAD
Sh "" C 1000 1000 0 0 0
Dr 1000 0 0
At STD N 00E0FFFF
Ne 0 ""
Po -2500 1000
$EndPAD
$PAD
Sh "" C 1000 1000 0 0 0
Dr 1000 0 0
At STD N 00E0FFFF
Ne 0 ""
Po 2500 1000
$EndPAD
$EndMODULE  8P8C_JACK_MOLEX
$MODULE HOLE_M3_25PCT
Po 0 0 0 15 4CC8BB9E 00000000 ~~
Li HOLE_M3_25PCT
Sc 00000000
AR 
Op 0 0 0
T0 0 -315 157 157 0 28 N I 21 N"HOLE_M3_25PCT"
T1 0 354 157 157 0 28 N I 21 N"VAL**"
$PAD
Sh "1" C 1722 1722 0 0 0
Dr 1378 0 0
At STD N 00C0FFFF
Ne 0 ""
Po 0 0
$EndPAD
$EndMODULE  HOLE_M3_25PCT
$EndLIBRARY
