PCBNEW-LibModule-V1  vie 04 may 2012 12:19:32 COT
# encoding utf-8
$INDEX
SSOP28
$EndINDEX
$MODULE SSOP28
Po 0 0 0 15 3D81AA31 4B46CF67 ~~
Li SSOP28
Cd SSOP 28 pins
Kw CMS SSOP SMD
Sc 4B46CF67
AR SSOP28
Op 0 0 0
At SMD 
T0 50 -600 300 300 0 50 N V 21 N "SSOP28"
T1 0 450 300 300 0 50 N V 21 N "Val**"
DC -1800 850 -1900 750 50 21
DS -2000 -250 -1700 -250 50 21
DS -1700 -250 -1700 250 50 21
DS -1700 250 -2000 250 50 21
DS 2050 1050 -2000 1050 50 21
DS -2000 -1050 2050 -1050 50 21
DS -2000 -1050 -2000 1050 50 21
DS 2050 -1050 2050 1050 50 21
$PAD
Sh "1" R 160 500 0 0 0
Dr 0 0 0
At SMD N 00888000
Ne 0 ""
Po -1650 1400
$EndPAD
$PAD
Sh "2" R 160 500 0 0 0
Dr 0 0 0
At SMD N 00888000
Ne 0 ""
Po -1400 1400
$EndPAD
$PAD
Sh "3" R 160 500 0 0 0
Dr 0 0 0
At SMD N 00888000
Ne 0 ""
Po -1140 1400
$EndPAD
$PAD
Sh "4" R 160 500 0 0 0
Dr 0 0 0
At SMD N 00888000
Ne 0 ""
Po -880 1400
$EndPAD
$PAD
Sh "5" R 160 500 0 0 0
Dr 0 0 0
At SMD N 00888000
Ne 0 ""
Po -630 1400
$EndPAD
$PAD
Sh "6" R 160 500 0 0 0
Dr 0 0 0
At SMD N 00888000
Ne 0 ""
Po -370 1400
$EndPAD
$PAD
Sh "7" R 160 500 0 0 0
Dr 0 0 0
At SMD N 00888000
Ne 0 ""
Po -110 1400
$EndPAD
$PAD
Sh "8" R 160 500 0 0 0
Dr 0 0 0
At SMD N 00888000
Ne 0 ""
Po 140 1400
$EndPAD
$PAD
Sh "9" R 160 500 0 0 0
Dr 0 0 0
At SMD N 00888000
Ne 0 ""
Po 400 1400
$EndPAD
$PAD
Sh "10" R 160 500 0 0 0
Dr 0 0 0
At SMD N 00888000
Ne 0 ""
Po 650 1400
$EndPAD
$PAD
Sh "11" R 160 500 0 0 0
Dr 0 0 0
At SMD N 00888000
Ne 0 ""
Po 910 1400
$EndPAD
$PAD
Sh "12" R 160 500 0 0 0
Dr 0 0 0
At SMD N 00888000
Ne 0 ""
Po 1170 1400
$EndPAD
$PAD
Sh "13" R 160 500 0 0 0
Dr 0 0 0
At SMD N 00888000
Ne 0 ""
Po 1420 1400
$EndPAD
$PAD
Sh "14" R 160 500 0 0 0
Dr 0 0 0
At SMD N 00888000
Ne 0 ""
Po 1680 1400
$EndPAD
$PAD
Sh "15" R 160 500 0 0 0
Dr 0 0 0
At SMD N 00888000
Ne 0 ""
Po 1680 -1400
$EndPAD
$PAD
Sh "16" R 160 500 0 0 0
Dr 0 0 0
At SMD N 00888000
Ne 0 ""
Po 1420 -1400
$EndPAD
$PAD
Sh "17" R 160 500 0 0 0
Dr 0 0 0
At SMD N 00888000
Ne 0 ""
Po 1180 -1400
$EndPAD
$PAD
Sh "18" R 160 500 0 0 0
Dr 0 0 0
At SMD N 00888000
Ne 0 ""
Po 910 -1400
$EndPAD
$PAD
Sh "19" R 160 500 0 0 0
Dr 0 0 0
At SMD N 00888000
Ne 0 ""
Po 650 -1400
$EndPAD
$PAD
Sh "20" R 160 500 0 0 0
Dr 0 0 0
At SMD N 00888000
Ne 0 ""
Po 400 -1400
$EndPAD
$PAD
Sh "21" R 160 500 0 0 0
Dr 0 0 0
At SMD N 00888000
Ne 0 ""
Po 140 -1400
$EndPAD
$PAD
Sh "22" R 160 500 0 0 0
Dr 0 0 0
At SMD N 00888000
Ne 0 ""
Po -110 -1400
$EndPAD
$PAD
Sh "23" R 160 500 0 0 0
Dr 0 0 0
At SMD N 00888000
Ne 0 ""
Po -370 -1400
$EndPAD
$PAD
Sh "24" R 160 500 0 0 0
Dr 0 0 0
At SMD N 00888000
Ne 0 ""
Po -630 -1400
$EndPAD
$PAD
Sh "25" R 160 500 0 0 0
Dr 0 0 0
At SMD N 00888000
Ne 0 ""
Po -880 -1400
$EndPAD
$PAD
Sh "26" R 160 500 0 0 0
Dr 0 0 0
At SMD N 00888000
Ne 0 ""
Po -1140 -1400
$EndPAD
$PAD
Sh "27" R 160 500 0 0 0
Dr 0 0 0
At SMD N 00888000
Ne 0 ""
Po -1400 -1400
$EndPAD
$PAD
Sh "28" R 160 500 0 0 0
Dr 0 0 0
At SMD N 00888000
Ne 0 ""
Po -1650 -1400
$EndPAD
$SHAPE3D
Na "smd/cms_soj28.wrl"
Sc 0.256000 0.500000 0.250000
Of 0.000000 0.000000 0.000000
Ro 0.000000 0.000000 0.000000
$EndSHAPE3D
$EndMODULE  SSOP28
$EndLIBRARY
