PCBNEW-LibModule-V1  16/03/2014 1:36:07 p. m.
# encoding utf-8
Units mm
$INDEX
ABM8G
$EndINDEX
$MODULE ABM8G
Po 0 0 0 15 4E4A939B 00000000 ~~
Li ABM8G
Sc 0
AR /4D30AC69/4E431143
Op 0 0 0
T0 1.84912 1.64846 0.70104 0.70104 0 0.09906 N V 21 N "X1"
T1 0 1.99898 0.89916 0.89916 0 0.09906 N I 21 N "24MHz"
DS -1.50114 1.00076 3.29946 1.00076 0.20066 21
DS 3.29946 1.00076 3.29946 -2.70002 0.20066 21
DS 3.29946 -2.70002 -1.19888 -2.70002 0.20066 21
DS -1.19888 -2.70002 -1.19888 1.19888 0.20066 21
DS -1.19888 1.19888 -1.19888 1.39954 0.20066 21
DS -1.19888 1.39954 -1.50114 1.39954 0.20066 21
DS -1.50114 1.39954 -1.50114 1.09982 0.20066 21
$PAD
Sh "1" R 1.39954 1.19888 0 0 0
Dr 0 0 0
At SMD N 00888000
Ne 1 "/i.MX233/XTAL0"
Po 0 0
$EndPAD
$PAD
Sh "2" R 1.39954 1.19888 0 0 0
Dr 0 0 0
At SMD N 00888000
Ne 3 "GND"
Po 2.19964 0
$EndPAD
$PAD
Sh "3" R 1.39954 1.19888 0 0 0
Dr 0 0 0
At SMD N 00888000
Ne 2 "/i.MX233/XTALI"
Po 2.19964 -1.69926
$EndPAD
$PAD
Sh "4" R 1.39954 1.19888 0 0 0
Dr 0 0 0
At SMD N 00888000
Ne 3 "GND"
Po 0 -1.69926
$EndPAD
$EndMODULE ABM8G
$EndLIBRARY
