PCBNEW-LibModule-V1  20/11/2008-05:30:47
$INDEX
KSA
LM2931
LM78LXX
LM79LXX
LM79XX
LM78XX
TO3
TO220
VP0808
CP10
CP12
CP14
CP16
CP18
CP36V
CP4
CP5
CP6
CP8
C1
C1-1
C2
CPR10X16
CV3-30PF
CVAR3X2
C1V5
R1
R3
R4
R6
R7
RV2
RV2X4
D4
D5
D6
SELF1408
SELF1418
SUBCLICK
SW_PUSH
SW_SPDT
SWDIP8
CP20
SWDIP4
LEDV
FUSE5-20
HC-18UV
HC-18UH
HC-33UH
HC-33UV
swdip3
R5
C2V10
LCD4
LM16255
D3
OSC_DIP8
TO18CBE
TO18EBC
TO39EBC
MIRE
C1V8
C1V7
C1V7H
TO18GSD
r_pack8
r_pack9
R3-5
R4-5
C1.5V8H
TO220_VERT
PUSH_BUTT_SHAPE1
INDUCTOR_V
TO92
TO92-INVERT
TO92GSD
TO92DGS
TO220GDS
TO92H
TO92_INVERT_H
CR1220
C1.5V8V
SUPER_CAP
EMI_FILTER
D6.5
QMONTRE
C2V8
SW_PUSH_SMALL
R3-LARGE_PADS
R4-LARGE_PADS
TO92-EBC
TO92-CBE
C1V5H
microswitch_Nikkai
MICROSWITCH_SPST
MICROSWITCH_SPST_H
$EndINDEX
$MODULE LCD4
Po 65750 23500 0 15 00200000 00000000 ~~
Li LCD4
Cd Afficheur LCD 4 digits
Kw LCD
Sc 00000000
Op 0 0 0
T0 0 2500 1500 1500 0 120 N V 21 "LCD4"
T1 0 -2500 1000 1000 0 120 N V 21 "AFFICH*"
DS 10500 -6500 -10500 -6500 150 21
DS -10500 -6500 -10500 6500 150 21
DS -10500 6500 10500 6500 150 21
DS 10500 6500 10500 -6500 150 21
$PAD
Sh "1" R 600 600 0 0 0
Dr 310 0 0
At STD N 00E0FFFF
Ne 0 ""
Po -9500 6500
$EndPAD
$PAD
Sh "2" C 600 600 0 0 0
Dr 310 0 0
At STD N 00E0FFFF
Ne 0 ""
Po -8500 6500
$EndPAD
$PAD
Sh "3" C 600 600 0 0 0
Dr 310 0 0
At STD N 00E0FFFF
Ne 0 ""
Po -7500 6500
$EndPAD
$PAD
Sh "4" C 600 600 0 0 0
Dr 310 0 0
At STD N 00E0FFFF
Ne 0 ""
Po -6500 6500
$EndPAD
$PAD
Sh "5" C 600 600 0 0 0
Dr 310 0 0
At STD N 00E0FFFF
Ne 0 ""
Po -5500 6500
$EndPAD
$PAD
Sh "6" C 600 600 0 0 0
Dr 310 0 0
At STD N 00E0FFFF
Ne 0 ""
Po -4500 6500
$EndPAD
$PAD
Sh "7" C 600 600 0 0 0
Dr 310 0 0
At STD N 00E0FFFF
Ne 0 ""
Po -3500 6500
$EndPAD
$PAD
Sh "8" C 600 600 0 0 0
Dr 310 0 0
At STD N 00E0FFFF
Ne 0 ""
Po -2500 6500
$EndPAD
$PAD
Sh "9" C 600 600 0 0 0
Dr 310 0 0
At STD N 00E0FFFF
Ne 0 ""
Po -1500 6500
$EndPAD
$PAD
Sh "10" C 600 600 0 0 0
Dr 310 0 0
At STD N 00E0FFFF
Ne 0 ""
Po -500 6500
$EndPAD
$PAD
Sh "11" C 600 600 0 0 0
Dr 310 0 0
At STD N 00E0FFFF
Ne 0 ""
Po 500 6500
$EndPAD
$PAD
Sh "12" C 600 600 0 0 0
Dr 310 0 0
At STD N 00E0FFFF
Ne 0 ""
Po 1500 6500
$EndPAD
$PAD
Sh "13" C 600 600 0 0 0
Dr 310 0 0
At STD N 00E0FFFF
Ne 0 ""
Po 2500 6500
$EndPAD
$PAD
Sh "14" C 600 600 0 0 0
Dr 310 0 0
At STD N 00E0FFFF
Ne 0 ""
Po 3500 6500
$EndPAD
$PAD
Sh "15" C 600 600 0 0 0
Dr 310 0 0
At STD N 00E0FFFF
Ne 0 ""
Po 4500 6500
$EndPAD
$PAD
Sh "16" C 600 600 0 0 0
Dr 310 0 0
At STD N 00E0FFFF
Ne 0 ""
Po 5500 6500
$EndPAD
$PAD
Sh "17" C 600 600 0 0 0
Dr 310 0 0
At STD N 00E0FFFF
Ne 0 ""
Po 6500 6500
$EndPAD
$PAD
Sh "18" C 600 600 0 0 0
Dr 310 0 0
At STD N 00E0FFFF
Ne 0 ""
Po 7500 6500
$EndPAD
$PAD
Sh "19" C 600 600 0 0 0
Dr 310 0 0
At STD N 00E0FFFF
Ne 0 ""
Po 8500 6500
$EndPAD
$PAD
Sh "20" C 600 600 0 0 0
Dr 310 0 0
At STD N 00E0FFFF
Ne 0 ""
Po 9500 6500
$EndPAD
$PAD
Sh "21" C 600 600 0 0 0
Dr 310 0 0
At STD N 00E0FFFF
Ne 0 ""
Po 9500 -6500
$EndPAD
$PAD
Sh "22" C 600 600 0 0 0
Dr 310 0 0
At STD N 00E0FFFF
Ne 0 ""
Po 8500 -6500
$EndPAD
$PAD
Sh "23" C 600 600 0 0 0
Dr 310 0 0
At STD N 00E0FFFF
Ne 0 ""
Po 7500 -6500
$EndPAD
$PAD
Sh "24" C 600 600 0 0 0
Dr 310 0 0
At STD N 00E0FFFF
Ne 0 ""
Po 6500 -6500
$EndPAD
$PAD
Sh "25" C 600 600 0 0 0
Dr 310 0 0
At STD N 00E0FFFF
Ne 0 ""
Po 5500 -6500
$EndPAD
$PAD
Sh "26" C 600 600 0 0 0
Dr 310 0 0
At STD N 00E0FFFF
Ne 0 ""
Po 4500 -6500
$EndPAD
$PAD
Sh "27" C 600 600 0 0 0
Dr 310 0 0
At STD N 00E0FFFF
Ne 0 ""
Po 3500 -6500
$EndPAD
$PAD
Sh "28" C 600 600 0 0 0
Dr 310 0 0
At STD N 00E0FFFF
Ne 0 ""
Po 2500 -6500
$EndPAD
$PAD
Sh "29" C 600 600 0 0 0
Dr 310 0 0
At STD N 00E0FFFF
Ne 0 ""
Po 1500 -6500
$EndPAD
$PAD
Sh "30" C 600 600 0 0 0
Dr 310 0 0
At STD N 00E0FFFF
Ne 0 ""
Po 500 -6500
$EndPAD
$PAD
Sh "31" C 600 600 0 0 0
Dr 310 0 0
At STD N 00E0FFFF
Ne 0 ""
Po -500 -6500
$EndPAD
$PAD
Sh "32" C 600 600 0 0 0
Dr 310 0 0
At STD N 00E0FFFF
Ne 0 ""
Po -1500 -6500
$EndPAD
$PAD
Sh "33" C 600 600 0 0 0
Dr 310 0 0
At STD N 00E0FFFF
Ne 0 ""
Po -2500 -6500
$EndPAD
$PAD
Sh "34" C 600 600 0 0 0
Dr 310 0 0
At STD N 00E0FFFF
Ne 0 ""
Po -3500 -6500
$EndPAD
$PAD
Sh "35" C 600 600 0 0 0
Dr 310 0 0
At STD N 00E0FFFF
Ne 0 ""
Po -4500 -6500
$EndPAD
$PAD
Sh "36" C 600 600 0 0 0
Dr 310 0 0
At STD N 00E0FFFF
Ne 0 ""
Po -5500 -6500
$EndPAD
$PAD
Sh "37" C 600 600 0 0 0
Dr 310 0 0
At STD N 00E0FFFF
Ne 0 ""
Po -6500 -6500
$EndPAD
$PAD
Sh "38" C 600 600 0 0 0
Dr 310 0 0
At STD N 00E0FFFF
Ne 0 ""
Po -7500 -6500
$EndPAD
$PAD
Sh "39" C 600 600 0 0 0
Dr 310 0 0
At STD N 00E0FFFF
Ne 0 ""
Po -8500 -6500
$EndPAD
$PAD
Sh "40" C 600 600 0 0 0
Dr 310 0 0
At STD N 00E0FFFF
Ne 0 ""
Po -9500 -6500
$EndPAD
$EndMODULE  LCD4
$MODULE LM16255
Po 24500 31000 0 15 00200000 00000000 ~~
Li LM16255
Cd Afficher LCD LM16255 2 lignes de 16 car.
Kw LCD
Sc 00000000
Op 0 0 0
T0 6750 -13250 1784 1582 0 120 N V 21 "LM16255"
T1 6750 -3000 1161 1043 0 120 N V 21 "AFFICH**"
DS -7000 500 -7000 -500 150 21
DS -7000 -500 7000 -500 150 21
DS 7000 -500 7000 500 150 21
DS -10750 500 -10750 -16250 150 21
DS -10750 -16250 22750 -16250 150 21
DS 22750 -16250 22750 500 150 21
DS 22750 500 -10750 500 150 21
DS -9250 -13500 -7750 -15000 150 21
DS -7750 -15000 19750 -15000 150 21
DS 19750 -15000 21250 -13500 150 21
DS 21250 -13500 21250 -2000 150 21
DS 21250 -2000 20750 -2000 150 21
DS 20750 -2000 20750 -1500 150 21
DS 20750 -1500 -8750 -1500 150 21
DS -8750 -1500 -8750 -2000 150 21
DS -8750 -2000 -9250 -2000 150 21
DS -9250 -2000 -9250 -13500 150 21
DS -6250 -11500 18500 -11500 150 21
DS 18500 -11500 18500 -5000 150 21
DS 18500 -5000 -6250 -5000 150 21
DS -6250 -5000 -6250 -11500 150 21
$PAD
Sh "HOLE" C 1500 1500 0 0 0
Dr 1000 0 0
At STD N 00E0FFFF
Ne 0 ""
Po 22000 -14500
$EndPAD
$PAD
Sh "HOLE" C 1500 1500 0 0 0
Dr 1000 0 0
At STD N 00E0FFFF
Ne 0 ""
Po 21000 -500
$EndPAD
$PAD
Sh "HOLE" C 1500 1500 0 0 0
Dr 1000 0 0
At STD N 00E0FFFF
Ne 0 ""
Po -10000 -14500
$EndPAD
$PAD
Sh "HOLE" C 1500 1500 0 0 0
Dr 1000 0 0
At STD N 00E0FFFF
Ne 0 ""
Po -9000 -500
$EndPAD
$PAD
Sh "1" R 600 600 0 0 0
Dr 400 0 0
At STD N 00E0FFFF
Ne 0 ""
Po 6500 0
$EndPAD
$PAD
Sh "2" C 600 600 0 0 0
Dr 400 0 0
At STD N 00E0FFFF
Ne 0 ""
Po 5500 0
$EndPAD
$PAD
Sh "3" C 600 600 0 0 0
Dr 400 0 0
At STD N 00E0FFFF
Ne 0 ""
Po 4500 0
$EndPAD
$PAD
Sh "4" C 600 600 0 0 0
Dr 400 0 0
At STD N 00E0FFFF
Ne 0 ""
Po 3500 0
$EndPAD
$PAD
Sh "5" C 600 600 0 0 0
Dr 400 0 0
At STD N 00E0FFFF
Ne 0 ""
Po 2500 0
$EndPAD
$PAD
Sh "6" C 600 600 0 0 0
Dr 400 0 0
At STD N 00E0FFFF
Ne 0 ""
Po 1500 0
$EndPAD
$PAD
Sh "7" C 600 600 0 0 0
Dr 400 0 0
At STD N 00E0FFFF
Ne 0 ""
Po 500 0
$EndPAD
$PAD
Sh "8" C 600 600 0 0 0
Dr 400 0 0
At STD N 00E0FFFF
Ne 0 ""
Po -500 0
$EndPAD
$PAD
Sh "9" C 600 600 0 0 0
Dr 400 0 0
At STD N 00E0FFFF
Ne 0 ""
Po -1500 0
$EndPAD
$PAD
Sh "10" C 600 600 0 0 0
Dr 400 0 0
At STD N 00E0FFFF
Ne 0 ""
Po -2500 0
$EndPAD
$PAD
Sh "11" C 600 600 0 0 0
Dr 400 0 0
At STD N 00E0FFFF
Ne 0 ""
Po -3500 0
$EndPAD
$PAD
Sh "12" C 600 600 0 0 0
Dr 400 0 0
At STD N 00E0FFFF
Ne 0 ""
Po -4500 0
$EndPAD
$PAD
Sh "13" C 600 600 0 0 0
Dr 400 0 0
At STD N 00E0FFFF
Ne 0 ""
Po -5500 0
$EndPAD
$PAD
Sh "14" C 600 600 0 0 0
Dr 400 0 0
At STD N 00E0FFFF
Ne 0 ""
Po -6500 0
$EndPAD
$EndMODULE  LM16255
$MODULE CVAR3X2
Po 64000 80000 0 15 00200000 00000000 ~~
Li CVAR3X2
Cd Condensateur ajustable
Kw C DEV
Sc 00000000
Op 0 0 0
T0 -500 0 600 400 0 120 N V 21 ""
T1 50 -500 600 500 0 120 N V 21 "VAL*"
T0 0 350 600 500 0 120 N V 21 "CV3x2"
DS 1000 -2000 -1000 -2000 120 21
DS -1000 -2000 -2000 -1000 120 21
DS -2000 -1000 -2000 1500 120 21
DS -2000 1500 -1500 2000 120 21
DS -1500 2000 1500 2000 120 21
DS 1500 2000 2000 1500 120 21
DS 2000 1500 2000 -1000 120 21
DS 2000 -1000 1000 -2000 120 21
$PAD
Sh "1" C 1000 1000 0 0 0
Dr 520 0 0
At STD N 00E0FFFF
Ne 0 ""
Po 0 -1500
$EndPAD
$PAD
Sh "2" C 1000 1000 0 0 0
Dr 520 0 0
At STD N 00E0FFFF
Ne 0 ""
Po 1000 1500
$EndPAD
$PAD
Sh "3" C 1000 1000 0 0 0
Dr 520 0 0
At STD N 00E0FFFF
Ne 0 ""
Po -1000 1500
$EndPAD
$EndMODULE  CVAR3X2
$MODULE CV3-30PF
Po 69000 80000 0 15 00200000 00000000 ~~
Li CV3-30PF
Cd Condensateur ajustable miniature
Kw C DEV
Sc 00000000
Op 0 0 0
T1 0 1750 400 400 0 80 N I 21 "VAL*"
T0 0 1750 400 400 0 80 N V 21 "CV3-30PF"
DC 0 0 1250 0 150 21
DC 0 0 250 250 150 21
$PAD
Sh "1" C 600 600 0 0 0
Dr 320 0 0
At STD N 00E0FFFF
Ne 0 ""
Po 1000 0
$EndPAD
$PAD
Sh "2" C 600 600 0 0 0
Dr 320 0 0
At STD N 00E0FFFF
Ne 0 ""
Po -1000 0
$EndPAD
$EndMODULE  CV3-30PF
$MODULE KSA
Po 76000 86500 0 15 00200000 00000000 ~~
Li KSA
Cd Bouton poussoir KSA
Kw SWITCH DEV
Sc 00000000
Op 0 0 0
T0 150 1850 600 400 0 80 N V 21 "VAL*"
T1 -50 -1950 600 400 0 80 N V 21 "KSA"
DS -1500 1500 2000 1500 120 21
DS 2000 1500 2000 -1500 120 21
DS 2000 -1500 -2000 -1500 120 21
DS -2000 -1500 -2000 1500 120 21
DS -2000 1500 -1500 1500 120 21
DC 0 0 750 250 120 21
$PAD
Sh "1" C 700 700 0 0 0
Dr 450 0 0
At STD N 00E0FFFF
Ne 0 ""
Po 1500 -1000
$EndPAD
$PAD
Sh "2" C 700 700 0 0 0
Dr 450 0 0
At STD N 00E0FFFF
Ne 0 ""
Po 1500 1000
$EndPAD
$PAD
Sh "3" C 700 700 0 0 0
Dr 450 0 0
At STD N 00E0FFFF
Ne 0 ""
Po -1500 1000
$EndPAD
$PAD
Sh "4" C 700 700 0 0 0
Dr 450 0 0
At STD N 00E0FFFF
Ne 0 ""
Po -1500 0
$EndPAD
$PAD
Sh "5" C 700 700 0 0 0
Dr 450 0 0
At STD N 00E0FFFF
Ne 0 ""
Po -1500 -1000
$EndPAD
$EndMODULE  KSA
$MODULE SELF1418
Po 59500 102500 0 15 00200000 00000000 ~~
Li SELF1418
Cd Self Ferrite 14 - 18
Kw SELF
Sc 00000000
Op 0 0 0
T0 0 -3000 600 400 0 120 N V 21 "S***"
T1 0 0 600 400 0 120 N V 21 "SELF1418"
DS -4000 -2000 -4000 2000 150 21
DS -4000 2000 -2000 4000 150 21
DS -2000 4000 2000 4000 150 21
DS 2000 4000 4000 2000 150 21
DS 4000 2000 4000 -2000 150 21
DS 4000 -2000 2000 -4000 150 21
DS 2000 -4000 -2000 -4000 150 21
DS -2000 -4000 -4000 -2000 150 21
$PAD
Sh "" C 800 800 0 0 0
Dr 500 0 0
At STD N 00E0FFFF
Ne 0 ""
Po -3000 0
$EndPAD
$PAD
Sh "" C 800 800 0 0 0
Dr 500 0 0
At STD N 00E0FFFF
Ne 0 ""
Po 3000 0
$EndPAD
$PAD
Sh "1" C 800 800 0 0 0
Dr 500 0 0
At STD N 00E0FFFF
Ne 0 ""
Po -2000 -1000
$EndPAD
$PAD
Sh "1" C 800 800 0 0 0
Dr 500 0 0
At STD N 00E0FFFF
Ne 0 ""
Po -2000 -2000
$EndPAD
$PAD
Sh "2" C 800 800 0 0 0
Dr 500 0 0
At STD N 00E0FFFF
Ne 0 ""
Po 2000 -1000
$EndPAD
$PAD
Sh "2" C 800 800 0 0 0
Dr 500 0 0
At STD N 00E0FFFF
Ne 0 ""
Po 2000 -2000
$EndPAD
$PAD
Sh "3" C 800 800 0 0 0
Dr 500 0 0
At STD N 00E0FFFF
Ne 0 ""
Po 2000 2000
$EndPAD
$PAD
Sh "3" C 800 800 0 0 0
Dr 500 0 0
At STD N 00E0FFFF
Ne 0 ""
Po 2000 1000
$EndPAD
$PAD
Sh "4" C 800 800 0 0 0
Dr 500 0 0
At STD N 00E0FFFF
Ne 0 ""
Po -2000 2000
$EndPAD
$PAD
Sh "4" C 800 800 0 0 0
Dr 500 0 0
At STD N 00E0FFFF
Ne 0 ""
Po -2000 1000
$EndPAD
$EndMODULE  SELF1418
$MODULE SELF1408
Po 59500 112000 0 15 00200000 00000000 ~~
Li SELF1408
Cd Self Ferrite 14 - 08
Kw SELF
Sc 00000000
Op 0 0 0
T0 0 -2000 1000 500 0 120 N V 21 "S***"
T1 0 0 1000 500 0 120 N V 21 "SELF1408"
DS -3000 -1500 -3000 1500 150 21
DS -3000 1500 -1500 3000 150 21
DS -1500 3000 1500 3000 150 21
DS 1500 3000 3000 1500 150 21
DS 3000 1500 3000 -1500 150 21
DS 3000 -1500 1500 -3000 150 21
DS 1500 -3000 -1500 -3000 150 21
DS -1500 -3000 -3000 -1500 150 21
$PAD
Sh "1" C 800 800 0 0 0
Dr 500 0 0
At STD N 00E0FFFF
Ne 0 ""
Po -3000 0
$EndPAD
$PAD
Sh "1" C 800 800 0 0 0
Dr 500 0 0
At STD N 00E0FFFF
Ne 0 ""
Po -2000 1000
$EndPAD
$PAD
Sh "1" C 800 800 0 0 0
Dr 500 0 0
At STD N 00E0FFFF
Ne 0 ""
Po -2000 -1000
$EndPAD
$PAD
Sh "2" C 800 800 0 0 0
Dr 500 0 0
At STD N 00E0FFFF
Ne 0 ""
Po 2000 -1000
$EndPAD
$PAD
Sh "2" C 800 800 0 0 0
Dr 500 0 0
At STD N 00E0FFFF
Ne 0 ""
Po 3000 0
$EndPAD
$PAD
Sh "2" C 800 800 0 0 0
Dr 500 0 0
At STD N 00E0FFFF
Ne 0 ""
Po 2000 1000
$EndPAD
$PAD
Sh "0" C 800 800 0 0 0
Dr 500 0 0
At STD N 00E0FFFF
Ne 0 ""
Po 0 3000
$EndPAD
$EndMODULE  SELF1408
$MODULE swdip3
Po 17000 102500 0 15 00200000 00000000 ~~
Li swdip3
Cd Switch Dil 3 elements
Kw SWITCH DEV
Sc 00000000
Op 0 0 0
T0 0 2500 500 600 0 120 N V 21 "SWDIP3"
T1 0 -2500 500 600 0 120 N I 21 "Val**"
DS -1500 500 -1500 -500 120 21
DS -1500 -500 1500 -500 120 21
DS 1500 -500 1500 500 120 21
DS 1500 500 -1500 500 120 21
DS -2000 -2000 2000 -2000 120 21
DS 2000 -2000 2000 2000 120 21
DS 2000 2000 -2000 2000 120 21
DS -2000 2000 -2000 -2000 120 21
DS -500 -500 -500 500 120 21
DS 500 -500 500 500 120 21
$PAD
Sh "1" R 600 600 0 0 0
Dr 320 0 0
At STD N 00E0FFFF
Ne 0 ""
Po -1000 1500
$EndPAD
$PAD
Sh "2" C 600 600 0 0 0
Dr 320 0 0
At STD N 00E0FFFF
Ne 0 ""
Po 0 1500
$EndPAD
$PAD
Sh "3" C 600 600 0 0 0
Dr 320 0 0
At STD N 00E0FFFF
Ne 0 ""
Po 1000 1500
$EndPAD
$PAD
Sh "4" C 600 600 0 0 0
Dr 320 0 0
At STD N 00E0FFFF
Ne 0 ""
Po 1000 -1500
$EndPAD
$PAD
Sh "5" C 600 600 0 0 0
Dr 320 0 0
At STD N 00E0FFFF
Ne 0 ""
Po 0 -1500
$EndPAD
$PAD
Sh "6" C 600 600 0 0 0
Dr 320 0 0
At STD N 00E0FFFF
Ne 0 ""
Po -1000 -1500
$EndPAD
$EndMODULE  swdip3
$MODULE SWDIP4
Po 26000 103000 0 15 00200000 00000000 ~~
Li SWDIP4
Cd Switch Dil 4 elements
Kw SWITCH DEV
Sc 00000000
Op 0 0 0
T1 0 -2500 500 600 0 120 N V 21 "SW**"
T0 0 2500 500 600 0 120 N V 21 "SWDIP4"
DS 2000 -500 2000 500 150 21
DS 2000 500 -2000 500 150 21
DS -2000 500 -2000 -500 150 21
DS -2000 -500 2000 -500 150 21
DS -2500 2000 -2500 -2000 150 21
DS -2500 -2000 2500 -2000 150 21
DS 2500 -2000 2500 2000 150 21
DS 2500 2000 -2500 2000 150 21
$PAD
Sh "1" R 600 600 0 0 0
Dr 320 0 0
At STD N 00E0FFFF
Ne 0 ""
Po -1500 1500
$EndPAD
$PAD
Sh "2" C 600 600 0 0 0
Dr 320 0 0
At STD N 00E0FFFF
Ne 0 ""
Po -500 1500
$EndPAD
$PAD
Sh "3" C 600 600 0 0 0
Dr 320 0 0
At STD N 00E0FFFF
Ne 0 ""
Po 500 1500
$EndPAD
$PAD
Sh "4" C 600 600 0 0 0
Dr 320 0 0
At STD N 00E0FFFF
Ne 0 ""
Po 1500 1500
$EndPAD
$PAD
Sh "5" C 600 600 0 0 0
Dr 320 0 0
At STD N 00E0FFFF
Ne 0 ""
Po 1500 -1500
$EndPAD
$PAD
Sh "6" C 600 600 0 0 0
Dr 320 0 0
At STD N 00E0FFFF
Ne 0 ""
Po 500 -1500
$EndPAD
$PAD
Sh "7" C 600 600 0 0 0
Dr 320 0 0
At STD N 00E0FFFF
Ne 0 ""
Po -500 -1500
$EndPAD
$PAD
Sh "8" C 600 600 0 0 0
Dr 320 0 0
At STD N 00E0FFFF
Ne 0 ""
Po -1500 -1500
$EndPAD
$EndMODULE  SWDIP4
$MODULE SWDIP8
Po 37000 103000 0 15 00200000 00000000 ~~
Li SWDIP8
Cd Switch Dil 8 elements
Kw SWITCH DEV
Sc 00000000
Op 0 0 0
T1 0 -2500 500 600 0 120 N V 21 "SW**"
T0 0 0 500 600 0 120 N V 21 "SWDIP8"
DS -4500 2000 4500 2000 150 21
DS 4500 2000 4500 -2000 150 21
DS 4500 -2000 -4500 -2000 150 21
DS -4500 -2000 -4500 2000 150 21
DS -4000 -500 4000 -500 150 21
DS 4000 -500 4000 500 150 21
DS 4000 500 -4000 500 150 21
DS -4000 500 -4000 -500 150 21
$PAD
Sh "1" R 600 600 0 0 0
Dr 320 0 0
At STD N 00E0FFFF
Ne 0 ""
Po -3500 1500
$EndPAD
$PAD
Sh "2" C 600 600 0 0 0
Dr 320 0 0
At STD N 00E0FFFF
Ne 0 ""
Po -2500 1500
$EndPAD
$PAD
Sh "3" C 600 600 0 0 0
Dr 320 0 0
At STD N 00E0FFFF
Ne 0 ""
Po -1500 1500
$EndPAD
$PAD
Sh "4" C 600 600 0 0 0
Dr 320 0 0
At STD N 00E0FFFF
Ne 0 ""
Po -500 1500
$EndPAD
$PAD
Sh "5" C 600 600 0 0 0
Dr 320 0 0
At STD N 00E0FFFF
Ne 0 ""
Po 500 1500
$EndPAD
$PAD
Sh "6" C 600 600 0 0 0
Dr 320 0 0
At STD N 00E0FFFF
Ne 0 ""
Po 1500 1500
$EndPAD
$PAD
Sh "7" C 600 600 0 0 0
Dr 320 0 0
At STD N 00E0FFFF
Ne 0 ""
Po 2500 1500
$EndPAD
$PAD
Sh "8" C 600 600 0 0 0
Dr 320 0 0
At STD N 00E0FFFF
Ne 0 ""
Po 3500 1500
$EndPAD
$PAD
Sh "9" C 600 600 0 0 0
Dr 320 0 0
At STD N 00E0FFFF
Ne 0 ""
Po 3500 -1500
$EndPAD
$PAD
Sh "10" C 600 600 0 0 0
Dr 320 0 0
At STD N 00E0FFFF
Ne 0 ""
Po 2500 -1500
$EndPAD
$PAD
Sh "11" C 600 600 0 0 0
Dr 320 0 0
At STD N 00E0FFFF
Ne 0 ""
Po 1500 -1500
$EndPAD
$PAD
Sh "12" C 600 600 0 0 0
Dr 320 0 0
At STD N 00E0FFFF
Ne 0 ""
Po 500 -1500
$EndPAD
$PAD
Sh "13" C 600 600 0 0 0
Dr 320 0 0
At STD N 00E0FFFF
Ne 0 ""
Po -500 -1500
$EndPAD
$PAD
Sh "14" C 600 600 0 0 0
Dr 320 0 0
At STD N 00E0FFFF
Ne 0 ""
Po -1500 -1500
$EndPAD
$PAD
Sh "15" C 600 600 0 0 0
Dr 320 0 0
At STD N 00E0FFFF
Ne 0 ""
Po -2500 -1500
$EndPAD
$PAD
Sh "16" C 600 600 0 0 0
Dr 320 0 0
At STD N 00E0FFFF
Ne 0 ""
Po -3500 -1500
$EndPAD
$EndMODULE  SWDIP8
$MODULE OSC_DIP8
Po 17500 50000 0 15 00200000 00000000 ~~
Li OSC_DIP8
Cd Oscillateur - taille DIP8
Sc 00000000
Op 0 0 0
DS -2250 -2350 -2350 -2250 80 21
DS -2350 -2250 -2350 2250 80 21
DS -2350 2250 -2250 2350 80 21
DS -2250 2350 2250 2350 80 21
DS 2250 2350 2350 2250 80 21
DS 2350 2250 2350 -2250 80 21
DS 2350 -2250 2250 -2350 80 21
DS 2250 -2350 -2250 -2350 80 21
DS -2250 -2600 -2600 -2250 80 21
DS -2600 -2250 -2600 2600 80 21
DS -2600 2600 2250 2600 80 21
DS 2250 2600 2600 2250 80 21
DS 2600 2250 2600 -2250 80 21
DS 2600 -2250 2250 -2600 80 21
DS 2250 -2600 -2250 -2600 80 21
T0 0 -500 600 400 0 80 N V 21 "X***"
T1 0 500 600 400 0 80 N V 21 "OSC_DIP8"
$PAD
Sh "1" R 650 650 0 0 0
Dr 320 0 0
At STD N 00E0FFFF
Ne 0 ""
Po -1500 1500
$EndPAD
$PAD
Sh "8" C 650 650 0 0 0
Dr 320 0 0
At STD N 00E0FFFF
Ne 0 ""
Po -1500 -1500
$EndPAD
$PAD
Sh "5" C 650 650 0 0 0
Dr 320 0 0
At STD N 00E0FFFF
Ne 0 ""
Po 1500 -1500
$EndPAD
$PAD
Sh "4" C 650 650 0 0 0
Dr 320 0 0
At STD N 00E0FFFF
Ne 0 ""
Po 1500 1500
$EndPAD
$EndMODULE  OSC_DIP8
$MODULE CP5
Po 0 0 0 15 00200000 00000000 ~~
Li CP5
Cd Condensateur polarise
Kw CP
Sc 00000000
Op 0 0 0
T0 0 0 600 600 0 120 N V 21 "CP5"
T1 0 0 600 525 0 120 N I 21 "C***"
DS -1750 -500 -1750 -500 120 21
DS -1750 -500 -1750 -500 120 21
DS -1750 -500 -1750 -500 120 21
DS -1750 -500 2000 -500 120 21
DS 2000 -500 2000 500 120 21
DS 2000 500 -1750 500 120 21
DS -1750 500 -1750 -500 120 21
DS -1750 -250 -1750 -250 120 21
DS -1750 -250 -2000 -250 120 21
DS -2000 -250 -2000 250 120 21
DS -2000 250 -1750 250 120 21
DS -2500 0 -2500 0 120 21
DS -2500 0 -2000 0 120 21
DS -2000 0 -2000 0 120 21
DS -2000 0 -2000 0 120 21
DS 2000 0 2000 0 120 21
DS 2000 0 2000 0 120 21
DS 2000 0 2500 0 120 21
DS 2500 0 2500 0 120 21
DS 2500 0 2500 0 120 21
DS 2500 0 2500 0 120 21
$PAD
Sh "1" R 550 550 0 0 0
Dr 320 0 0
At STD N 00E0FFFF
Ne 0 ""
Po -2500 0
$EndPAD
$PAD
Sh "2" C 550 550 0 0 0
Dr 320 0 0
At STD N 00E0FFFF
Ne 0 ""
Po 2500 0
$EndPAD
$SHAPE3D
Na "discret/c_pol.wrl"
Sc 0.500000 0.500000 0.500000
Of 0.000000 0.000000 0.000000
Ro 0.000000 0.000000 0.000000
$EndSHAPE3D
$EndMODULE  CP5
$MODULE CP6
Po 0 0 0 15 00200000 00000000 ~~
Li CP6
Cd Condensateur polarise
Kw CP
Sc 00000000
Op 0 0 0
T0 0 0 600 600 0 120 N V 21 "CP6"
T1 250 0 600 600 0 120 N I 21 "C***"
DS -3000 0 -2600 0 120 21
DS -2400 200 -2600 200 120 21
DS -2600 200 -2600 -200 120 21
DS -2600 -200 -2400 -200 120 21
DS 3000 0 2600 0 120 21
DS 2600 0 2600 -600 120 21
DS 2600 -600 -2400 -600 120 21
DS -2400 -600 -2400 600 120 21
DS -2400 600 2600 600 120 21
DS 2600 600 2600 0 120 21
$PAD
Sh "1" R 550 550 0 0 0
Dr 320 0 0
At STD N 00E0FFFF
Ne 0 ""
Po -3000 0
$EndPAD
$PAD
Sh "2" C 550 550 0 0 0
Dr 320 0 0
At STD N 00E0FFFF
Ne 0 ""
Po 3000 0
$EndPAD
$SHAPE3D
Na "discret/c_pol.wrl"
Sc 0.600000 0.600000 0.600000
Of 0.000000 0.000000 0.000000
Ro 0.000000 0.000000 0.000000
$EndSHAPE3D
$EndMODULE  CP6
$MODULE CP8
Po 0 0 0 15 00200000 00000000 ~~
Li CP8
Cd Condensateur polarise
Kw CP
Sc 00000000
Op 0 0 0
T0 500 500 600 600 0 120 N V 21 "CP8"
T1 500 -500 600 600 0 120 N V 21 "C***"
DS -4000 0 -3500 0 120 21
DS -3000 500 -3500 500 120 21
DS -3500 500 -3500 -500 120 21
DS -3500 -500 -3000 -500 120 21
DS -3000 1000 -3000 -1000 120 21
DS -3000 -1000 3500 -1000 120 21
DS 3500 -1000 3500 1000 120 21
DS 3500 1000 -3000 1000 120 21
DS 3500 0 4000 0 120 21
DS -2000 -1000 -2000 1000 120 21
DS -2500 1000 -2500 -1000 120 21
$PAD
Sh "1" R 700 700 0 0 0
Dr 320 0 0
At STD N 00E0FFFF
Ne 0 ""
Po -4000 0
$EndPAD
$PAD
Sh "2" C 700 700 0 0 0
Dr 320 0 0
At STD N 00E0FFFF
Ne 0 ""
Po 4000 0
$EndPAD
$SHAPE3D
Na "discret/c_pol.wrl"
Sc 0.800000 0.800000 0.800000
Of 0.000000 0.000000 0.000000
Ro 0.000000 0.000000 0.000000
$EndSHAPE3D
$EndMODULE  CP8
$MODULE CP12
Po 0 0 0 15 00200000 00000000 ~~
Li CP12
Cd Condensateur polarise
Kw CP
Sc 00000000
Op 0 0 0
T0 500 750 900 1000 0 120 N V 21 "CP12"
T1 500 -750 900 630 0 120 N V 21 "C***"
DS -6000 0 -5500 0 120 21
DS -5000 500 -5500 500 120 21
DS -5500 500 -5500 -500 120 21
DS -5500 -500 -5000 -500 120 21
DS -5000 -1500 5500 -1500 120 21
DS 5500 -1500 5500 1500 120 21
DS 5500 1500 -5000 1500 120 21
DS 5500 0 6000 0 120 21
DS -4000 -1500 -4000 1500 120 21
DS -3500 -1500 -3500 1500 120 21
DS -5000 -1500 -5000 1500 120 21
$PAD
Sh "1" R 700 700 0 0 0
Dr 400 0 0
At STD N 00E0FFFF
Ne 0 ""
Po -6000 0
$EndPAD
$PAD
Sh "2" C 700 700 0 0 0
Dr 400 0 0
At STD N 00E0FFFF
Ne 0 ""
Po 6000 0
$EndPAD
$SHAPE3D
Na "discret/c_pol.wrl"
Sc 1.200000 1.200000 1.200000
Of 0.000000 0.000000 0.000000
Ro 0.000000 0.000000 0.000000
$EndSHAPE3D
$EndMODULE  CP12
$MODULE CP18
Po 0 0 0 15 00200000 00000000 ~~
Li CP18
Cd Condensateur polarise
Kw CP
Sc 00000000
Op 0 0 0
T0 -2500 -2000 1216 692 0 120 N V 21 "C***"
T1 0 1500 1136 1344 0 120 N V 21 "CP18"
DS -7000 -3000 -6500 -3500 120 21
DS -6500 -3500 7000 -3500 120 21
DS 7000 -3500 7500 -3000 120 21
DS 7500 -3000 7500 3000 120 21
DS 7500 3000 7000 3500 120 21
DS 7000 3500 -6500 3500 120 21
DS -6500 3500 -7000 3000 120 21
DS -8000 0 -9000 0 120 21
DS 7500 0 9000 0 120 21
DS -7000 -500 -8000 -500 120 21
DS -8000 -500 -8000 500 120 21
DS -8000 500 -7000 500 120 21
DS -7000 -3000 -7000 3000 120 21
DS -6000 -3500 -6000 3500 120 21
DS -5500 -3500 -5500 3500 120 21
$PAD
Sh "1" R 1400 1400 0 0 0
Dr 600 0 0
At STD N 00E0FFFF
Ne 0 ""
Po -9000 0
$EndPAD
$PAD
Sh "2" C 1400 1400 0 0 0
Dr 600 0 0
At STD N 00E0FFFF
Ne 0 ""
Po 9000 0
$EndPAD
$SHAPE3D
Na "discret/c_pol.wrl"
Sc 1.800000 1.800000 1.800000
Of 0.000000 0.000000 0.000000
Ro 0.000000 0.000000 0.000000
$EndSHAPE3D
$EndMODULE  CP18
$MODULE CP20
Po 0 0 0 15 00200000 00000000 ~~
Li CP20
Cd Condenstateur polarise
Kw CP
Sc 00000000
Op 0 0 0
T0 -3500 -3000 1247 640 0 120 N V 21 "C***"
T1 3500 1500 1408 1298 0 120 N V 21 "CP20"
DS -10000 0 -8000 0 120 21
DS 10000 0 8000 0 120 21
DS 8000 0 8000 -4500 120 21
DS 8000 -4500 -8000 -4500 120 21
DS -8000 -4500 -8000 4500 120 21
DS -8000 4500 8000 4500 120 21
DS 8000 4500 8000 0 120 21
DS -6500 -4500 -6500 4500 120 21
DS -6000 4500 -6000 -4500 120 21
$PAD
Sh "1" R 1400 1400 0 0 0
Dr 600 0 0
At STD N 00F0FFFF
Ne 0 ""
Po -10000 0
$EndPAD
$PAD
Sh "2" C 1400 1400 0 0 0
Dr 600 0 0
At STD N 00F0FFFF
Ne 0 ""
Po 10000 0
$EndPAD
$SHAPE3D
Na "discret/c_pol.wrl"
Sc 2.000000 2.000000 2.000000
Of 0.000000 0.000000 0.000000
Ro 0.000000 0.000000 0.000000
$EndSHAPE3D
$EndMODULE  CP20
$MODULE CP16
Po 0 0 0 15 00200000 00000000 ~~
Li CP16
Cd Condensateur polarise
Kw CP
Sc 00000000
Op 0 0 0
T0 -2000 -1500 1236 716 0 120 N V 21 "C***"
T1 1500 1000 1005 1260 0 120 N V 21 "CP16"
DS -6000 1000 -6000 -2500 150 21
DS 6500 2000 6500 -2500 150 21
DS 6500 -2500 6000 -3000 150 21
DS 6000 -3000 -5500 -3000 150 21
DS 6500 2000 6500 2500 150 21
DS 6500 2500 6000 3000 150 21
DS 6000 3000 -5500 3000 150 21
DS -5500 3000 -6000 2500 150 21
DS -6000 2500 -6000 1000 150 21
DS -7000 0 -8000 0 150 21
DS 8000 0 6500 0 150 21
DS -5000 3000 -5000 -3000 150 21
DS -4500 3000 -4500 -3000 150 21
DS -6000 -500 -7000 -500 150 21
DS -7000 -500 -7000 500 150 21
DS -7000 500 -6000 500 150 21
DS -6000 -2500 -5500 -3000 150 21
$PAD
Sh "1" R 1400 1400 0 0 0
Dr 600 0 0
At STD N 00F0FFFF
Ne 0 ""
Po -8000 0
$EndPAD
$PAD
Sh "2" C 1400 1400 0 0 0
Dr 600 0 0
At STD N 00F0FFFF
Ne 0 ""
Po 8000 0
$EndPAD
$SHAPE3D
Na "discret/c_pol.wrl"
Sc 1.600000 1.600000 1.600000
Of 0.000000 0.000000 0.000000
Ro 0.000000 0.000000 0.000000
$EndSHAPE3D
$EndMODULE  CP16
$MODULE CP14
Po 0 0 0 15 00200000 00000000 ~~
Li CP14
Cd Condensateur polarise
Kw CP
Sc 00000000
Op 0 0 0
T0 -2000 -1000 1016 591 0 120 N V 21 "C***"
T1 1500 1000 1329 1131 0 120 N V 21 "CP14"
DS 6000 0 7000 0 150 21
DS -5500 -1500 -5000 -2000 150 21
DS -5000 -2000 5500 -2000 150 21
DS 5500 -2000 6000 -1500 150 21
DS 6000 -1500 6000 1500 150 21
DS 6000 1500 5500 2000 150 21
DS 5500 2000 -5000 2000 150 21
DS -5000 2000 -5500 1500 150 21
DS -5500 1500 -5500 -1500 150 21
DS -4000 2000 -4000 -2000 150 21
DS -5500 -500 -6000 -500 150 21
DS -6000 -500 -6000 500 150 21
DS -6000 500 -5500 500 150 21
DS -6000 0 -7000 0 150 21
DS -4500 2000 -4500 -2000 150 21
$PAD
Sh "1" R 1200 1200 0 0 0
Dr 500 0 0
At STD N 00F0FFFF
Ne 0 ""
Po -7000 0
$EndPAD
$PAD
Sh "2" C 1200 1200 0 0 0
Dr 500 0 0
At STD N 00F0FFFF
Ne 0 ""
Po 7000 0
$EndPAD
$SHAPE3D
Na "discret/c_pol.wrl"
Sc 1.400000 1.400000 1.400000
Of 0.000000 0.000000 0.000000
Ro 0.000000 0.000000 0.000000
$EndSHAPE3D
$EndMODULE  CP14
$MODULE D3
Po 0 0 0 15 00200000 00000000 ~~
Li D3
Cd Diode 3 pas
Kw DIODE DEV
Sc 00000000
Op 0 0 0
T0 0 0 400 400 0 80 N V 21 "D3"
T1 0 0 400 400 0 80 N I 21 "D***"
DS 1500 0 1200 0 120 21
DS 1200 0 1200 -400 120 21
DS 1200 -400 -1200 -400 120 21
DS -1200 -400 -1200 0 120 21
DS -1200 0 -1500 0 120 21
DS -1200 0 -1200 400 120 21
DS -1200 400 1200 400 120 21
DS 1200 400 1200 0 120 21
DS 1000 -400 1000 400 120 21
DS 900 400 900 -400 120 21
$PAD
Sh "2" R 550 550 0 0 0
Dr 320 0 0
At STD N 00E0FFFF
Ne 0 ""
Po 1500 0
$EndPAD
$PAD
Sh "1" C 550 550 0 0 0
Dr 320 0 0
At STD N 00E0FFFF
Ne 0 ""
Po -1500 0
$EndPAD
$SHAPE3D
Na "discret/diode.wrl"
Sc 0.300000 0.300000 0.300000
Of 0.000000 0.000000 0.000000
Ro 0.000000 0.000000 0.000000
$EndSHAPE3D
$EndMODULE  D3
$MODULE D4
Po 0 0 0 15 00200000 00000000 ~~
Li D4
Cd Diode 4 pas
Kw DIODE DEV
Sc 00000000
Op 0 0 0
T0 0 0 500 400 0 80 N V 21 "D4"
T1 0 0 500 400 0 80 N I 21 "D***"
DS -1500 -500 1500 -500 120 21
DS 1500 -500 1500 500 120 21
DS 1500 500 -1500 500 120 21
DS -1500 500 -1500 -500 120 21
DS 1250 -500 1250 500 120 21
DS 1000 500 1000 -500 120 21
DS -1500 0 -2000 0 120 21
DS 1500 0 2000 0 120 21
$PAD
Sh "1" C 700 700 0 0 0
Dr 400 0 0
At STD N 00E0FFFF
Ne 0 ""
Po -2000 0
$EndPAD
$PAD
Sh "2" R 700 700 0 0 0
Dr 400 0 0
At STD N 00E0FFFF
Ne 0 ""
Po 2000 0
$EndPAD
$SHAPE3D
Na "discret/diode.wrl"
Sc 0.400000 0.400000 0.400000
Of 0.000000 0.000000 0.000000
Ro 0.000000 0.000000 0.000000
$EndSHAPE3D
$EndMODULE  D4
$MODULE D5
Po 0 0 0 15 00200000 00000000 ~~
Li D5
Cd Diode 5 pas
Kw DIODE DEV
Sc 00000000
Op 0 0 0
T0 0 0 600 400 0 120 N V 21 "D5"
T1 -100 0 600 400 0 120 N I 21 "D***"
DS 2500 0 2000 0 120 21
DS 2000 0 2000 -500 120 21
DS 2000 -500 -2000 -500 120 21
DS -2000 -500 -2000 0 120 21
DS -2000 0 -2500 0 120 21
DS -2000 0 -2000 500 120 21
DS -2000 500 2000 500 120 21
DS 2000 500 2000 0 120 21
DS 1500 -500 1500 500 120 21
DS 1600 -500 1600 500 120 21
$PAD
Sh "1" C 700 700 0 0 0
Dr 450 0 0
At STD N 00E0FFFF
Ne 0 ""
Po -2500 0
$EndPAD
$PAD
Sh "2" R 700 700 0 0 0
Dr 450 0 0
At STD N 00E0FFFF
Ne 0 ""
Po 2500 0
$EndPAD
$SHAPE3D
Na "discret/diode.wrl"
Sc 0.500000 0.500000 0.500000
Of 0.000000 0.000000 0.000000
Ro 0.000000 0.000000 0.000000
$EndSHAPE3D
$EndMODULE  D5
$MODULE D6
Po 0 0 0 15 00200000 00000000 ~~
Li D6
Cd Diode 6 pas
Kw DIODE
Sc 00000000
Op 0 0 0
T0 -250 500 600 400 0 120 N V 21 "D6"
T1 -250 -500 600 400 0 120 N V 21 "D***"
DS -2250 -1250 -2250 1250 120 21
DS -2250 1250 2250 1250 120 21
DS 2250 1250 2250 -1250 120 21
DS 2250 -1250 -2250 -1250 120 21
DS 2000 -1250 2000 1250 120 21
DS 1750 1250 1750 -1250 120 21
DS 2250 0 3000 0 120 21
DS -2250 0 -3000 0 120 21
$PAD
Sh "1" C 1000 1000 0 0 0
Dr 500 0 0
At STD N 00E0FFFF
Ne 0 ""
Po -3000 0
$EndPAD
$PAD
Sh "2" R 1000 1000 0 0 0
Dr 500 0 0
At STD N 00E0FFFF
Ne 0 ""
Po 3000 0
$EndPAD
$SHAPE3D
Na "discret/diode.wrl"
Sc 0.600000 0.600000 0.600000
Of 0.000000 0.000000 0.000000
Ro 0.000000 0.000000 0.000000
$EndSHAPE3D
$EndMODULE  D6
$MODULE R3
Po 0 0 0 15 00200000 00000000 ~~
Li R3
Cd Resitance 3 pas
Kw R
Sc 00000000
Op 0 A 0
T0 0 0 550 500 0 80 N V 21 "R3"
T1 0 0 550 500 0 80 N I 21 "Val*"
DS -1500 0 -1300 0 120 21
DS 1500 0 1300 0 120 21
DS 1300 0 1300 -400 120 21
DS 1300 -400 -1300 -400 120 21
DS -1300 -400 -1300 400 120 21
DS -1300 400 1300 400 120 21
DS 1300 400 1300 0 120 21
DS -1300 -200 -1100 -400 120 21
$PAD
Sh "1" C 550 550 0 0 0
Dr 320 0 0
At STD N 00E0FFFF
Ne 0 ""
Po -1500 0
$EndPAD
$PAD
Sh "2" C 550 550 0 0 0
Dr 320 0 0
At STD N 00E0FFFF
Ne 0 ""
Po 1500 0
$EndPAD
$SHAPE3D
Na "discret/resistor.wrl"
Sc 0.300000 0.300000 0.300000
Of 0.000000 0.000000 0.000000
Ro 0.000000 0.000000 0.000000
$EndSHAPE3D
$EndMODULE  R3
$MODULE R4
Po 0 0 0 15 00200000 00000000 ~~
Li R4
Cd Resitance 4 pas
Kw R
Sc 00000000
Op 0 A 0
T0 0 0 550 500 0 80 N V 21 "R4"
T1 0 0 550 500 0 80 N I 21 "Val*"
DS -2000 0 -1600 0 120 21
DS -1600 0 -1600 -400 120 21
DS -1600 -400 1600 -400 120 21
DS 1600 -400 1600 400 120 21
DS 1600 400 -1600 400 120 21
DS -1600 400 -1600 0 120 21
DS -1600 -200 -1400 -400 120 21
DS 2000 0 1600 0 120 21
$PAD
Sh "1" C 600 600 0 0 0
Dr 320 0 0
At STD N 00E0FFFF
Ne 0 ""
Po -2000 0
$EndPAD
$PAD
Sh "2" C 600 600 0 0 0
Dr 320 0 0
At STD N 00E0FFFF
Ne 0 ""
Po 2000 0
$EndPAD
$SHAPE3D
Na "discret/resistor.wrl"
Sc 0.400000 0.400000 0.400000
Of 0.000000 0.000000 0.000000
Ro 0.000000 0.000000 0.000000
$EndSHAPE3D
$EndMODULE  R4
$MODULE R5
Po 0 0 0 15 00200000 00000000 ~~
Li R5
Cd Resistance 5 pas
Kw R
Sc 00000000
Op 0 A 0
T0 0 0 550 500 0 80 N V 21 "R5"
T1 0 0 550 500 0 80 N I 21 "Val*"
DS -2500 0 -2100 0 120 21
DS 2500 0 2100 0 120 21
DS 2100 -500 2100 500 120 21
DS 2100 500 -2100 500 120 21
DS -2100 500 -2100 -500 120 21
DS -2100 -500 2100 -500 120 21
DS -2100 -300 -1900 -500 120 21
$PAD
Sh "1" C 600 600 0 0 0
Dr 320 0 0
At STD N 00E0FFFF
Ne 0 ""
Po -2500 0
$EndPAD
$PAD
Sh "2" C 600 600 0 0 0
Dr 320 0 0
At STD N 00E0FFFF
Ne 0 ""
Po 2500 0
$EndPAD
$SHAPE3D
Na "discret/resistor.wrl"
Sc 0.500000 0.500000 0.500000
Of 0.000000 0.000000 0.000000
Ro 0.000000 0.000000 0.000000
$EndSHAPE3D
$EndMODULE  R5
$MODULE R6
Po 0 0 0 15 00200000 00000000 ~~
Li R6
Cd Resistance 6 pas
Kw R
Sc 00000000
Op 0 A 0
T0 0 0 550 500 0 80 N V 21 "R6"
T1 100 0 550 500 0 80 N I 21 "Val*"
DS -2500 -500 2500 -500 120 21
DS 2500 -500 2500 500 120 21
DS 2500 500 -2500 500 120 21
DS 2500 0 3000 0 120 21
DS -3000 0 -2500 0 120 21
DS -2500 -200 -2200 -500 120 21
DS -2500 -500 -2500 500 120 21
$PAD
Sh "1" C 700 700 0 0 0
Dr 450 0 0
At STD N 00E0FFFF
Ne 0 ""
Po -3000 0
$EndPAD
$PAD
Sh "2" C 700 700 0 0 0
Dr 450 0 0
At STD N 00E0FFFF
Ne 0 ""
Po 3000 0
$EndPAD
$SHAPE3D
Na "discret/resistor.wrl"
Sc 0.600000 0.600000 0.600000
Of 0.000000 0.000000 0.000000
Ro 0.000000 0.000000 0.000000
$EndSHAPE3D
$EndMODULE  R6
$MODULE R7
Po 0 0 0 15 00200000 00000000 ~~
Li R7
Cd Resitance 7 pas
Kw R
Sc 00000000
Op 0 A 0
T0 900 400 550 500 0 80 N V 21 "R7"
T1 -900 -500 550 500 0 80 N V 21 "Val*"
DS -3500 0 -3500 0 120 21
DS -3500 0 -3500 0 120 21
DS 2750 0 3500 0 120 21
DS 3500 0 3500 0 120 21
DS 2750 1000 -2750 1000 120 21
DS -2750 -1000 2750 -1000 120 21
DS -2750 -500 -2250 -1000 120 21
DS 2750 -1000 2750 1000 120 21
DS -2750 -1000 -2750 1000 120 21
DS -3500 0 -2750 0 120 21
$PAD
Sh "1" C 700 700 0 0 0
Dr 500 0 0
At STD N 00E0FFFF
Ne 0 ""
Po -3500 0
$EndPAD
$PAD
Sh "2" C 700 700 0 0 0
Dr 500 0 0
At STD N 00E0FFFF
Ne 0 ""
Po 3500 0
$EndPAD
$SHAPE3D
Na "discret/resistor.wrl"
Sc 0.700000 0.700000 0.700000
Of 0.000000 0.000000 0.000000
Ro 0.000000 0.000000 0.000000
$EndSHAPE3D
$EndMODULE  R7
$MODULE C2
Po 0 0 0 15 00200000 00000000 ~~
Li C2
Cd Condensateur = 2 pas
Kw C
Sc 00000000
Op 0 0 0
T0 0 0 400 400 0 80 N V 21 "C2"
T1 0 0 400 400 0 80 N I 21 "C***"
DS -1400 -400 1400 -400 120 21
DS 1400 -400 1400 400 120 21
DS 1400 400 -1400 400 120 21
DS -1400 400 -1400 -400 120 21
DS -1400 -200 -1200 -400 120 21
$PAD
Sh "1" C 550 550 0 0 0
Dr 320 0 0
At STD N 00E0FFFF
Ne 0 ""
Po -1000 0
$EndPAD
$PAD
Sh "2" C 550 550 0 0 0
Dr 320 0 0
At STD N 00E0FFFF
Ne 0 ""
Po 1000 0
$EndPAD
$SHAPE3D
Na "discret/capa_2pas_5x5mm.wrl"
Sc 1.000000 1.000000 1.000000
Of 0.000000 0.000000 0.000000
Ro 0.000000 0.000000 0.000000
$EndSHAPE3D
$EndMODULE  C2
$MODULE C1
Po 0 0 0 15 3F92C496 00000000 ~~
Li C1
Cd Condensateur e = 1 pas
Kw C
Sc 00000000
Op 0 0 0
T0 100 -900 400 400 0 80 N V 21 "C1"
T1 0 -900 400 400 0 80 N I 21 "V***"
DS -980 -500 1000 -500 120 21
DS 1000 -500 1000 500 120 21
DS 1000 500 -1000 500 120 21
DS -1000 500 -1000 -500 120 21
DS -1000 -250 -750 -500 120 21
$PAD
Sh "1" C 550 550 0 0 0
Dr 320 0 0
At STD N 00E0FFFF
Ne 0 ""
Po -500 0
$EndPAD
$PAD
Sh "2" C 550 550 0 0 0
Dr 320 0 0
At STD N 00E0FFFF
Ne 0 ""
Po 500 0
$EndPAD
$SHAPE3D
Na "discret/capa_1_pas.wrl"
Sc 1.000000 1.000000 1.000000
Of 0.000000 0.000000 0.000000
Ro 0.000000 0.000000 0.000000
$EndSHAPE3D
$EndMODULE  C1
$MODULE TO18CBE
Po 0 0 0 15 00200000 00000000 ~~
Li TO18CBE
Cd Transistor TO18
Kw TO18
Sc 00000000
Op 0 0 0
T0 0 -1500 400 350 0 80 N V 21 "TO18CBE"
T1 0 -1500 400 350 0 80 N I 21 "Val**"
DC 0 0 -1200 0 80 21
DS -1050 -600 -1350 -800 120 21
DS -1350 -800 -1200 -1000 120 21
DS -1200 -1000 -900 -800 120 21
$PAD
Sh "2" C 600 600 0 0 0
Dr 310 0 0
At STD N 00E0FFFF
Ne 0 ""
Po 0 500
$EndPAD
$PAD
Sh "1" C 600 600 0 0 0
Dr 310 0 0
At STD N 00E0FFFF
Ne 0 ""
Po 500 0
$EndPAD
$PAD
Sh "3" C 600 600 0 0 0
Dr 310 0 0
At STD N 00E0FFFF
Ne 0 ""
Po -500 0
$EndPAD
$SHAPE3D
Na "discret/to18.wrl"
Sc 1.000000 1.000000 1.000000
Of 0.000000 0.000000 0.000000
Ro 0.000000 0.000000 0.000000
$EndSHAPE3D
$EndMODULE  TO18CBE
$MODULE TO18EBC
Po 0 0 0 15 00200000 00000000 ~~
Li TO18EBC
Cd Transistor TO18
Kw TO18
Sc 00000000
Op 0 0 0
T0 0 -1500 400 350 0 80 N V 21 "TO18EBC"
T1 0 -1500 400 350 0 80 N I 21 "Val**"
DC 0 0 -1200 0 80 21
DS -1050 -600 -1350 -800 120 21
DS -1350 -800 -1200 -1000 120 21
DS -1200 -1000 -900 -800 120 21
$PAD
Sh "2" C 600 600 0 0 0
Dr 310 0 0
At STD N 00E0FFFF
Ne 0 ""
Po 0 500
$EndPAD
$PAD
Sh "3" C 600 600 0 0 0
Dr 310 0 0
At STD N 00E0FFFF
Ne 0 ""
Po 500 0
$EndPAD
$PAD
Sh "1" C 600 600 0 0 0
Dr 310 0 0
At STD N 00E0FFFF
Ne 0 ""
Po -500 0
$EndPAD
$SHAPE3D
Na "discret/to18.wrl"
Sc 1.000000 1.000000 1.000000
Of 0.000000 0.000000 0.000000
Ro 0.000000 0.000000 0.000000
$EndSHAPE3D
$EndMODULE  TO18EBC
$MODULE TO18GSD
Po 0 0 0 15 3DFDE268 00000000 ~~
Li TO18GSD
Cd Transistor TO18
Kw TO18
Sc 00000000
Op 0 0 0
T0 0 -1550 400 350 0 80 N V 21 "TO18GSD"
T1 0 1500 400 350 0 80 N V 21 "Val**"
DC 0 0 -1200 0 80 21
DS -1050 -600 -1350 -800 120 21
DS -1350 -800 -1200 -1000 120 21
DS -1200 -1000 -900 -800 120 21
$PAD
Sh "D" C 600 600 0 0 0
Dr 310 0 0
At STD N 00E0FFFF
Ne 0 ""
Po 0 500
$EndPAD
$PAD
Sh "G" C 600 600 0 0 0
Dr 310 0 0
At STD N 00E0FFFF
Ne 0 ""
Po 500 0
$EndPAD
$PAD
Sh "S" C 600 600 0 0 0
Dr 310 0 0
At STD N 00E0FFFF
Ne 0 ""
Po -500 0
$EndPAD
$SHAPE3D
Na "discret/to18.wrl"
Sc 1.000000 1.000000 1.000000
Of 0.000000 0.000000 0.000000
Ro 0.000000 0.000000 0.000000
$EndSHAPE3D
$EndMODULE  TO18GSD
$MODULE C1-1
Po 0 0 0 15 00200000 00000000 ~~
Li C1-1
Cd Condensateur e = 1 ou 2 pas
Kw C
Sc 00000000
Op 0 0 0
T0 0 800 400 400 0 80 N V 21 "C1-1"
T1 0 800 400 400 0 80 N I 21 "C***"
DS -1400 -400 1400 -400 120 21
DS 1400 -400 1400 400 120 21
DS 1400 400 -1400 400 120 21
DS -1400 400 -1400 -400 120 21
DS -1400 -200 -1200 -400 120 21
$PAD
Sh "1" C 550 550 0 0 0
Dr 320 0 0
At STD N 00E0FFFF
Ne 0 ""
Po -1000 0
$EndPAD
$PAD
Sh "2" C 550 550 0 0 0
Dr 320 0 0
At STD N 00E0FFFF
Ne 0 ""
Po 1000 0
$EndPAD
$PAD
Sh "2" C 550 550 0 0 0
Dr 320 0 0
At STD N 00E0FFFF
Ne 0 ""
Po 0 0
$EndPAD
$SHAPE3D
Na "discret/capa_2pas_5x5mm.wrl"
Sc 1.000000 1.000000 1.000000
Of 0.000000 0.000000 0.000000
Ro 0.000000 0.000000 0.000000
$EndSHAPE3D
$EndMODULE  C1-1
$MODULE R1
Po 0 0 0 15 00200000 00000000 ~~
Li R1
Cd Resistance verticale
Kw R
Sc 00000000
Op A A 0
T0 -400 1000 550 500 0 80 N V 21 "R1"
T1 -450 1000 550 500 0 80 N I 21 "VAL*"
DS -500 0 500 0 150 21
DC -500 0 -250 500 150 21
$PAD
Sh "1" C 550 550 0 0 0
Dr 320 0 0
At STD N 00E0FFFF
Ne 0 ""
Po -500 0
$EndPAD
$PAD
Sh "2" C 550 550 0 0 0
Dr 320 0 0
At STD N 00E0FFFF
Ne 0 ""
Po 500 0
$EndPAD
$SHAPE3D
Na "discret/verti_resistor.wrl"
Sc 1.000000 1.000000 1.000000
Of 0.000000 0.000000 0.000000
Ro 0.000000 0.000000 0.000000
$EndSHAPE3D
$EndMODULE  R1
$MODULE HC-33UV
Po 0 0 0 15 3F93D049 00000000 ~~
Li HC-33UV
Cd Quartz boitier HC-33U Vertical
Kw QUARTZ DEV
Sc 00000000
Op 0 A 0
T0 0 -1000 600 600 0 120 N V 21 "HC-33UV"
T1 250 1000 600 600 0 120 N V 21 "V***"
DS 2000 1750 -2000 1750 80 21
DA 2000 0 3750 0 900 80 21
DS -2000 -1750 2000 -1750 80 21
DA 2000 0 2000 -1750 900 80 21
DA -2000 0 -2000 1750 900 80 21
DA -2000 0 -3750 0 900 80 21
$PAD
Sh "1" C 800 800 0 0 0
Dr 400 0 0
At STD N 00E0FFFF
Ne 0 ""
Po -2000 0
$EndPAD
$PAD
Sh "2" C 700 700 0 0 0
Dr 400 0 0
At STD N 00E0FFFF
Ne 0 ""
Po 2000 0
$EndPAD
$SHAPE3D
Na "discret/crystal_hc18u_vertical.wrl"
Sc 2.000000 2.000000 2.000000
Of 0.000000 0.000000 0.000000
Ro 0.000000 0.000000 0.000000
$EndSHAPE3D
$EndMODULE  HC-33UV
$MODULE HC-33UH
Po 0 0 0 15 00200000 00000000 ~~
Li HC-33UH
Cd Quartz boitier HC-33U Horizontal
Kw QUARTZ DEV
Sc 00000000
Op 0 0 0
T0 500 4500 600 600 0 120 N V 21 "HC-33UH"
T1 500 7000 600 600 0 120 N V 21 "X***"
DS 6000 1750 -6250 1750 120 21
DS -2500 0 -2500 1750 120 21
DS 2500 0 2500 1750 120 21
DS 6000 1750 6000 2500 120 21
DS 6000 2500 -6250 2500 120 21
DS -6250 2500 -6250 1750 120 21
DS 5750 2500 5750 12500 120 21
DS 5750 12500 5250 13000 120 21
DS 5250 13000 -5500 13000 120 21
DS -5500 13000 -6000 12500 120 21
DS -6000 12500 -6000 2500 120 21
$PAD
Sh "1" C 700 700 0 0 0
Dr 400 0 0
At STD N 00E0FFFF
Ne 0 ""
Po -2500 0
$EndPAD
$PAD
Sh "2" C 700 700 0 0 0
Dr 400 0 0
At STD N 00E0FFFF
Ne 0 ""
Po 2500 0
$EndPAD
$SHAPE3D
Na "discret/crystal_hc18u_horizontal.wrl"
Sc 2.000000 2.000000 2.000000
Of 0.000000 0.000000 0.000000
Ro 0.000000 0.000000 0.000000
$EndSHAPE3D
$EndMODULE  HC-33UH
$MODULE HC-18UH
Po 0 0 0 15 00200000 00000000 ~~
Li HC-18UH
Cd Quartz boitier HC-18 horizontal
Kw QUARTZ DEV
Sc 00000000
Op 0 0 0
T0 0 2500 600 600 0 120 N V 21 "HC-18UH"
T1 0 4500 600 600 0 120 N V 21 "X***"
DS 2500 1100 -2500 1100 120 21
DS 2300 1100 2300 6000 120 21
DS -2500 1100 -2500 800 120 21
DS 2500 1100 2500 800 120 21
DS 2500 800 -2500 800 120 21
DS -1000 0 -1000 800 120 21
DS 1000 0 1000 800 120 21
DS -2300 1100 -2300 6000 120 21
DS 2300 6000 2100 6200 120 21
DS 2100 6200 -2100 6200 120 21
DS -2100 6200 -2300 6000 120 21
$PAD
Sh "1" C 700 700 0 0 0
Dr 320 0 0
At STD N 00E0FFFF
Ne 0 ""
Po -1000 0
$EndPAD
$PAD
Sh "2" C 700 700 0 0 0
Dr 320 0 0
At STD N 00E0FFFF
Ne 0 ""
Po 1000 0
$EndPAD
$SHAPE3D
Na "discret/crystal_hc18u_horizontal.wrl"
Sc 1.000000 1.000000 1.000000
Of 0.000000 0.000000 0.000000
Ro 0.000000 0.000000 0.000000
$EndSHAPE3D
$EndMODULE  HC-18UH
$MODULE CP36V
Po 0 0 0 15 3F94E337 00000000 ~~
Li CP36V
Cd Condensateur polarise vertical
Kw CP
Sc 00000000
Op 0 0 0
T0 0 -6000 1229 805 0 120 N V 21 "C***"
T1 500 6000 1248 1066 0 120 N V 21 "CP36"
DC 0 0 7500 750 150 21
$PAD
Sh "2" C 4000 4000 0 0 0
Dr 1600 0 0
At STD N 00E0FFFF
Ne 0 ""
Po 2500 0
$EndPAD
$PAD
Sh "1" R 4000 4000 0 0 0
Dr 1600 0 0
At STD N 00E0FFFF
Ne 0 ""
Po -2500 0
$EndPAD
$SHAPE3D
Na "discret/c_vert_big.wrl"
Sc 1.000000 1.000000 1.000000
Of 0.000000 0.000000 0.000000
Ro 0.000000 0.000000 0.000000
$EndSHAPE3D
$EndMODULE  CP36V
$MODULE C1V8
Po 0 0 0 15 3DD3A719 00000000 ~~
Li C1V8
Sc 00000000
Op 0 0 0
T0 0 800 400 350 0 80 N V 21 "C1V8"
T1 0 -699 400 350 0 80 N V 21 "Val**"
T2 -1199 0 600 600 0 80 N V 21 "+"
DC 0 0 1600 0 80 21
$PAD
Sh "1" R 650 650 0 0 0
Dr 320 0 0
At STD N 00E0FFFF
Ne 0 ""
Po -500 0
$EndPAD
$PAD
Sh "2" C 650 650 0 0 0
Dr 320 0 0
At STD N 00E0FFFF
Ne 0 ""
Po 500 0
$EndPAD
$SHAPE3D
Na "discret/c_vert_c1v8.wrl"
Sc 1.000000 1.000000 1.000000
Of 0.000000 0.000000 0.000000
Ro 0.000000 0.000000 0.000000
$EndSHAPE3D
$EndMODULE  C1V8
$MODULE C1V7
Po 0 0 0 15 00200000 00000000 ~~
Li C1V7
Sc 00000000
Op 0 0 0
T0 0 600 450 350 0 80 N V 21 "C1V7"
T1 0 -600 450 350 0 80 N V 21 "Val**"
T2 -1000 0 450 450 0 120 N V 21 "+"
DC 0 0 1250 0 50 21
$PAD
Sh "1" R 600 600 0 0 0
Dr 320 0 0
At STD N 00E0FFFF
Ne 0 ""
Po -500 0
$EndPAD
$PAD
Sh "2" C 600 600 0 0 0
Dr 320 0 0
At STD N 00E0FFFF
Ne 0 ""
Po 500 0
$EndPAD
$SHAPE3D
Na "discret/c_vert_c1v7.wrl"
Sc 1.000000 1.000000 1.000000
Of 0.000000 0.000000 0.000000
Ro 0.000000 0.000000 0.000000
$EndSHAPE3D
$EndMODULE  C1V7
$MODULE C1V5
Po 0 0 0 15 3E070CF4 00000000 ~~
Li C1V5
Cd Condensateur e = 1 pas
Kw C
Sc 00000000
Op 0 0 0
T0 0 -499 300 300 0 50 N V 21 "C1V5"
T1 0 500 300 250 0 50 N V 21 "C***"
T2 -900 0 300 300 0 80 N V 21 "+"
DC 0 0 50 -1000 50 21
$PAD
Sh "1" R 550 550 0 0 0
Dr 320 0 0
At STD N 00E0FFFF
Ne 0 ""
Po -500 0
$EndPAD
$PAD
Sh "2" C 550 550 0 0 0
Dr 320 0 0
At STD N 00E0FFFF
Ne 0 ""
Po 500 0
$EndPAD
$SHAPE3D
Na "discret/c_vert_c1v5.wrl"
Sc 1.000000 1.000000 1.000000
Of 0.000000 0.000000 0.000000
Ro 0.000000 0.000000 0.000000
$EndSHAPE3D
$EndMODULE  C1V5
$MODULE C1V7H
Po 0 0 0 15 3DD3A83D 00000000 ~~
Li C1V7H
Sc 00000000
Op 0 0 0
T0 -499 3000 600 340 900 80 N V 21 "C1V7H"
T1 500 3000 500 400 900 80 N V 21 "Val**"
T2 -600 1050 600 600 0 120 N V 21 "+"
DS 1500 750 -1500 750 80 21
DS -1500 750 -1500 5000 80 21
DS -1500 5000 1500 5000 80 21
DS 1500 5000 1500 750 80 21
DS -500 0 -500 750 80 21
DS 500 0 500 750 80 21
$PAD
Sh "1" R 650 650 0 0 0
Dr 320 0 0
At STD N 00E0FFFF
Ne 0 ""
Po -500 0
$EndPAD
$PAD
Sh "2" C 650 650 0 0 0
Dr 320 0 0
At STD N 00E0FFFF
Ne 0 ""
Po 500 0
$EndPAD
$SHAPE3D
Na "discret/c_horiz_c1v7.wrl"
Sc 1.000000 1.000000 1.000000
Of 0.000000 0.000000 0.000000
Ro 0.000000 0.000000 0.000000
$EndSHAPE3D
$EndMODULE  C1V7H
$MODULE LM79XX
Po 0 0 0 15 00200000 00000000 ~~
Li LM79XX
Cd Regulateur TO220 serie LM79xx
Kw TR TO220
Sc 00000000
Op 0 0 0
T0 2850 -50 600 400 900 80 N V 21 "LM79XX"
T1 4300 -50 600 400 900 80 N V 21 "VAL*"
DS 0 -1000 2000 -1000 120 21
DS 0 0 2000 0 120 21
DS 0 1000 2000 1000 120 21
DS 2000 -1500 2000 2000 120 21
DS 2000 2000 8000 2000 120 21
DS 8000 2000 8000 -2000 120 21
DS 8000 -2000 2000 -2000 120 21
DS 2000 -2000 2000 -1500 120 21
DS 5000 1500 5000 -2000 120 21
DS 5000 1500 5000 2000 120 21
$PAD
Sh "VO" C 700 700 0 0 0
Dr 450 0 0
At STD N 00E0FFFF
Ne 0 ""
Po 0 1000
$EndPAD
$PAD
Sh "GND" R 700 700 0 0 0
Dr 450 0 0
At STD N 00E0FFFF
Ne 0 ""
Po 0 -1000
$EndPAD
$PAD
Sh "VI" C 700 700 0 0 0
Dr 450 0 0
At STD N 00E0FFFF
Ne 0 ""
Po 0 0
$EndPAD
$PAD
Sh "4" R 3500 3500 0 0 0
Dr 1200 0 0
At STD N 00F0FFFF
Ne 0 ""
Po 6500 0
$EndPAD
$SHAPE3D
Na "discret/to220_horiz.wrl"
Sc 1.000000 1.000000 1.000000
Of 0.000000 0.000000 0.000000
Ro 0.000000 0.000000 0.000000
$EndSHAPE3D
$EndMODULE  LM79XX
$MODULE LM78XX
Po 0 0 0 15 00200000 00000000 ~~
Li LM78XX
Cd Regulateur TO220 serie LM78xx
Kw TR TO220
Sc 00000000
Op 0 0 0
T0 3000 0 600 400 900 80 N V 21 "LM78XX"
T1 4200 50 600 400 900 80 N V 21 "VAL*"
DS 0 -1000 2000 -1000 120 21
DS 0 0 2000 0 120 21
DS 0 1000 2000 1000 120 21
DS 2000 -1500 2000 2000 120 21
DS 2000 2000 8000 2000 120 21
DS 8000 2000 8000 -2000 120 21
DS 2000 -1500 2000 -2000 120 21
DS 5000 1500 5000 -2000 120 21
DS 5000 1500 5000 2000 120 21
DS 2000 -2000 8000 -2000 120 21
$PAD
Sh "4" R 3500 3500 0 0 0
Dr 1200 0 0
At STD N 00F0FFFF
Ne 0 ""
Po 6500 0
$EndPAD
$PAD
Sh "VI" C 700 700 0 0 0
Dr 450 0 0
At STD N 00E0FFFF
Ne 0 ""
Po 0 -1000
$EndPAD
$PAD
Sh "GND" R 700 700 0 0 0
Dr 450 0 0
At STD N 00E0FFFF
Ne 0 ""
Po 0 0
$EndPAD
$PAD
Sh "VO" C 700 700 0 0 0
Dr 450 0 0
At STD N 00E0FFFF
Ne 0 ""
Po 0 1000
$EndPAD
$SHAPE3D
Na "discret/to220_horiz.wrl"
Sc 1.000000 1.000000 1.000000
Of 0.000000 0.000000 0.000000
Ro 0.000000 0.000000 0.000000
$EndSHAPE3D
$EndMODULE  LM78XX
$MODULE TO220
Po 0 0 0 15 00200000 00000000 ~~
Li TO220
Cd Transistor TO 220
Kw TR TO220 DEV
Sc 00000000
Op 0 0 0
T0 2750 0 400 400 900 80 N V 21 "TO220"
T1 4250 0 400 400 900 80 N V 21 "VAL*"
DS 0 -1000 2000 -1000 120 21
DS 0 0 2000 0 120 21
DS 0 1000 2000 1000 120 21
DS 2000 2000 8000 2000 120 21
DS 8000 2000 8000 -2000 120 21
DS 8000 -2000 2000 -2000 120 21
DS 2000 -2000 2000 2000 120 21
DS 5000 1500 5000 -2000 120 21
DS 5000 1500 5000 2000 120 21
$PAD
Sh "1" R 700 700 0 0 0
Dr 450 0 0
At STD N 00E0FFFF
Ne 0 ""
Po 0 1000
$EndPAD
$PAD
Sh "2" C 700 700 0 0 0
Dr 450 0 0
At STD N 00E0FFFF
Ne 0 ""
Po 0 -1000
$EndPAD
$PAD
Sh "3" C 700 700 0 0 0
Dr 450 0 0
At STD N 00E0FFFF
Ne 0 ""
Po 0 0
$EndPAD
$PAD
Sh "4" R 3500 3500 0 0 0
Dr 1200 0 0
At STD N 00F0FFFF
Ne 0 ""
Po 6500 0
$EndPAD
$SHAPE3D
Na "discret/to220_horiz.wrl"
Sc 1.000000 1.000000 1.000000
Of 0.000000 0.000000 0.000000
Ro 0.000000 0.000000 0.000000
$EndSHAPE3D
$EndMODULE  TO220
$MODULE LEDV
Po 0 0 0 15 00200000 00000000 ~~
Li LEDV
Cd Led verticale diam 6mm
Kw LED DEV
Sc 00000000
Op 0 0 0
T0 0 -1500 600 600 0 120 N V 21 "LEDV"
T1 0 -1500 600 600 0 120 N I 21 "D***"
DC 0 0 -1000 0 120 21
DS 1000 -250 750 -250 120 21
DS 750 -250 750 250 120 21
DS 750 250 1000 250 120 21
$PAD
Sh "1" R 550 550 0 0 0
Dr 320 0 0
At STD N 00E0FFFF
Ne 0 ""
Po -500 0
$EndPAD
$PAD
Sh "2" C 550 550 0 0 0
Dr 320 0 0
At STD N 00E0FFFF
Ne 0 ""
Po 500 0
$EndPAD
$SHAPE3D
Na "discret/led5_vertical.wrl"
Sc 1.000000 1.000000 1.000000
Of 0.000000 0.000000 0.000000
Ro 0.000000 0.000000 0.000000
$EndSHAPE3D
$EndMODULE  LEDV
$MODULE r_pack8
Po 0 0 0 15 3F951D98 00000000 ~~
Li r_pack8
Cd 8 R pack
Kw R
Sc 00000000
Op 0 0 0
T0 -500 -1100 500 500 0 80 N V 21 "r_pack8"
T1 0 800 400 400 0 80 N V 21 "Val**"
DS 4500 -500 4500 500 120 21
DS 4500 500 -4500 500 120 21
DS -4500 500 -4500 -500 120 21
DS 4500 -500 -4500 -500 120 21
DS -3500 -500 -3500 500 120 21
$PAD
Sh "1" R 550 550 0 0 0
Dr 320 0 0
At STD N 00E0FFFF
Ne 0 ""
Po -4000 0
$EndPAD
$PAD
Sh "2" C 550 550 0 0 0
Dr 320 0 0
At STD N 00E0FFFF
Ne 0 ""
Po -3000 0
$EndPAD
$PAD
Sh "3" C 550 550 0 0 0
Dr 320 0 0
At STD N 00E0FFFF
Ne 0 ""
Po -2000 0
$EndPAD
$PAD
Sh "4" C 550 550 0 0 0
Dr 320 0 0
At STD N 00E0FFFF
Ne 0 ""
Po -1000 0
$EndPAD
$PAD
Sh "5" C 550 550 0 0 0
Dr 320 0 0
At STD N 00E0FFFF
Ne 0 ""
Po 0 0
$EndPAD
$PAD
Sh "6" C 550 550 0 0 0
Dr 320 0 0
At STD N 00E0FFFF
Ne 0 ""
Po 1000 0
$EndPAD
$PAD
Sh "7" C 550 550 0 0 0
Dr 320 0 0
At STD N 00E0FFFF
Ne 0 ""
Po 2000 0
$EndPAD
$PAD
Sh "8" C 550 550 0 0 0
Dr 320 0 0
At STD N 00E0FFFF
Ne 0 ""
Po 3000 0
$EndPAD
$PAD
Sh "9" C 550 550 0 0 0
Dr 320 0 0
At STD N 00E0FFFF
Ne 0 ""
Po 4000 0
$EndPAD
$SHAPE3D
Na "discret/r_pack8.wrl"
Sc 1.000000 1.000000 1.000000
Of 0.000000 0.000000 0.000000
Ro 0.000000 0.000000 0.000000
$EndSHAPE3D
$EndMODULE  r_pack8
$MODULE r_pack9
Po 0 0 0 15 3F951ED0 00000000 ~~
Li r_pack9
Cd Connecteur 10 pins
Kw CONN DEV
Sc 00000000
Op 0 0 0
T0 -400 -1000 500 500 0 80 N V 21 "r_pack9"
T1 -300 900 500 400 0 80 N V 21 "Val**"
DS -5000 500 -5000 -500 120 21
DS -5000 -500 5000 -500 120 21
DS 5000 -500 5000 500 120 21
DS 5000 500 -5000 500 120 21
DS -4000 500 -4000 -500 120 21
$PAD
Sh "1" R 550 550 0 0 0
Dr 320 0 0
At STD N 00E0FFFF
Ne 0 ""
Po -4500 0
$EndPAD
$PAD
Sh "2" C 550 550 0 0 0
Dr 320 0 0
At STD N 00E0FFFF
Ne 0 ""
Po -3500 0
$EndPAD
$PAD
Sh "3" C 550 550 0 0 0
Dr 320 0 0
At STD N 00E0FFFF
Ne 0 ""
Po -2500 0
$EndPAD
$PAD
Sh "4" C 550 550 0 0 0
Dr 320 0 0
At STD N 00E0FFFF
Ne 0 ""
Po -1500 0
$EndPAD
$PAD
Sh "5" C 550 550 0 0 0
Dr 320 0 0
At STD N 00E0FFFF
Ne 0 ""
Po -500 0
$EndPAD
$PAD
Sh "6" C 550 550 0 0 0
Dr 320 0 0
At STD N 00E0FFFF
Ne 0 ""
Po 500 0
$EndPAD
$PAD
Sh "7" C 550 550 0 0 0
Dr 320 0 0
At STD N 00E0FFFF
Ne 0 ""
Po 1500 0
$EndPAD
$PAD
Sh "8" C 550 550 0 0 0
Dr 320 0 0
At STD N 00E0FFFF
Ne 0 ""
Po 2500 0
$EndPAD
$PAD
Sh "9" C 550 550 0 0 0
Dr 320 0 0
At STD N 00E0FFFF
Ne 0 ""
Po 3500 0
$EndPAD
$PAD
Sh "10" C 550 550 0 0 0
Dr 320 0 0
At STD N 00E0FFFF
Ne 0 ""
Po 4500 0
$EndPAD
$SHAPE3D
Na "discret/r_pack9.wrl"
Sc 1.000000 1.000000 1.000000
Of 0.000000 0.000000 0.000000
Ro 0.000000 0.000000 0.000000
$EndSHAPE3D
$EndMODULE  r_pack9
$MODULE LM78LXX
Po 0 0 0 15 00200000 00000000 ~~
Li LM78LXX
Cd Regulateur TO92 serie LM78Lxx
Kw TR TO92
Sc 00000000
Op 0 0 0
T0 -750 1500 400 400 0 80 N V 21 "LM78LXX"
T1 -500 -2000 400 400 0 80 N V 21 "VAL**"
DS -500 1000 1000 -500 120 21
DS 1000 -500 1000 -1000 120 21
DS 1000 -1000 500 -1500 120 21
DS 500 -1500 -500 -1500 120 21
DS -500 -1500 -1500 -500 120 21
DS -1500 -500 -1500 500 120 21
DS -1500 500 -1000 1000 120 21
DS -1000 1000 -500 1000 120 21
$PAD
Sh "VI" C 550 550 0 0 0
Dr 320 0 0
At STD N 00E0FFFF
Ne 0 ""
Po 500 -500
$EndPAD
$PAD
Sh "GND" R 550 550 0 0 0
Dr 320 0 0
At STD N 00E0FFFF
Ne 0 ""
Po -500 -500
$EndPAD
$PAD
Sh "VO" C 550 550 0 0 0
Dr 320 0 0
At STD N 00E0FFFF
Ne 0 ""
Po -500 500
$EndPAD
$SHAPE3D
Na "discret/to98.wrl"
Sc 1.000000 1.000000 1.000000
Of 0.000000 0.000000 0.000000
Ro 0.000000 0.000000 0.000000
$EndSHAPE3D
$EndMODULE  LM78LXX
$MODULE LM2931
Po 0 0 0 15 3F95266A 00000000 ~~
Li LM2931
Cd Regulateur TO92 type lm2931
Kw TR TO92
Sc 00000000
Op 0 0 0
T0 0 1350 400 400 0 80 N V 21 "LM2931"
T1 -150 -1800 400 400 0 80 N V 21 "VAL**"
DS -500 1000 1000 -500 120 21
DS 1000 -500 1000 -1000 120 21
DS 1000 -1000 500 -1500 120 21
DS 500 -1500 -500 -1500 120 21
DS -500 -1500 -1500 -500 120 21
DS -1500 -500 -1500 500 120 21
DS -1500 500 -1000 1000 120 21
DS -1000 1000 -500 1000 120 21
$PAD
Sh "1" R 550 550 0 0 0
Dr 320 0 0
At STD N 00E0FFFF
Ne 0 ""
Po 500 -500
$EndPAD
$PAD
Sh "2" C 550 550 0 0 0
Dr 320 0 0
At STD N 00E0FFFF
Ne 0 ""
Po -500 500
$EndPAD
$PAD
Sh "3" C 550 550 0 0 0
Dr 320 0 0
At STD N 00E0FFFF
Ne 0 ""
Po -500 -500
$EndPAD
$SHAPE3D
Na "discret/to98.wrl"
Sc 1.000000 1.000000 1.000000
Of 0.000000 0.000000 0.000000
Ro 0.000000 0.000000 0.000000
$EndSHAPE3D
$EndMODULE  LM2931
$MODULE LM79LXX
Po 0 0 0 15 00200000 00000000 ~~
Li LM79LXX
Cd Regulateur TO92 serie LM79Lxx
Kw TR TO92
Sc 00000000
Op 0 0 0
T0 -500 1500 400 400 0 80 N V 21 "LM79LXX"
T1 -250 -2000 400 400 0 80 N V 21 "VAL**"
DS -500 1000 1000 -500 120 21
DS 1000 -500 1000 -1000 120 21
DS 1000 -1000 500 -1500 120 21
DS 500 -1500 -500 -1500 120 21
DS -500 -1500 -1500 -500 120 21
DS -1500 -500 -1500 500 120 21
DS -1500 500 -1000 1000 120 21
DS -1000 1000 -500 1000 120 21
$PAD
Sh "VI" C 550 550 0 0 0
Dr 320 0 0
At STD N 00E0FFFF
Ne 0 ""
Po -500 -500
$EndPAD
$PAD
Sh "VO" C 550 550 0 0 0
Dr 320 0 0
At STD N 00E0FFFF
Ne 0 ""
Po 500 -500
$EndPAD
$PAD
Sh "GND" R 550 550 0 0 0
Dr 320 0 0
At STD N 00E0FFFF
Ne 0 ""
Po -500 500
$EndPAD
$SHAPE3D
Na "discret/to98.wrl"
Sc 1.000000 1.000000 1.000000
Of 0.000000 0.000000 0.000000
Ro 0.000000 0.000000 0.000000
$EndSHAPE3D
$EndMODULE  LM79LXX
$MODULE VP0808
Po 0 0 0 15 3DFDE2B2 00000000 ~~
Li VP0808
Cd Transistor TO92 brochage type VP0808
Kw TR TO92
Sc 00000000
Op 0 0 0
T0 100 -1850 400 400 0 80 N V 21 "VP0808"
T1 -500 1350 400 400 0 80 N V 21 "VAL**"
DS -500 1000 1000 -500 120 21
DS 1000 -500 1000 -1000 120 21
DS 1000 -1000 500 -1500 120 21
DS 500 -1500 -500 -1500 120 21
DS -500 -1500 -1500 -500 120 21
DS -1500 -500 -1500 500 120 21
DS -1500 500 -1000 1000 120 21
DS -1000 1000 -500 1000 120 21
$PAD
Sh "S" C 550 550 0 0 0
Dr 320 0 0
At STD N 00E0FFFF
Ne 0 ""
Po -500 -500
$EndPAD
$PAD
Sh "G" C 550 550 0 0 0
Dr 320 0 0
At STD N 00E0FFFF
Ne 0 ""
Po 500 -500
$EndPAD
$PAD
Sh "D" C 550 550 0 0 0
Dr 320 0 0
At STD N 00E0FFFF
Ne 0 ""
Po -500 500
$EndPAD
$SHAPE3D
Na "discret/to98.wrl"
Sc 1.000000 1.000000 1.000000
Of 0.000000 0.000000 0.000000
Ro 0.000000 0.000000 0.000000
$EndSHAPE3D
$EndMODULE  VP0808
$MODULE CP10
Po 0 0 0 15 00200000 00000000 ~~
Li CP10
Cd Condensateur polarise
Kw CP
Sc 00000000
Op 0 0 0
T0 1000 500 600 600 0 120 N V 21 "CP10"
T1 -750 -500 600 600 0 120 N V 21 "C***"
DS 5000 0 4000 0 120 21
DS 4000 0 4000 1000 120 21
DS 4000 1000 -3000 1000 120 21
DS -3000 1000 -3000 -1000 120 21
DS -3000 -1000 4000 -1000 120 21
DS 4000 -1000 4000 0 120 21
DS -3000 -500 -4000 -500 120 21
DS -4000 -500 -4000 500 120 21
DS -4000 500 -3000 500 120 21
DS -5000 0 -4000 0 120 21
$PAD
Sh "2" C 700 700 0 0 0
Dr 320 0 0
At STD N 00E0FFFF
Ne 0 ""
Po 5000 0
$EndPAD
$PAD
Sh "1" R 700 700 0 0 0
Dr 320 0 0
At STD N 00E0FFFF
Ne 0 ""
Po -5000 0
$EndPAD
$SHAPE3D
Na "discret/c_pol.wrl"
Sc 1.000000 1.000000 1.000000
Of 0.000000 0.000000 0.000000
Ro 0.000000 0.000000 0.000000
$EndSHAPE3D
$EndMODULE  CP10
$MODULE TO3
Po 0 0 0 15 00200000 00000000 ~~
Li TO3
Cd Transistor TO3
Kw TR TO3
Sc 00000000
Op 0 0 0
T0 -5400 -4400 400 400 0 80 N V 21 "TO3"
T1 -5650 -3600 400 400 0 80 N V 21 "U***"
DS -8000 -1000 -8400 0 120 21
DS -8400 0 -8000 1000 120 21
DS 8000 -1000 8600 0 120 21
DS 8600 0 8000 1000 120 21
DS -1800 -4800 0 -5200 120 21
DS 0 -5200 1800 -4800 120 21
DS -1800 -4800 -8000 -1000 120 21
DS 1800 -4800 8000 -1000 120 21
DS 1800 4800 8000 1000 120 21
DS -1800 4800 -8000 1000 120 21
DS 1800 4800 -200 5200 120 21
DS -200 5200 -1800 4800 120 21
DC 0 0 4000 250 120 21
$PAD
Sh "1" C 2500 2500 0 0 0
Dr 1550 0 0
At STD N 00E0FFFF
Ne 0 ""
Po -6000 0
$EndPAD
$PAD
Sh "1" C 2500 2500 0 0 0
Dr 1550 0 0
At STD N 00E0FFFF
Ne 0 ""
Po 6000 0
$EndPAD
$PAD
Sh "2" C 1000 1000 0 0 0
Dr 520 0 0
At STD N 00E0FFFF
Ne 0 ""
Po -1000 -2000
$EndPAD
$PAD
Sh "3" C 1000 1000 0 0 0
Dr 520 0 0
At STD N 00E0FFFF
Ne 0 ""
Po -1000 2000
$EndPAD
$SHAPE3D
Na "discret/to3.wrl"
Sc 1.000000 1.000000 1.000000
Of 0.000000 0.000000 0.000000
Ro 0.000000 0.000000 0.000000
$EndSHAPE3D
$EndMODULE  TO3
$MODULE R3-5
Po 0 0 0 15 3F979F9F 00000000 ~~
Li R3-5
Sc 00000000
Op 0 0 0
T0 0 0 500 400 0 60 N V 21 "R3-5"
T1 0 0 500 400 0 60 N I 21 "Val*"
DS -1500 -250 -1500 500 50 21
DS -1500 500 1500 500 50 21
DS 1500 500 1500 -500 50 21
DS 1500 -500 -1500 -500 50 21
DS -1500 -500 -1500 -250 50 21
DS -1750 0 -1500 0 50 21
DS 1500 0 1750 0 50 21
DS -1500 -250 -1250 -500 50 21
$PAD
Sh "1" C 550 550 0 0 0
Dr 320 0 0
At STD N 00E0FFFF
Ne 148 "N-000285"
Po -1750 0
$EndPAD
$PAD
Sh "2" C 550 550 0 0 0
Dr 320 0 0
At STD N 00E0FFFF
Ne 141 "N-000286"
Po 1750 0
$EndPAD
$SHAPE3D
Na "discret/resistor.wrl"
Sc 0.350000 0.350000 0.300000
Of 0.000000 0.000000 0.000000
Ro 0.000000 0.000000 0.000000
$EndSHAPE3D
$EndMODULE  R3-5
$MODULE RV2X4
Po 0 0 0 15 00200000 00000000 ~~
Li RV2X4
Cd Resistance variable / Potentiometre
Kw R
Sc 00000000
Op 0 0 0
T0 -1000 -2000 550 500 0 80 N V 21 "Val*"
T1 -650 2150 550 500 0 80 N V 21 "RV2X4"
DS -3000 -1500 1500 -1500 120 21
DS 1500 -1500 2500 -500 120 21
DS 2500 -500 2500 500 120 21
DS 2500 500 1500 1500 120 21
DS 1500 1500 -3000 1500 120 21
DS -3000 1500 -3000 -1500 120 21
DS 300 -1500 750 -1500 120 21
DS 650 1500 300 1500 120 21
DS -1000 -200 1950 -200 120 21
DS -1000 200 1950 200 120 21
DC 500 0 -1000 -250 120 21
$PAD
Sh "1" C 800 800 0 0 0
Dr 500 0 0
At STD N 00E0FFFF
Ne 0 ""
Po -2000 -1000
$EndPAD
$PAD
Sh "2" C 800 800 0 0 0
Dr 500 0 0
At STD N 00E0FFFF
Ne 0 ""
Po 2000 0
$EndPAD
$PAD
Sh "3" C 800 800 0 0 0
Dr 500 0 0
At STD N 00E0FFFF
Ne 0 ""
Po -2000 1000
$EndPAD
$SHAPE3D
Na "discret/adjustable_rx2v4.wrl"
Sc 1.000000 1.000000 1.000000
Of 0.000000 0.000000 0.000000
Ro 0.000000 0.000000 0.000000
$EndSHAPE3D
$EndMODULE  RV2X4
$MODULE SW_PUSH
Po 0 0 0 15 3F9504DA 00000000 ~~
Li SW_PUSH
Cd Bouton poussoir
Kw SWITCH DEV
Sc 00000000
Op 0 A 0
T0 500 -2000 500 500 0 100 N V 21 "BP***"
T1 0 0 500 500 0 100 N V 21 "SW_PUSH"
DS 2500 -2250 2500 2250 80 21
DS 2500 2250 2250 2500 80 21
DS 2250 2500 -2250 2500 80 21
DS -2250 2500 -2500 2250 80 21
DS -2500 2250 -2500 -2250 80 21
DS -2250 -2500 2250 -2500 80 21
DS 2250 -2500 2500 -2250 80 21
DS -2500 -2250 -2250 -2500 80 21
$PAD
Sh "1" C 1000 1000 0 0 0
Dr 450 0 0
At STD N 00E0FFFF
Ne 0 ""
Po -2000 -1000
$EndPAD
$PAD
Sh "2" C 1000 1000 0 0 0
Dr 450 0 0
At STD N 00E0FFFF
Ne 0 ""
Po 2000 1000
$EndPAD
$SHAPE3D
Na "device/switch_push.wrl"
Sc 1.000000 1.000000 1.000000
Of 0.000000 0.000000 0.000000
Ro 0.000000 0.000000 0.000000
$EndSHAPE3D
$EndMODULE  SW_PUSH
$MODULE RV2
Po 0 0 0 15 3FA15781 00000000 ~~
Li RV2
Cd Resistance variable / potentiometre
Kw R
Sc 00000000
Op A A 0
T0 0 -2000 550 500 0 80 N V 21 "Val*"
T1 -100 2050 550 500 0 80 N V 21 "RV2"
DC 0 150 0 -1250 80 21
$PAD
Sh "1" C 600 600 0 0 0
Dr 320 0 0
At STD N 00E0FFFF
Ne 0 ""
Po -1000 500
$EndPAD
$PAD
Sh "2" C 600 600 0 0 0
Dr 320 0 0
At STD N 00E0FFFF
Ne 0 ""
Po 0 -500
$EndPAD
$PAD
Sh "3" C 600 600 0 0 0
Dr 320 0 0
At STD N 00E0FFFF
Ne 0 ""
Po 1000 500
$EndPAD
$SHAPE3D
Na "discret/adjustable_rx2.wrl"
Sc 1.000000 1.000000 1.000000
Of 0.000000 0.000000 0.000000
Ro 0.000000 0.000000 0.000000
$EndSHAPE3D
$EndMODULE  RV2
$MODULE CP4
Po 0 0 0 15 00200000 00000000 ~~
Li CP4
Cd Condensateur polarise
Kw CP
Sc 00000000
Op 0 0 0
T0 200 0 500 550 0 100 N V 21 "CP4"
T1 200 0 500 450 0 100 N I 21 "C***"
DS 2000 0 1600 0 120 21
DS 1600 0 1600 400 120 21
DS 1600 400 -1400 400 120 21
DS -1400 400 -1400 -400 120 21
DS -1400 -400 1600 -400 120 21
DS 1600 -400 1600 0 120 21
DS -2000 0 -1600 0 120 21
DS -1400 200 -1600 200 120 21
DS -1600 200 -1600 -200 120 21
DS -1600 -200 -1400 -200 120 21
$PAD
Sh "1" R 550 550 0 0 0
Dr 320 0 0
At STD N 00E0FFFF
Ne 0 ""
Po -2000 0
$EndPAD
$PAD
Sh "2" C 550 550 0 0 0
Dr 320 0 0
At STD N 00E0FFFF
Ne 0 ""
Po 2000 0
$EndPAD
$SHAPE3D
Na "discret/c_pol.wrl"
Sc 0.400000 0.400000 0.400000
Of 0.000000 0.000000 0.000000
Ro 0.000000 0.000000 0.000000
$EndSHAPE3D
$EndMODULE  CP4
$MODULE FUSE5-20
Po 0 0 0 15 40C496F0 00000000 ~~
Li FUSE5-20
Cd Support fusible 5 x 20
Kw DEV
Sc 00000000
Op 0 0 0
T0 400 2000 1116 628 0 120 N V 21 "F1"
T1 500 -2000 1000 800 0 120 N V 21 "FUSE"
DS -5000 -1000 5000 -1000 120 21
DS 5000 -1000 5000 1000 120 21
DS 5000 1000 -5000 1000 120 21
DS -5000 1000 -5000 -1000 120 21
DS -2000 -1000 -2000 1000 120 21
DS 2000 -1000 2000 1000 120 21
$PAD
Sh "1" C 1500 1500 0 0 0
Dr 550 0 0
At STD N 00E0FFFF
Ne 12 "N-000013"
Po -4000 0
$EndPAD
$PAD
Sh "1" C 1500 1500 0 0 0
Dr 550 0 0
At STD N 00E0FFFF
Ne 12 "N-000013"
Po -2000 0
$EndPAD
$PAD
Sh "2" C 1500 1500 0 0 0
Dr 550 0 0
At STD N 00E0FFFF
Ne 11 "N-000015"
Po 2000 0
$EndPAD
$PAD
Sh "2" C 1500 1500 0 0 0
Dr 550 0 0
At STD N 00E0FFFF
Ne 11 "N-000015"
Po 4000 0
$EndPAD
$EndMODULE  FUSE5-20
$MODULE CPR10X16
Po 0 0 0 15 416BBCDD 00000000 ~~
Li CPR10X16
Cd Condensateur polarise couche
Kw CP
Sc 00000000
Op 0 0 0
T0 -4000 -1000 600 500 0 80 N V 21 "C***"
T1 -4000 1000 600 500 0 80 N V 21 "CPR10X16"
DS -1000 -2050 -7500 -2050 120 21
DS -7500 -2050 -7500 1950 120 21
DS -7500 1950 -1000 1950 120 21
DS -1000 1950 -1000 -2050 120 21
DS -1000 -1550 -500 -1550 120 21
DS -500 -1550 -500 -550 120 21
DS -500 -550 -1000 -550 120 21
DS -500 -1050 0 -1050 120 21
DS -1000 950 0 950 120 21
$PAD
Sh "1" R 700 700 0 0 0
Dr 400 0 0
At STD N 00F0FFFF
Ne 0 ""
Po 0 -1050
$EndPAD
$PAD
Sh "2" C 700 700 0 0 0
Dr 400 0 0
At STD N 00F0FFFF
Ne 0 ""
Po 0 950
$EndPAD
$SHAPE3D
Na "discret/c_horiz_c2v10.wrl"
Sc 1.000000 1.000000 1.000000
Of 0.000000 0.000000 0.000000
Ro 0.000000 0.000000 0.000000
$EndSHAPE3D
$EndMODULE  CPR10X16
$MODULE SUBCLICK
Po 0 0 0 15 416BBA18 00000000 ~~
Li SUBCLICK
Cd Connecteur Subclick
Kw CONN DEV
Sc 00000000
Op 0 0 0
T0 0 2500 600 400 0 120 N V 21 "SUBCLICK"
T1 -100 -2500 800 500 0 120 N V 21 "P***"
DS -1000 -500 -500 -1000 120 21
DS -500 -1000 7000 -1000 120 21
DS 7000 -1000 7000 1000 120 21
DS 7000 1000 -500 1000 120 21
DS -500 1000 -1000 500 120 21
DS -1000 500 -1000 -500 120 21
DS -1500 -2000 1500 -2000 120 21
DS 1500 -2000 2000 -1500 120 21
DS 2000 -1500 2000 1500 120 21
DS 2000 1500 1500 2000 120 21
DS 1500 2000 -1500 2000 120 21
DS -1500 2000 -2000 1500 120 21
DS -2000 1500 -2000 -1500 120 21
DS -2000 -1500 -1500 -2000 120 21
$PAD
Sh "1" C 700 700 0 0 0
Dr 400 0 0
At STD N 00E0FFFF
Ne 0 ""
Po 0 0
$EndPAD
$PAD
Sh "2" C 1200 1200 0 0 0
Dr 600 0 0
At STD N 00E0FFFF
Ne 0 ""
Po -1000 -1000
$EndPAD
$PAD
Sh "2" C 1200 1200 0 0 0
Dr 600 0 0
At STD N 00E0FFFF
Ne 0 ""
Po 1000 -1000
$EndPAD
$PAD
Sh "2" C 1200 1200 0 0 0
Dr 600 0 0
At STD N 00E0FFFF
Ne 0 ""
Po 1000 1000
$EndPAD
$PAD
Sh "2" C 1200 1200 0 0 0
Dr 600 0 0
At STD N 00E0FFFF
Ne 0 ""
Po -1000 1000
$EndPAD
$SHAPE3D
Na "connectors/subclick_horiz.wrl"
Sc 1.000000 1.000000 1.000000
Of 0.000000 0.000000 0.000000
Ro 0.000000 0.000000 0.000000
$EndSHAPE3D
$EndMODULE  SUBCLICK
$MODULE R4-5
Po 0 0 0 15 416E8E97 00000000 ~~
Li R4-5
Sc 00000000
Op 0 0 0
T0 0 0 600 400 0 120 N V 21 "Val*"
T1 0 0 600 400 0 120 N I 21 "R4-5"
DS -1750 -500 -1750 500 120 21
DS -1750 500 1750 500 120 21
DS 1750 500 1750 -500 120 21
DS 1750 -500 -1750 -500 120 21
DS -1750 -250 -1500 -500 120 21
DS -1750 0 -2250 0 120 21
DS 1750 0 2250 0 120 21
$PAD
Sh "1" C 600 600 0 0 0
Dr 400 0 0
At STD N 00E0FFFF
Ne 1 "MASSE"
Po -2250 0
$EndPAD
$PAD
Sh "2" C 600 600 0 0 0
Dr 400 0 0
At STD N 00E0FFFF
Ne 22 "GND"
Po 2250 0
$EndPAD
$SHAPE3D
Na "discret/resistor.wrl"
Sc 0.450000 0.450000 0.450000
Of 0.000000 0.000000 0.000000
Ro 0.000000 0.000000 0.000000
$EndSHAPE3D
$EndMODULE  R4-5
$MODULE C2V10
Po 0 0 0 15 41854742 00000000 ~~
Li C2V10
Cd Condensateur polarise
Kw CP
Sc 00000000
Op 0 0 0
T0 0 1000 500 500 0 100 N V 21 "C2V10"
T1 0 -1000 500 500 0 100 N V 21 "C***"
DC 0 0 1900 -1100 120 21
$PAD
Sh "1" R 700 700 0 0 0
Dr 400 0 0
At STD N 00E0FFFF
Ne 0 ""
Po -1000 0
$EndPAD
$PAD
Sh "2" C 700 700 0 0 0
Dr 400 0 0
At STD N 00E0FFFF
Ne 0 ""
Po 1000 0
$EndPAD
$SHAPE3D
Na "discret/c_vert_c2v10.wrl"
Sc 1.000000 1.000000 1.000000
Of 0.000000 0.000000 0.000000
Ro 0.000000 0.000000 0.000000
$EndSHAPE3D
$EndMODULE  C2V10
$MODULE C1.5V8H
Po 0 0 0 15 41AF2D97 00000000 ~~
Li C1.5V8H
Sc 00000000
Op 0 0 0
T0 150 2750 400 400 0 80 N V 21 "C1.5V8H"
T1 50 4600 400 400 0 80 N V 21 "VAL**"
T2 750 1450 600 600 0 120 N V 21 "+"
DS -1600 6000 1600 6000 150 21
DS 1600 1000 -1600 1000 150 21
DS -1600 1000 -1600 6000 150 21
DS 1600 1000 1600 6000 150 21
DS -750 0 -750 1000 150 21
DS 750 0 750 1000 150 21
$PAD
Sh "1" R 650 650 0 0 0
Dr 320 0 0
At STD N 00E0FFFF
Ne 0 ""
Po 750 0
$EndPAD
$PAD
Sh "2" C 650 650 0 0 0
Dr 320 0 0
At STD N 00E0FFFF
Ne 0 ""
Po -750 0
$EndPAD
$SHAPE3D
Na "discret/c_horiz_c1v7.wrl"
Sc 1.500000 1.500000 1.500000
Of 0.000000 0.000000 0.000000
Ro 0.000000 0.000000 0.000000
$EndSHAPE3D
$EndMODULE  C1.5V8H
$MODULE HC-18UV
Po 0 0 0 15 42899E71 00000000 ~~
Li HC-18UV
Cd Quartz boitier HC-18U vertical
Kw QUARTZ DEV
Sc 00000000
Op 0 A 0
T0 -50 -700 450 500 0 60 N V 21 "X***"
T1 0 650 450 500 0 60 N V 21 "HC-18UV"
DS -2750 -500 -2250 -1000 60 21
DS 2250 -1000 2750 -500 60 21
DS 2750 500 2250 1000 60 21
DS -2750 500 -2250 1000 60 21
DS -2250 -1000 2250 -1000 60 21
DS -2750 -500 -2750 500 60 21
DS -2250 1000 2250 1000 60 21
DS 2750 500 2750 -500 60 21
$PAD
Sh "1" C 700 700 0 0 0
Dr 320 0 0
At STD N 00E0FFFF
Ne 0 ""
Po -1000 0
$EndPAD
$PAD
Sh "2" C 700 700 0 0 0
Dr 320 0 0
At STD N 00E0FFFF
Ne 0 ""
Po 1000 0
$EndPAD
$SHAPE3D
Na "discret/crystal_hc18u_vertical.wrl"
Sc 1.000000 1.000000 1.000000
Of 0.000000 0.000000 0.000000
Ro 0.000000 0.000000 0.000000
$EndSHAPE3D
$EndMODULE  HC-18UV
$MODULE TO220_VERT
Po 0 0 0 15 43A66C96 00000000 ~~
Li TO220_VERT
Cd Regulateur TO220 serie LM78xx
Kw TR TO220
Sc 00000000
Op 0 0 0
T0 -1250 0 600 400 900 80 N V 21 "TO220_VERT"
T1 250 -2500 600 400 0 80 N V 21 "VAL**"
DS 750 -2000 1000 -2000 150 21
DS 1000 -2000 1000 2000 150 21
DS 1000 2000 750 2000 150 21
DS -750 -2000 750 -2000 150 21
DS 750 -2000 750 2000 150 21
DS 750 2000 -750 2000 150 21
DS -750 2000 -750 -2000 150 21
$PAD
Sh "2" C 700 700 0 0 0
Dr 400 0 0
At STD N 00E0FFFF
Ne 0 ""
Po 0 -1000
$EndPAD
$PAD
Sh "3" C 700 700 0 0 0
Dr 400 0 0
At STD N 00E0FFFF
Ne 0 ""
Po 0 0
$EndPAD
$PAD
Sh "1" R 700 700 0 0 0
Dr 400 0 0
At STD N 00E0FFFF
Ne 0 ""
Po 0 1000
$EndPAD
$SHAPE3D
Na "discret/to220_vert.wrl"
Sc 1.000000 1.000000 1.000000
Of 0.000000 0.000000 0.000000
Ro 0.000000 0.000000 0.000000
$EndSHAPE3D
$EndMODULE  TO220_VERT
$MODULE INDUCTOR_V
Po 0 0 0 15 443CBA90 00000000 ~~
Li INDUCTOR_V
Cd Inductor (vertical)
Kw INDUCTOR
Sc 00000000
Op 0 0 0
T0 200 800 600 600 0 80 N V 21 "L**"
T1 100 -800 500 500 0 80 N V 21 "Val***"
DC 0 0 1500 0 150 21
$PAD
Sh "1" R 750 750 0 0 0
Dr 320 0 0
At STD N 00E0FFFF
Ne 1 "N-000007"
Po -1000 0
$EndPAD
$PAD
Sh "2" C 750 750 0 0 0
Dr 320 0 0
At STD N 00E0FFFF
Ne 2 "VCC"
Po 1000 0
$EndPAD
$SHAPE3D
Na "discret/inductorV.wrl"
Sc 2.000000 2.000000 2.000000
Of 0.000000 0.000000 0.000000
Ro 0.000000 0.000000 0.000000
$EndSHAPE3D
$EndMODULE  INDUCTOR_V
$MODULE TO92
Po 0 0 0 15 443CFFD1 00000000 ~~
Li TO92
Cd Transistor TO92 brochage type BC237
Kw TR TO92
Sc 00000000
Op 0 0 0
T0 -500 1500 400 400 0 80 N V 21 "TO92"
T1 -500 -2000 400 400 0 80 N V 21 "VAL**"
DS -500 1000 1000 -500 120 21
DS 1000 -500 1000 -1000 120 21
DS 1000 -1000 500 -1500 120 21
DS 500 -1500 -500 -1500 120 21
DS -500 -1500 -1500 -500 120 21
DS -1500 -500 -1500 500 120 21
DS -1500 500 -1000 1000 120 21
DS -1000 1000 -500 1000 120 21
$PAD
Sh "1" R 550 550 0 0 0
Dr 320 0 0
At STD N 00E0FFFF
Ne 0 ""
Po 500 -500
$EndPAD
$PAD
Sh "2" C 550 550 0 0 0
Dr 320 0 0
At STD N 00E0FFFF
Ne 0 ""
Po -500 -500
$EndPAD
$PAD
Sh "3" C 550 550 0 0 0
Dr 320 0 0
At STD N 00E0FFFF
Ne 0 ""
Po -500 500
$EndPAD
$SHAPE3D
Na "discret/to98.wrl"
Sc 1.000000 1.000000 1.000000
Of 0.000000 0.000000 0.000000
Ro 0.000000 0.000000 0.000000
$EndSHAPE3D
$EndMODULE  TO92
$MODULE TO92-INVERT
Po 0 0 0 15 443CFFF4 00000000 ~~
Li TO92-INVERT
Cd Transistor TO92 brochage type BC237
Kw TR TO92
Sc 00000000
Op 0 0 0
T0 -500 1500 400 400 0 80 N V 21 "TO92-INVERT"
T1 -500 -2000 400 400 0 80 N V 21 "VAL**"
DS -500 1000 1000 -500 120 21
DS 1000 -500 1000 -1000 120 21
DS 1000 -1000 500 -1500 120 21
DS 500 -1500 -500 -1500 120 21
DS -500 -1500 -1500 -500 120 21
DS -1500 -500 -1500 500 120 21
DS -1500 500 -1000 1000 120 21
DS -1000 1000 -500 1000 120 21
$PAD
Sh "1" R 550 550 0 0 0
Dr 320 0 0
At STD N 00E0FFFF
Ne 0 ""
Po -500 500
$EndPAD
$PAD
Sh "2" C 550 550 0 0 0
Dr 320 0 0
At STD N 00E0FFFF
Ne 0 ""
Po -500 -500
$EndPAD
$PAD
Sh "3" C 550 550 0 0 0
Dr 320 0 0
At STD N 00E0FFFF
Ne 0 ""
Po 500 -500
$EndPAD
$SHAPE3D
Na "discret/to98.wrl"
Sc 1.000000 1.000000 1.000000
Of 0.000000 0.000000 0.000000
Ro 0.000000 0.000000 0.000000
$EndSHAPE3D
$EndMODULE  TO92-INVERT
$MODULE PUSH_BUTT_SHAPE1
Po 0 0 0 15 440C0DAE 00000000 ~~
Li PUSH_BUTT_SHAPE1
Sc 00000000
Op 0 0 0
T0 0 0 394 394 0 39 N V 21 "PUSH_BUTT_SHAPE1"
T1 0 -1791 500 500 0 80 N V 21 "VAL**"
DC 0 0 1024 2303 150 21
DS 1024 2303 -1024 2303 150 21
$PAD
Sh "1" C 787 787 0 0 0
Dr 200 0 0
At STD N 00E0FFFF
Ne 0 ""
Po -984 -984
$EndPAD
$PAD
Sh "2" C 787 787 0 0 0
Dr 200 0 0
At STD N 00E0FFFF
Ne 0 ""
Po 984 -984
$EndPAD
$PAD
Sh "4" C 787 787 0 0 0
Dr 200 0 0
At STD N 00E0FFFF
Ne 0 ""
Po 984 984
$EndPAD
$PAD
Sh "3" C 787 787 0 0 0
Dr 200 0 0
At STD N 00E0FFFF
Ne 0 ""
Po -984 984
$EndPAD
$SHAPE3D
Na "discret/push_butt_shape1_blue.wrl"
Sc 1.000000 1.000000 1.000000
Of 0.000000 0.000000 0.000000
Ro 0.000000 0.000000 0.000000
$EndSHAPE3D
$EndMODULE  PUSH_BUTT_SHAPE1
$MODULE TO92GSD
Po 0 0 0 15 4469CFB5 00000000 ~~
Li TO92GSD
Cd Transistor TO92 brochage type BC237
Kw TR TO92
Sc 00000000
Op 0 0 0
T0 -500 1500 400 400 0 80 N V 21 "TO92GSD"
T1 -500 -2000 400 400 0 80 N V 21 "VAL**"
DS -500 1000 1000 -500 120 21
DS 1000 -500 1000 -1000 120 21
DS 1000 -1000 500 -1500 120 21
DS 500 -1500 -500 -1500 120 21
DS -500 -1500 -1500 -500 120 21
DS -1500 -500 -1500 500 120 21
DS -1500 500 -1000 1000 120 21
DS -1000 1000 -500 1000 120 21
$PAD
Sh "G" C 550 550 0 0 0
Dr 320 0 0
At STD N 00E0FFFF
Ne 0 ""
Po 500 -500
$EndPAD
$PAD
Sh "S" R 550 550 0 0 0
Dr 320 0 0
At STD N 00E0FFFF
Ne 0 ""
Po -500 -500
$EndPAD
$PAD
Sh "D" C 550 550 0 0 0
Dr 320 0 0
At STD N 00E0FFFF
Ne 0 ""
Po -500 500
$EndPAD
$SHAPE3D
Na "discret/to98.wrl"
Sc 1.000000 1.000000 1.000000
Of 0.000000 0.000000 0.000000
Ro 0.000000 0.000000 0.000000
$EndSHAPE3D
$EndMODULE  TO92GSD
$MODULE TO92DGS
Po 0 0 0 15 4469CFF0 00000000 ~~
Li TO92DGS
Cd Transistor TO92 brochage type BC237
Kw TR TO92
Sc 00000000
Op 0 0 0
T0 -500 1500 400 400 0 80 N V 21 "TO92DGS"
T1 -500 -2000 400 400 0 80 N V 21 "VAL**"
DS -500 1000 1000 -500 120 21
DS 1000 -500 1000 -1000 120 21
DS 1000 -1000 500 -1500 120 21
DS 500 -1500 -500 -1500 120 21
DS -500 -1500 -1500 -500 120 21
DS -1500 -500 -1500 500 120 21
DS -1500 500 -1000 1000 120 21
DS -1000 1000 -500 1000 120 21
$PAD
Sh "D" R 550 550 0 0 0
Dr 320 0 0
At STD N 00E0FFFF
Ne 0 ""
Po 500 -500
$EndPAD
$PAD
Sh "G" C 550 550 0 0 0
Dr 320 0 0
At STD N 00E0FFFF
Ne 0 ""
Po -500 -500
$EndPAD
$PAD
Sh "S" C 550 550 0 0 0
Dr 320 0 0
At STD N 00E0FFFF
Ne 0 ""
Po -500 500
$EndPAD
$SHAPE3D
Na "discret/to98.wrl"
Sc 1.000000 1.000000 1.000000
Of 0.000000 0.000000 0.000000
Ro 0.000000 0.000000 0.000000
$EndSHAPE3D
$EndMODULE  TO92DGS
$MODULE TO220GDS
Po 0 0 0 15 4469D051 00000000 ~~
Li TO220GDS
Cd Transistor VMOS Irf530, TO220
Kw TR TO220 DEV
Sc 00000000
Op 0 0 0
T0 2750 0 600 400 900 80 N V 21 "TO220GDS"
T1 4250 0 600 400 900 80 N V 21 "VAL*"
DS 0 -1000 2000 -1000 120 21
DS 0 0 2000 0 120 21
DS 0 1000 2000 1000 120 21
DS 2000 -2000 8000 -2000 120 21
DS 8000 -2000 8000 2000 120 21
DS 8000 2000 2000 2000 120 21
DS 2000 2000 2000 -2000 120 21
DS 5000 2000 5000 -2000 120 21
$PAD
Sh "4" R 3500 3500 0 0 0
Dr 1200 0 0
At STD N 00F0FFFF
Ne 0 ""
Po 6500 0
$EndPAD
$PAD
Sh "G" C 700 700 0 0 0
Dr 450 0 0
At STD N 00E0FFFF
Ne 0 ""
Po 0 -1000
$EndPAD
$PAD
Sh "D" C 700 700 0 0 0
Dr 450 0 0
At STD N 00E0FFFF
Ne 0 ""
Po 0 0
$EndPAD
$PAD
Sh "S" R 700 700 0 0 0
Dr 450 0 0
At STD N 00E0FFFF
Ne 0 ""
Po 0 1000
$EndPAD
$SHAPE3D
Na "discret/to220_horiz.wrl"
Sc 1.000000 1.000000 1.000000
Of 0.000000 0.000000 0.000000
Ro 0.000000 0.000000 0.000000
$EndSHAPE3D
$EndMODULE  TO220GDS
$MODULE TO39EBC
Po 0 0 0 15 4469D53B 00000000 ~~
Li TO39EBC
Cd Transistor TO38
Kw TO38
Sc 00000000
Op 0 0 0
T0 -100 2200 450 400 0 80 N V 21 "TO39EBC"
T1 0 -700 450 400 0 80 N V 21 "Val**"
DC 0 0 1250 1350 120 21
DS -1500 -1050 -2000 -1550 120 21
DS -1050 -1500 -1550 -2000 120 21
DS -1550 -2000 -2000 -1550 120 21
$PAD
Sh "3" C 650 650 0 0 0
Dr 310 0 0
At STD N 00E0FFFF
Ne 0 ""
Po 1000 0
$EndPAD
$PAD
Sh "2" C 650 650 0 0 0
Dr 310 0 0
At STD N 00E0FFFF
Ne 0 ""
Po 0 1000
$EndPAD
$PAD
Sh "1" R 650 650 0 0 0
Dr 310 0 0
At STD N 00E0FFFF
Ne 0 ""
Po -1000 0
$EndPAD
$SHAPE3D
Na "discret/to5.wrl"
Sc 1.000000 1.000000 1.000000
Of 0.000000 0.000000 0.000000
Ro 0.000000 0.000000 0.000000
$EndSHAPE3D
$EndMODULE  TO39EBC
$MODULE SW_SPDT
Po 0 0 0 15 4480057B 00000000 ~~
Li SW_SPDT
Cd Switch inverseur
Kw SWITCH DEV
Sc 00000000
Op 0 0 0
T0 3550 950 400 400 1800 80 N V 21 "SW_SPDT"
T1 3500 -900 400 400 1800 80 N V 21 "SW*"
DS -500 -2250 -500 -2000 120 21
DS -500 -2000 -500 -1750 120 21
DS -500 -1750 1000 -1750 120 21
DS -500 -2250 1000 -2250 120 21
DS 1000 -250 -500 -250 120 21
DS -500 -250 -500 250 120 21
DS -500 250 1000 250 120 21
DS 1000 1750 -500 1750 120 21
DS -500 1750 -500 2250 120 21
DS -500 2250 1000 2250 120 21
DS 1000 -2500 1000 2500 120 21
DS 1000 2500 6000 2500 120 21
DS 6000 2500 6000 -2500 120 21
DS 6000 -2500 1000 -2500 120 21
DS 6000 -1250 9000 -1250 120 21
DS 9000 -1250 9000 1250 120 21
DS 9000 1250 6000 1250 120 21
DS 9000 -500 13000 -1250 120 21
DS 13000 -1250 13250 -1250 120 21
DS 13250 -1250 13500 -1000 120 21
DS 13500 -1000 13500 -750 120 21
DS 13500 -750 13500 -500 120 21
DS 13500 -500 13250 -250 120 21
DS 13250 -250 9000 500 120 21
$PAD
Sh "2" R 1500 1000 0 0 0
Dr 500 0 0
At STD N 00E0FFFF
Ne 0 ""
Po 0 0
$EndPAD
$PAD
Sh "1" R 1500 1000 0 0 0
Dr 500 0 0
At STD N 00E0FFFF
Ne 0 ""
Po 0 -2000
$EndPAD
$PAD
Sh "3" R 1500 1000 0 0 0
Dr 500 0 0
At STD N 00E0FFFF
Ne 0 ""
Po 0 2000
$EndPAD
$PAD
Sh "H1" C 1000 1000 0 0 0
Dr 500 0 0
At STD N 00E0FFFF
Ne 0 ""
Po 7500 -1500
$EndPAD
$PAD
Sh "H2" C 1000 1000 0 0 0
Dr 500 0 0
At STD N 00E0FFFF
Ne 0 ""
Po 7500 1500
$EndPAD
$EndMODULE  SW_SPDT
$MODULE TO92H
Po 0 0 0 15 45128CBD 00000000 ~~
Li TO92H
Sc 00000000
Op 0 0 0
T0 2000 -500 500 300 0 60 N V 21 "TO92H"
T1 2000 500 500 300 0 60 N V 21 "VAL***"
DS 1000 -1000 3000 -1000 120 21
DS 3000 -1000 3000 1000 120 21
DS 3000 1000 1000 1000 120 21
DS 1000 1000 1000 -1000 120 21
DS 500 -500 1000 -500 120 21
DS -500 0 1000 0 120 21
DS 500 500 1000 500 120 21
$PAD
Sh "2" C 500 500 0 0 0
Dr 320 0 0
At STD N 00E0FFFF
Ne 0 ""
Po -500 0
$EndPAD
$PAD
Sh "1" C 500 500 0 0 0
Dr 320 0 0
At STD N 00E0FFFF
Ne 0 ""
Po 500 500
$EndPAD
$PAD
Sh "3" C 500 500 0 0 0
Dr 320 0 0
At STD N 00E0FFFF
Ne 0 ""
Po 500 -500
$EndPAD
$EndMODULE  TO92H
$MODULE TO92_INVERT_H
Po 0 0 0 15 45128CE6 00000000 ~~
Li TO92_INVERT_H
Sc 00000000
Op 0 0 0
T0 2000 -500 500 300 0 60 N V 21 "TO92_INVERT_H"
T1 2000 500 500 300 0 60 N V 21 "VAL***"
DS 1000 -1000 3000 -1000 120 21
DS 3000 -1000 3000 1000 120 21
DS 3000 1000 1000 1000 120 21
DS 1000 1000 1000 -1000 120 21
DS 500 -500 1000 -500 120 21
DS -500 0 1000 0 120 21
DS 500 500 1000 500 120 21
$PAD
Sh "2" C 500 500 0 0 0
Dr 320 0 0
At STD N 00E0FFFF
Ne 0 ""
Po -500 0
$EndPAD
$PAD
Sh "3" C 500 500 0 0 0
Dr 320 0 0
At STD N 00E0FFFF
Ne 0 ""
Po 500 500
$EndPAD
$PAD
Sh "1" C 500 500 0 0 0
Dr 320 0 0
At STD N 00E0FFFF
Ne 0 ""
Po 500 -500
$EndPAD
$EndMODULE  TO92_INVERT_H
$MODULE CR1220
Po 0 0 0 15 45129998 00000000 ~~
Li CR1220
Sc 00000000
Op 0 0 0
T0 2700 0 600 400 900 80 N V 21 "CR1220"
T1 900 0 500 400 900 80 N I 21 "VAL**"
DS -2500 1000 -1050 1000 80 21
DS -2500 -1000 -1050 -1000 80 21
DS -2500 1000 -3000 500 80 21
DS -3000 500 -3000 -500 80 21
DS -3000 -500 -2500 -1000 80 21
DS 3150 -1700 3750 -2200 80 21
DS 3150 1700 3750 2200 80 21
DC 1750 0 -450 0 80 21
DC 1750 0 -1050 1000 80 21
$PAD
Sh "1" C 1400 1400 0 0 0
Dr 1000 0 0
At STD N 00E0FFFF
Ne 2 "N-000135"
Po -2000 0
$EndPAD
$PAD
Sh "2" C 1000 1000 0 0 0
Dr 400 0 0
At STD N 00E0FFFF
Ne 1 "GND"
Po 1750 0
$EndPAD
$PAD
Sh "" C 850 850 0 0 0
Dr 800 0 0
At STD N 00E0FFFF
Ne 0 ""
Po 1750 2000
$EndPAD
$PAD
Sh "" C 850 850 0 0 0
Dr 800 0 0
At STD N 00E0FFFF
Ne 0 ""
Po 3500 -1000
$EndPAD
$PAD
Sh "" C 850 850 0 0 0
Dr 800 0 0
At STD N 00E0FFFF
Ne 0 ""
Po 0 -1000
$EndPAD
$EndMODULE  CR1220
$MODULE C1.5V8V
Po 0 0 0 15 4512B232 00000000 ~~
Li C1.5V8V
Sc 00000000
Op 0 0 0
T0 0 900 400 400 0 80 N V 21 "C1.5V8V"
T1 0 -900 400 400 0 80 N V 21 "V***"
T2 -1350 -50 600 600 0 120 N V 21 "+"
DC 0 0 0 1750 150 21
$PAD
Sh "1" R 550 550 0 0 0
Dr 320 0 0
At STD N 00E0FFFF
Ne 0 ""
Po -750 0
$EndPAD
$PAD
Sh "2" C 550 550 0 0 0
Dr 320 0 0
At STD N 00E0FFFF
Ne 0 ""
Po 750 0
$EndPAD
$SHAPE3D
Na "discret/c_vert_c1v8.wrl"
Sc 1.500000 1.500000 1.000000
Of 0.000000 0.000000 0.000000
Ro 0.000000 0.000000 0.000000
$EndSHAPE3D
$EndMODULE  C1.5V8V
$MODULE SUPER_CAP
Po 0 0 0 15 4512B411 00000000 ~~
Li SUPER_CAP
Sc 00000000
Op 0 0 0
T0 200 -1400 600 400 0 80 N V 21 "SUPER_CAP"
T1 0 1400 600 400 0 80 N V 21 "VAL**"
T2 1750 -700 600 600 0 80 N V 21 "+"
DC 0 0 0 -2200 150 21
DS -2500 750 0 750 150 21
DS 0 750 500 250 150 21
DS 500 250 500 -250 150 21
DS 500 -250 0 -750 150 21
DS 0 -750 -2500 -750 150 21
DS -2500 -750 -2500 750 150 21
DS -2250 0 -2500 0 120 21
$PAD
Sh "2" C 750 750 0 0 0
Dr 470 0 0
At STD N 00E0FFFF
Ne 5 "GND"
Po -2500 0
$EndPAD
$PAD
Sh "1" C 750 750 0 0 0
Dr 470 0 0
At STD N 00E0FFFF
Ne 43 "N-000301"
Po 1500 0
$EndPAD
$EndMODULE  SUPER_CAP
$MODULE EMI_FILTER
Po 0 0 0 15 4512C014 00000000 ~~
Li EMI_FILTER
Sc 00000000
Op 0 0 0
T0 0 0 600 350 0 60 N V 21 "EMI_FILTER"
T1 0 0 500 350 0 60 N I 21 "Val**"
DS 1600 500 1600 -500 80 21
DS -1600 500 -1600 -500 80 21
DS 1600 500 -1600 500 80 21
DS -1600 -500 1600 -500 80 21
$PAD
Sh "VI" R 500 1000 0 0 0
Dr 0 0 0
At SMD N 00888000
Ne 0 ""
Po -1350 0
$EndPAD
$PAD
Sh "GND" R 1000 1000 0 0 0
Dr 0 0 0
At SMD N 00888000
Ne 0 ""
Po 0 0
$EndPAD
$PAD
Sh "VO" R 500 1000 0 0 0
Dr 0 0 0
At SMD N 00888000
Ne 0 ""
Po 1350 0
$EndPAD
$SHAPE3D
Na "discret/emi_filter.wrl"
Sc 0.400000 0.400000 0.400000
Of 0.000000 0.000000 0.000000
Ro 0.000000 0.000000 0.000000
$EndSHAPE3D
$EndMODULE  EMI_FILTER
$MODULE D6.5
Po 0 0 0 15 451BB076 00000000 ~~
Li D6.5
Sc 00000000
Op 0 0 0
T0 0 -500 600 500 0 80 N V 21 "D6.5"
T1 0 500 600 500 0 80 N V 21 "VAL***"
DS 2750 1250 -2500 1250 120 21
DS -2500 1250 -2500 -1250 120 21
DS -2500 -1250 2750 -1250 120 21
DS -3500 0 -2500 0 120 21
DS 2750 1250 2750 -1250 120 21
DS 2500 -1250 2500 1250 120 21
DS 2250 1250 2250 -1250 120 21
DS 2750 0 3500 0 120 21
$PAD
Sh "1" C 850 850 0 0 0
Dr 550 0 0
At STD N 00E0FFFF
Ne 1 "GND"
Po -3500 0
$EndPAD
$PAD
Sh "2" R 850 850 0 0 0
Dr 550 0 0
At STD N 00E0FFFF
Ne 6 "+BATT_1"
Po 3500 0
$EndPAD
$SHAPE3D
Na "discret/diode.wrl"
Sc 0.700000 0.700000 0.700000
Of 0.000000 0.000000 0.000000
Ro 0.000000 0.000000 0.000000
$EndSHAPE3D
$EndMODULE  D6.5
$MODULE QMONTRE
Po 0 0 0 15 451BB194 00000000 ~~
Li QMONTRE
Sc 00000000
Op 0 0 0
T0 -350 2350 500 400 900 60 N V 21 "QMONTRE"
T1 350 2400 500 300 900 60 N I 21 "VAL***"
DS -750 750 750 750 80 21
DS 750 750 750 4000 80 21
DS 750 4000 -750 4000 80 21
DS -750 4000 -750 750 80 21
DS -500 0 -500 750 80 21
DS 500 0 500 750 80 21
$PAD
Sh "1" C 500 500 0 0 0
Dr 320 0 0
At STD N 00E0FFFF
Ne 3 "N-000130"
Po -500 0
$EndPAD
$PAD
Sh "2" C 500 500 0 0 0
Dr 320 0 0
At STD N 00E0FFFF
Ne 4 "N-000129"
Po 500 0
$EndPAD
$SHAPE3D
Na "discret/qmontre.wrl"
Sc 1.000000 1.000000 1.000000
Of 0.000000 0.000000 0.000000
Ro 0.000000 0.000000 0.000000
$EndSHAPE3D
$EndMODULE  QMONTRE
$MODULE C2V8
Po 0 0 0 15 46544AA3 00000000 ~~
Li C2V8
Cd Condensateur polarise
Kw CP
Sc 00000000
Op 0 0 0
T0 0 1000 400 400 0 80 N V 21 "C2V8"
T1 0 -1000 400 400 0 80 N V 21 "C***"
DC 0 0 -1750 0 120 21
$PAD
Sh "1" R 700 700 0 0 0
Dr 400 0 0
At STD N 00E0FFFF
Ne 0 ""
Po -1000 0
$EndPAD
$PAD
Sh "2" C 700 700 0 0 0
Dr 400 0 0
At STD N 00E0FFFF
Ne 0 ""
Po 1000 0
$EndPAD
$SHAPE3D
Na "discret/c_vert_c2v10.wrl"
Sc 1.000000 1.000000 1.000000
Of 0.000000 0.000000 0.000000
Ro 0.000000 0.000000 0.000000
$EndSHAPE3D
$EndMODULE  C2V8
$MODULE SW_PUSH_SMALL
Po 0 0 0 15 46544DB3 00000000 ~~
Li SW_PUSH_SMALL
Sc 00000000
Op 0 0 0
T0 0 -300 400 400 0 80 N V 21 "SW_PUSH_SMALL"
T1 0 400 400 400 0 80 N V 21 "Val**"
DC 0 0 0 -1000 50 21
DS -1500 -1500 1500 -1500 50 21
DS 1500 -1500 1500 1500 50 21
DS 1500 1500 -1500 1500 50 21
DS -1500 -1500 -1500 1500 50 21
$PAD
Sh "1" C 550 550 0 0 0
Dr 320 0 0
At STD N 00E0FFFF
Ne 0 ""
Po 1500 -1000
$EndPAD
$PAD
Sh "2" C 550 550 0 0 0
Dr 320 0 0
At STD N 00E0FFFF
Ne 0 ""
Po 1500 1000
$EndPAD
$PAD
Sh "1" C 550 550 0 0 0
Dr 320 0 0
At STD N 00E0FFFF
Ne 0 ""
Po -1500 -1000
$EndPAD
$PAD
Sh "2" C 550 550 0 0 0
Dr 320 0 0
At STD N 00E0FFFF
Ne 0 ""
Po -1500 1000
$EndPAD
$EndMODULE  SW_PUSH_SMALL
$MODULE TO92-EBC
Po 0 0 0 15 4718C1A9 00000000 ~~
Li TO92-EBC
Cd Transistor TO92 brochage type BC237
Kw TR TO92
Sc 00000000
Op 0 0 0
T0 850 550 400 400 0 80 N V 21 "TO92-EBC"
T1 -200 -1250 400 400 0 80 N V 21 "VAL**"
DS -500 1000 1000 -500 120 21
DS 1000 -500 1000 -1000 120 21
DS 1000 -1000 500 -1500 120 21
DS 500 -1500 -500 -1500 120 21
DS -500 -1500 -1500 -500 120 21
DS -1500 -500 -1500 500 120 21
DS -1500 500 -1000 1000 120 21
DS -1000 1000 -500 1000 120 21
$PAD
Sh "E" R 550 550 0 0 0
Dr 320 0 0
At STD N 00E0FFFF
Ne 0 ""
Po 500 -500
$EndPAD
$PAD
Sh "B" C 550 550 0 0 0
Dr 320 0 0
At STD N 00E0FFFF
Ne 0 ""
Po -500 -500
$EndPAD
$PAD
Sh "C" C 550 550 0 0 0
Dr 320 0 0
At STD N 00E0FFFF
Ne 0 ""
Po -500 500
$EndPAD
$SHAPE3D
Na "discret/to98.wrl"
Sc 1.000000 1.000000 1.000000
Of 0.000000 0.000000 0.000000
Ro 0.000000 0.000000 0.000000
$EndSHAPE3D
$EndMODULE  TO92-EBC
$MODULE TO92-CBE
Po 0 0 0 15 4718C200 00000000 ~~
Li TO92-CBE
Cd Transistor TO92 brochage type BC237
Kw TR TO92
Sc 00000000
Op 0 0 0
T0 300 250 400 400 0 80 N V 21 "TO92-CBE"
T1 100 -1200 400 400 0 80 N V 21 "VAL**"
DS -500 1000 1000 -500 120 21
DS 1000 -500 1000 -1000 120 21
DS 1000 -1000 500 -1500 120 21
DS 500 -1500 -500 -1500 120 21
DS -500 -1500 -1500 -500 120 21
DS -1500 -500 -1500 500 120 21
DS -1500 500 -1000 1000 120 21
DS -1000 1000 -500 1000 120 21
$PAD
Sh "E" R 550 550 0 0 0
Dr 320 0 0
At STD N 00E0FFFF
Ne 0 ""
Po -500 500
$EndPAD
$PAD
Sh "B" C 550 550 0 0 0
Dr 320 0 0
At STD N 00E0FFFF
Ne 0 ""
Po -500 -500
$EndPAD
$PAD
Sh "C" C 550 550 0 0 0
Dr 320 0 0
At STD N 00E0FFFF
Ne 0 ""
Po 500 -500
$EndPAD
$SHAPE3D
Na "discret/to98.wrl"
Sc 1.000000 1.000000 1.000000
Of 0.000000 0.000000 0.000000
Ro 0.000000 0.000000 0.000000
$EndSHAPE3D
$EndMODULE  TO92-CBE
$MODULE R4-LARGE_PADS
Po 0 0 0 15 47E2673E 00000000 ~~
Li R4-LARGE_PADS
Cd Resitance 4 pas
Kw R
Sc 00000000
AR
Op 0 A 0
T0 0 0 550 500 0 80 N V 21 "R4-LARGE_PADS"
T1 0 0 550 500 0 80 N I 21 "Val*"
DS -2000 0 -1600 0 120 21
DS -1600 0 -1600 -400 120 21
DS -1600 -400 1600 -400 120 21
DS 1600 -400 1600 400 120 21
DS 1600 400 -1600 400 120 21
DS -1600 400 -1600 0 120 21
DS -1600 -200 -1400 -400 120 21
DS 2000 0 1600 0 120 21
$PAD
Sh "1" C 700 700 0 0 0
Dr 320 0 0
At STD N 00E0FFFF
Ne 0 ""
Po -2000 0
$EndPAD
$PAD
Sh "2" C 700 700 0 0 0
Dr 320 0 0
At STD N 00E0FFFF
Ne 0 ""
Po 2000 0
$EndPAD
$SHAPE3D
Na "discret/resistor.wrl"
Sc 0.400000 0.400000 0.400000
Of 0.000000 0.000000 0.000000
Ro 0.000000 0.000000 0.000000
$EndSHAPE3D
$EndMODULE  R4-LARGE_PADS
$MODULE R3-LARGE_PADS
Po 0 0 0 15 47E26765 00000000 ~~
Li R3-LARGE_PADS
Cd Resitance 3 pas
Kw R
Sc 00000000
AR
Op 0 A 0
T0 0 0 550 500 0 80 N V 21 "R3-LARGE_PADS"
T1 0 0 550 500 0 80 N I 21 "Val*"
DS -1500 0 -1300 0 120 21
DS 1500 0 1300 0 120 21
DS 1300 0 1300 -400 120 21
DS 1300 -400 -1300 -400 120 21
DS -1300 -400 -1300 400 120 21
DS -1300 400 1300 400 120 21
DS 1300 400 1300 0 120 21
DS -1300 -200 -1100 -400 120 21
$PAD
Sh "1" C 650 650 0 0 0
Dr 320 0 0
At STD N 00E0FFFF
Ne 0 ""
Po -1500 0
$EndPAD
$PAD
Sh "2" C 650 650 0 0 0
Dr 320 0 0
At STD N 00E0FFFF
Ne 0 ""
Po 1500 0
$EndPAD
$SHAPE3D
Na "discret/resistor.wrl"
Sc 0.300000 0.300000 0.300000
Of 0.000000 0.000000 0.000000
Ro 0.000000 0.000000 0.000000
$EndSHAPE3D
$EndMODULE  R3-LARGE_PADS
$MODULE C1V5H
Po 0 0 0 15 47FF7B42 00000000 ~~
Li C1V5H
Cd Condensateur e = 1 pas
Kw C
Sc 00000000
AR
Op 0 0 0
T0 -500 3000 350 350 900 50 N V 21 "C1V5H"
T1 500 3000 350 350 900 50 N V 21 "C***"
DS -1200 5000 1200 5000 150 21
DS -1200 500 1200 500 150 21
DS -1200 5000 -1200 500 150 21
DS 1200 500 1200 5000 150 21
DS -500 0 -500 500 150 21
DS 500 0 500 500 150 21
T2 -500 1000 300 300 0 80 N V 21 "+"
$PAD
Sh "1" R 550 550 0 0 0
Dr 320 0 0
At STD N 00E0FFFF
Ne 0 ""
Po -500 0
$EndPAD
$PAD
Sh "2" C 550 550 0 0 0
Dr 320 0 0
At STD N 00E0FFFF
Ne 0 ""
Po 500 0
$EndPAD
$SHAPE3D
Na "discret/c_horiz_c1v5.wrl"
Sc 1.000000 1.000000 1.000000
Of 0.000000 0.000000 0.000000
Ro 0.000000 0.000000 0.000000
$EndSHAPE3D
$EndMODULE  C1V5H
$MODULE microswitch_Nikkai
Po 0 0 0 15 48074635 00000000 ~~
Li microswitch_Nikkai
Cd Switch Nikkai ref G12JPC
Kw SWITCH DEV
Sc 00000000
AR
Op 0 0 0
T0 0 1300 400 400 0 60 N V 21 "MICROSWITCH"
T1 100 -1300 400 400 0 60 N I 21 "Val**"
DC -500 0 -700 0 80 21
DS 0 200 -500 200 80 21
DS -500 -200 0 -200 80 21
DA 0 0 0 -200 900 80 21
DA 0 0 200 0 900 80 21
DC 0 0 -300 -700 80 21
DS 1500 -900 1500 900 80 21
DS -1500 -900 -1500 900 80 21
DS -1500 -900 1500 -900 80 21
DS 1500 900 -1500 900 80 21
$PAD
Sh "1" R 600 600 0 0 0
Dr 320 0 0
At STD N 00E0FFFF
Ne 0 ""
Po -1000 500
$EndPAD
$PAD
Sh "2" C 600 600 0 0 0
Dr 320 0 0
At STD N 00E0FFFF
Ne 0 ""
Po 0 500
$EndPAD
$PAD
Sh "3" C 600 600 0 0 0
Dr 320 0 0
At STD N 00E0FFFF
Ne 0 ""
Po 1000 500
$EndPAD
$PAD
Sh "4" C 600 600 0 0 0
Dr 320 0 0
At STD N 00E0FFFF
Ne 0 ""
Po 1000 -500
$EndPAD
$PAD
Sh "5" C 600 600 0 0 0
Dr 320 0 0
At STD N 00E0FFFF
Ne 0 ""
Po 0 -500
$EndPAD
$PAD
Sh "6" C 600 600 0 0 0
Dr 320 0 0
At STD N 00E0FFFF
Ne 0 ""
Po -1000 -500
$EndPAD
$SHAPE3D
Na "device/switch_toggle_straight_terminal.wrl"
Sc 0.330000 0.330000 0.330000
Of 0.000000 0.000000 0.000000
Ro 0.000000 0.000000 0.000000
$EndSHAPE3D
$EndMODULE  microswitch_Nikkai
$MODULE MICROSWITCH_SPST
Po 0 0 0 15 48075FE7 00000000 ~~
Li MICROSWITCH_SPST
Cd Connecteur 3 pins
Kw CONN DEV
Sc 00000000
AR
Op 0 0 0
T0 0 -1000 400 400 0 100 N V 21 "MICROSWITCH_SPST"
T1 0 -1000 400 400 0 100 N I 21 "Val**"
DS -1500 500 -1500 -500 120 21
DS -1500 -500 1500 -500 120 21
DS 1500 -500 1500 500 120 21
DS 1500 500 -1500 500 120 21
DS -500 -500 -500 500 120 21
$PAD
Sh "1" R 550 550 0 0 0
Dr 320 0 0
At STD N 00E0FFFF
Ne 0 ""
Po -1000 0
$EndPAD
$PAD
Sh "2" C 550 550 0 0 0
Dr 320 0 0
At STD N 00E0FFFF
Ne 0 ""
Po 0 0
$EndPAD
$PAD
Sh "3" C 550 550 0 0 0
Dr 320 0 0
At STD N 00E0FFFF
Ne 0 ""
Po 1000 0
$EndPAD
$SHAPE3D
Na "device/switch_slide_straight_terminal.wrl"
Sc 0.330000 0.330000 0.330000
Of 0.000000 0.000000 0.000000
Ro 0.000000 0.000000 0.000000
$EndSHAPE3D
$EndMODULE  MICROSWITCH_SPST
$MODULE MICROSWITCH_SPST_H
Po 0 0 0 15 48119E63 00000000 ~~
Li MICROSWITCH_SPST_H
Cd Connecteur 3 pins
Kw CONN DEV
Sc 00000000
AR
Op 0 0 0
T0 0 1100 400 400 0 100 N V 21 "MICROSWITCH_SPST"
T1 0 2000 400 400 0 100 N V 21 "Val**"
DS 2000 2700 -2000 2700 80 21
DS -2000 500 2000 500 80 21
DS 200 2900 200 3700 80 21
DS -600 2900 -600 3700 80 21
DS -1400 2700 -1400 2900 80 21
DS -1400 2900 800 2900 80 21
DS 800 2900 800 2700 80 21
DS -600 3700 200 3700 80 21
DS 1000 0 1000 500 80 21
DS 0 0 0 500 80 21
DS -1000 0 -1000 500 80 21
DS 2000 500 2000 2700 80 21
DS -2000 500 -2000 2700 80 21
$PAD
Sh "1" R 550 550 0 0 0
Dr 320 0 0
At STD N 00E0FFFF
Ne 0 ""
Po -1000 0
$EndPAD
$PAD
Sh "2" C 550 550 0 0 0
Dr 320 0 0
At STD N 00E0FFFF
Ne 0 ""
Po 0 0
$EndPAD
$PAD
Sh "3" C 550 550 0 0 0
Dr 320 0 0
At STD N 00E0FFFF
Ne 0 ""
Po 1000 0
$EndPAD
$SHAPE3D
Na "device/switch_slide_right_angle_terminal.wrl"
Sc 0.330000 0.330000 0.330000
Of 0.000000 0.000000 0.000000
Ro 0.000000 0.000000 0.000000
$EndSHAPE3D
$EndMODULE  MICROSWITCH_SPST_H
$MODULE MIRE
Po 0 0 0 15 4924F5E1 00000000 ~~
Li MIRE
Sc 00000000
AR 
Op 0 0 0
T0 -50 1800 400 400 0 80 N I 21 "MIRE"
T1 1300 1100 600 600 0 80 N I 21 "*"
DC 0 0 1000 750 150 21
$PAD
Sh "" R 700 100 0 0 0
Dr 0 0 0
At STD N 00E0FFFF
Ne 0 ""
Po -900 0
$EndPAD
$PAD
Sh "" R 100 700 0 0 0
Dr 0 0 0
At STD N 00E0FFFF
Ne 0 ""
Po 0 -900
$EndPAD
$PAD
Sh "" C 300 300 0 0 0
Dr 20 0 0
At STD N 00C0FFFF
Ne 0 ""
Po 0 0
$EndPAD
$PAD
Sh "" R 700 100 0 0 0
Dr 0 0 0
At STD N 00E0FFFF
Ne 0 ""
Po -900 0
$EndPAD
$PAD
Sh "" R 100 700 0 0 0
Dr 0 0 0
At STD N 00E0FFFF
Ne 0 ""
Po 0 900
$EndPAD
$PAD
Sh "" R 700 100 0 0 0
Dr 0 0 0
At STD N 00E0FFFF
Ne 0 ""
Po 900 0
$EndPAD
$PAD
Sh "" C 400 400 0 0 0
Dr 300 0 0
At STD N 00E0FFFF
Ne 0 ""
Po 0 0
$EndPAD
$EndMODULE  MIRE
$EndLIBRARY
