PCBNEW-LibModule-V1  16/03/2014 1:08:34 p. m.
# encoding utf-8
Units mm
$INDEX
LED0603
$EndINDEX
$MODULE LED0603
Po 0 0 0 15 4E4C935D 00000000 ~~
Li LED0603
Cd LED 0603 smd package
Kw LED led 0603 SMD smd SMT smt smdled SMDLED smtled SMTLED
Sc 0
AR /4D30AC69/4D7E9D8D
Op 0 0 0
At SMD
T0 -0.09906 -1.19888 0.762 0.762 0 0.10922 N V 21 N "D2"
T1 0 1.016 0.762 0.762 0 0.0889 N I 21 N "LED"
DS 0.20066 0.59944 1.34874 0.59944 0.09906 21
DS 0.20066 -0.59944 1.30048 -0.59944 0.09906 21
DS 0.14986 -0.59944 0.14986 0.59944 0.09906 21
DS 1.30048 -0.65024 1.30048 0.65024 0.09906 21
DS 1.39954 -0.65024 1.50114 -0.65024 0.09906 21
DS 1.50114 -0.65024 1.50114 0.65024 0.09906 21
DS 1.50114 0.65024 1.19888 0.65024 0.09906 21
DS 0.09906 -0.59944 0.09906 0.59944 0.09906 21
DS 0.09906 0.59944 0.09906 -0.55118 0.09906 21
DS -1.80086 -0.70104 -1.80086 -1.30048 0.09906 21
DS -1.50114 -1.00076 -2.10058 -1.00076 0.09906 21
DS 1.39954 -0.65024 -1.39954 -0.65024 0.09906 21
DS -1.39954 -0.65024 -1.39954 0.65024 0.09906 21
DS -1.39954 0.65024 1.39954 0.65024 0.09906 21
DS 1.39954 0.65024 1.39954 -0.59944 0.09906 21
DS 1.39954 -0.59944 1.39954 -0.65024 0.09906 21
$PAD
Sh "1" R 0.79756 0.79756 0 0 0
Dr 0 0 0
At SMD N 00888000
Ne 2 "VDDIO_3V3"
Po -0.7493 0
$EndPAD
$PAD
Sh "2" R 0.79756 0.79756 0 0 0
Dr 0 0 0
At SMD N 00888000
Ne 1 "N-000034"
Po 0.7493 0
$EndPAD
$EndMODULE LED0603
$EndLIBRARY
