PCBNEW-LibModule-V1  16/03/2014 1:38:39 p. m.
# encoding utf-8
Units mm
$INDEX
MHOLE
$EndINDEX
$MODULE MHOLE
Po 0 0 0 15 4E85FACE 00000000 ~~
Li MHOLE
Sc 0
AR /4D30AC69/4E85FA6B
Op 0 0 0
T0 -5.0292 2.5908 0.39878 0.39878 0 0.0508 N I 21 N "P10"
T1 -4.8768 7.0612 0.29972 0.29972 0 0.0508 N I 21 N "CONN_1"
$PAD
Sh "1" C 5.00126 5.00126 0 0 0
Dr 2.9972 0 0
At STD N 0CC0FFFF
Ne 1 "GND_CASE"
Po 0 0
$EndPAD
$EndMODULE MHOLE
$EndLIBRARY
