PCBNEW-LibModule-V1  16/03/2014 1:33:23 p. m.
# encoding utf-8
Units mm
$INDEX
SOD123
$EndINDEX
$MODULE SOD123
Po 0 0 0 15 510F28BD 00000000 ~~
Li SOD123
Sc 0
AR /4D30AC69/4D42D63A
Op 0 0 0
At SMD
T0 0.70104 0 0.127 0.127 900 0.00254 N I 21 N "D1"
T1 -0.37846 1.62052 0.6604 0.6096 0 0.1524 N V 21 N "10BQ015"
DS -0.59944 -1.09982 -0.59944 1.09982 0.1778 21
DS -0.70104 1.00076 -1.50114 1.00076 0.1778 21
DS -1.50114 0.8001 -0.70104 0.8001 0.1778 21
DS -0.70104 0.89916 -1.50114 0.89916 0.1778 21
DS -1.50114 0.70104 -0.70104 0.70104 0.1778 21
DS -1.50114 -0.70104 -0.70104 -0.70104 0.1778 21
DS -0.70104 -0.8001 -1.50114 -0.8001 0.1778 21
DS -1.50114 -0.89916 -0.70104 -0.89916 0.1778 21
DS -0.70104 -1.00076 -1.50114 -1.00076 0.1778 21
DS -0.70104 -1.09982 -0.70104 1.09982 0.1778 21
DS -1.50114 1.09982 -1.50114 0.70104 0.1778 21
DS -1.50114 -1.09982 -1.50114 -0.70104 0.1778 21
DS 1.50114 -1.09982 1.50114 -0.70104 0.1778 21
DS 1.50114 1.09982 1.50114 0.70104 0.1778 21
DS -1.50114 1.09982 1.50114 1.09982 0.1778 21
DS -1.50114 -1.09982 1.50114 -1.09982 0.1778 21
$PAD
Sh "1" R 1.19888 1.19888 0 0 0
Dr 0 0 0
At SMD N 00888000
Ne 2 "VDD_BATT"
Po -1.45034 0
$EndPAD
$PAD
Sh "2" R 1.19888 1.19888 0 0 0
Dr 0 0 0
At SMD N 00888000
Ne 1 "VDD4P2"
Po 1.45034 0
$EndPAD
$EndMODULE SOD123
$EndLIBRARY
