EESchema Schematic File Version 2
LIBS:power
LIBS:device
LIBS:transistors
LIBS:conn
LIBS:linear
LIBS:regul
LIBS:74xx
LIBS:cmos4000
LIBS:adc-dac
LIBS:memory
LIBS:xilinx
LIBS:special
LIBS:microcontrollers
LIBS:dsp
LIBS:microchip
LIBS:analog_switches
LIBS:motorola
LIBS:texas
LIBS:intel
LIBS:audio
LIBS:interface
LIBS:digital-audio
LIBS:philips
LIBS:display
LIBS:cypress
LIBS:siliconi
LIBS:opto
LIBS:atmel
LIBS:contrib
LIBS:valves
LIBS:con-molex
LIBS:connect
LIBS:DRV
LIBS:DRV8837
LIBS:LME49740
LIBS:molex
LIBS:molex14
LIBS:opa1632
LIBS:opa1642
LIBS:pcm1791A
LIBS:pcm4202
LIBS:pcm4204
LIBS:plug
LIBS:VQ100Xilinx
LIBS:110VAC
LIBS:ABM8G
LIBS:ad7699
LIBS:ad8627
LIBS:adm3101e
LIBS:ap2281
LIBS:ba50dd0whfp
LIBS:bat_con
LIBS:Carlolib-dev
LIBS:con-jack
LIBS:crystal
LIBS:EEPROM
LIBS:fsusb20
LIBS:fsusb43
LIBS:ftdichip
LIBS:gl850g
LIBS:i.mx233stamp-cache
LIBS:ili9325
LIBS:iMX23
LIBS:IOUT
LIBS:ipc-7351-diode
LIBS:ipc-7351-transistor
LIBS:lm3478
LIBS:lt1117cst
LIBS:m25p32
LIBS:mcp130
LIBS:mcp73812
LIBS:mic29301
LIBS:micron_ddr_512Mb
LIBS:microsd
LIBS:mmdt3904
LIBS:m-pad-2.1
LIBS:opendous
LIBS:pasives-connectors
LIBS:PROpendous-cache
LIBS:PWR
LIBS:r_pack2
LIBS:rclamp0502b
LIBS:ref-packages
LIBS:Reset
LIBS:sdmmc
LIBS:sp481
LIBS:srf2012
LIBS:ssd1963_320x240
LIBS:stm32f2_lqfp100
LIBS:stm32f4_lqfp100
LIBS:stm32f100vxx
LIBS:switch-misc
LIBS:tps2400
LIBS:Transil_diode
LIBS:transistor-npn
LIBS:usb_a
LIBS:usba-plug
LIBS:usbconn
LIBS:usb-mini
LIBS:vasd1-s5-d5--sip
LIBS:VREF
LIBS:w_analog
LIBS:xbeepro
LIBS:Zilog-ZNEO-v1_0
LIBS:zxct1009
LIBS:zxmhc3f381n8
LIBS:DDR1-cache
LIBS:FPGA-cache
LIBS:i.MX233FPGA-cache
LIBS:i.mx233stampFPGA-cache
LIBS:i.mx233stampFPGA-cache
EELAYER 27 0
EELAYER END
$Descr A4 11693 8268
encoding utf-8
Sheet 4 5
Title "noname.sch"
Date "23 mar 2014"
Rev ""
Comp ""
Comment1 ""
Comment2 ""
Comment3 ""
Comment4 ""
$EndDescr
Text Label 7350 2000 0    20   ~ 0
A13
Text HLabel 7625 2500 2    20   BiDi ~ 0
IRQ_F
Text Label 3250 2700 0    20   ~ 0
DIGIN2
Text Label 3250 2100 0    20   ~ 0
DIGIN1
Text Label 3600 6350 0    20   ~ 0
DIGIN2
Text Label 4500 6350 2    20   ~ 0
DIGIN1
Text GLabel 4050 5550 0    20   BiDi ~ 0
3V3
Text GLabel 4050 7250 2    20   BiDi ~ 0
GND
$Comp
L SW_PUSH PB2
U 1 1 4BA5057B
P 4250 6700
F 0 "PB2" H 4400 6810 50  0000 C CNN
F 1 "I2" H 4250 6620 50  0000 C CNN
F 2 "" H 4250 6700 60  0001 C CNN
F 3 "" H 4250 6700 60  0001 C CNN
	1    4250 6700
	0    -1   -1   0   
$EndComp
$Comp
L SW_PUSH PB1
U 1 1 4BA5055E
P 3800 6700
F 0 "PB1" H 3950 6810 50  0000 C CNN
F 1 "I1" H 3800 6620 50  0000 C CNN
F 2 "" H 3800 6700 60  0001 C CNN
F 3 "" H 3800 6700 60  0001 C CNN
	1    3800 6700
	0    -1   -1   0   
$EndComp
$Comp
L R R32
U 1 1 4BA504CA
P 4250 6000
F 0 "R32" V 4330 6000 50  0000 C CNN
F 1 "4.7K" V 4250 6000 50  0000 C CNN
F 2 "" H 4250 6000 60  0001 C CNN
F 3 "" H 4250 6000 60  0001 C CNN
	1    4250 6000
	1    0    0    -1  
$EndComp
$Comp
L R R31
U 1 1 4BA504C2
P 3800 6000
F 0 "R31" V 3880 6000 50  0000 C CNN
F 1 "4.7K" V 3800 6000 50  0000 C CNN
F 2 "" H 3800 6000 60  0001 C CNN
F 3 "" H 3800 6000 60  0001 C CNN
	1    3800 6000
	1    0    0    -1  
$EndComp
Text GLabel 3400 3650 0    20   BiDi ~ 0
GND
Text GLabel 1070 5130 2    20   BiDi ~ 0
GND
Text GLabel 7750 6350 2    20   BiDi ~ 0
GND
Text GLabel 6250 6350 2    20   BiDi ~ 0
GND
Text GLabel 1250 6550 2    20   BiDi ~ 0
GND
Text GLabel 2050 6300 2    20   BiDi ~ 0
GND
Text GLabel 2080 2760 2    20   BiDi ~ 0
GND
Text GLabel 9350 6350 2    20   BiDi ~ 0
GND
Text GLabel 4350 4700 2    20   BiDi ~ 0
GND
Text Label 7625 2650 2    20   ~ 0
DIG11
Text Label 3050 3250 0    20   ~ 0
DIG14
Text Label 3050 3200 0    20   ~ 0
DIG15
Text Label 3050 3150 0    20   ~ 0
DIG16
Text Label 3050 3100 0    20   ~ 0
DIG17
Text Label 3050 3050 0    20   ~ 0
DIG18
Text Label 3050 2950 0    20   ~ 0
DIG19
Text Label 3050 2900 0    20   ~ 0
DIG20
Text Label 3050 2850 0    20   ~ 0
DIG21
Text Label 3050 2800 0    20   ~ 0
DIG22
Text Label 3050 2750 0    20   ~ 0
DIG23
Text Label 7625 3200 2    20   ~ 0
DIG0
Text Label 7625 3150 2    20   ~ 0
DIG1
Text Label 7625 3100 2    20   ~ 0
DIG2
Text Label 7625 3050 2    20   ~ 0
DIG3
Text Label 7625 3000 2    20   ~ 0
DIG4
Text Label 7625 2950 2    20   ~ 0
DIG5
Text Label 7625 2900 2    20   ~ 0
DIG6
Text Label 7625 2850 2    20   ~ 0
DIG7
Text Label 7625 2800 2    20   ~ 0
DIG8
Text Label 7625 2750 2    20   ~ 0
DIG9
Text Label 7625 2700 2    20   ~ 0
DIG10
Text Label 7625 2550 2    20   ~ 0
DIG12
Text Label 7625 2500 2    20   ~ 0
DIG13
Text Label 7350 2350 0    20   ~ 0
A3
Text Label 7350 2300 0    20   ~ 0
A2
Text Label 7350 2250 0    20   ~ 0
A1
Text Label 7350 2200 0    20   ~ 0
A0
Text Label 7350 2150 0    20   ~ 0
A10
Text Label 7350 1950 0    20   ~ 0
A12
Text Label 7350 1900 0    20   ~ 0
A11
Text Label 7350 1850 0    20   ~ 0
A9
Text Label 7350 1700 0    20   ~ 0
A8
Text Label 7350 1650 0    20   ~ 0
A7
Text Label 7350 1600 0    20   ~ 0
A6
Text Label 7200 1600 0    20   ~ 0
GPIO29
Text Label 7200 1700 0    20   ~ 0
GPIO31
Text Label 7200 1850 0    20   ~ 0
GPIO32
Text Label 7200 1900 0    20   ~ 0
GPIO33
Text Label 7200 1950 0    20   ~ 0
GPIO34
Text Label 7200 2150 0    20   ~ 0
GPIO38
Text Label 7200 2200 0    20   ~ 0
GPIO39
Text Label 3250 2200 0    20   ~ 0
D0
Text Label 3250 2150 0    20   ~ 0
D1
Text Label 3250 2050 0    20   ~ 0
D2
Text Label 3250 2000 0    20   ~ 0
D3
Text Label 3250 1950 0    20   ~ 0
D4
Text Label 3250 1900 0    20   ~ 0
D5
Text Label 3250 1850 0    20   ~ 0
D6
Text Label 3250 1800 0    20   ~ 0
D7
Text Label 3250 1750 0    20   ~ 0
A5
Text Label 3250 1700 0    20   ~ 0
A4
Text GLabel 9350 5550 0    20   BiDi ~ 0
2V5
Text GLabel 7750 5550 0    20   BiDi ~ 0
1V2
Text GLabel 6250 5550 0    20   BiDi ~ 0
3V3
Text GLabel 3250 3700 0    20   BiDi ~ 0
3V3
Text GLabel 3250 3600 0    20   BiDi ~ 0
3V3
Text GLabel 7350 3500 2    20   BiDi ~ 0
3V3
Text GLabel 6400 4600 2    20   BiDi ~ 0
1V2
Text GLabel 6100 4600 2    20   BiDi ~ 0
2V5
Text GLabel 5600 4600 2    20   BiDi ~ 0
3V3
Text GLabel 1600 5450 0    20   BiDi ~ 0
3V3
Text GLabel 800  5130 2    20   BiDi ~ 0
VIN
Text HLabel 2500 5950 2    20   BiDi ~ 0
OSC_XM
Text HLabel 7350 2050 2    20   BiDi ~ 0
WE0_N
Text HLabel 7350 2100 2    20   BiDi ~ 0
RDWR_N
Text HLabel 8050 3650 2    20   BiDi ~ 0
TDI_F
Text HLabel 8050 3750 2    20   BiDi ~ 0
TCK_F
Text HLabel 9250 3850 2    20   BiDi ~ 0
TDO_F
Text HLabel 9250 4200 2    20   BiDi ~ 0
TMS_F
Text HLabel 3050 3000 0    20   BiDi ~ 0
OSC_XM
Text Label 3250 2650 0    20   ~ 0
GPIO17
$Comp
L X_MHZ_OSC Y1
U 1 1 4B76E30B
P 2450 5700
F 0 "Y1" H 1950 5600 40  0000 C CNN
F 1 "50_MHZ_F4100" H 2450 5600 40  0000 C CNN
F 2 "" H 2450 5700 60  0001 C CNN
F 3 "" H 2450 5700 60  0001 C CNN
	1    2450 5700
	1    0    0    -1  
$EndComp
$Comp
L C C44
U 1 1 4B76E1FA
P 1250 6250
F 0 "C44" H 1300 6350 50  0000 L CNN
F 1 "100n" H 1300 6150 50  0000 L CNN
F 2 "" H 1250 6250 60  0001 C CNN
F 3 "" H 1250 6250 60  0001 C CNN
	1    1250 6250
	1    0    0    -1  
$EndComp
$Comp
L C C54
U 1 1 4B76E040
P 9800 5950
F 0 "C54" H 9850 6050 50  0000 L CNN
F 1 "100n" H 9850 5850 50  0000 L CNN
F 2 "" H 9800 5950 60  0001 C CNN
F 3 "" H 9800 5950 60  0001 C CNN
	1    9800 5950
	1    0    0    -1  
$EndComp
$Comp
L C C53
U 1 1 4B76E03F
P 9450 5950
F 0 "C53" H 9500 6050 50  0000 L CNN
F 1 "100n" H 9500 5850 50  0000 L CNN
F 2 "" H 9450 5950 60  0001 C CNN
F 3 "" H 9450 5950 60  0001 C CNN
	1    9450 5950
	1    0    0    -1  
$EndComp
$Comp
L C C56
U 1 1 4B76E03E
P 10500 5950
F 0 "C56" H 10550 6050 50  0000 L CNN
F 1 "100n" H 10550 5850 50  0000 L CNN
F 2 "" H 10500 5950 60  0001 C CNN
F 3 "" H 10500 5950 60  0001 C CNN
	1    10500 5950
	1    0    0    -1  
$EndComp
$Comp
L C C55
U 1 1 4B76E03D
P 10150 5950
F 0 "C55" H 10200 6050 50  0000 L CNN
F 1 "100n" H 10200 5850 50  0000 L CNN
F 2 "" H 10150 5950 60  0001 C CNN
F 3 "" H 10150 5950 60  0001 C CNN
	1    10150 5950
	1    0    0    -1  
$EndComp
$Comp
L C C50
U 1 1 4B76E039
P 8200 5950
F 0 "C50" H 8250 6050 50  0000 L CNN
F 1 "100n" H 8250 5850 50  0000 L CNN
F 2 "" H 8200 5950 60  0001 C CNN
F 3 "" H 8200 5950 60  0001 C CNN
	1    8200 5950
	1    0    0    -1  
$EndComp
$Comp
L C C49
U 1 1 4B76E038
P 7850 5950
F 0 "C49" H 7900 6050 50  0000 L CNN
F 1 "100n" H 7900 5850 50  0000 L CNN
F 2 "" H 7850 5950 60  0001 C CNN
F 3 "" H 7850 5950 60  0001 C CNN
	1    7850 5950
	1    0    0    -1  
$EndComp
$Comp
L C C52
U 1 1 4B76E037
P 8900 5950
F 0 "C52" H 8950 6050 50  0000 L CNN
F 1 "100n" H 8950 5850 50  0000 L CNN
F 2 "" H 8900 5950 60  0001 C CNN
F 3 "" H 8900 5950 60  0001 C CNN
	1    8900 5950
	1    0    0    -1  
$EndComp
$Comp
L C C51
U 1 1 4B76E036
P 8550 5950
F 0 "C51" H 8600 6050 50  0000 L CNN
F 1 "100n" H 8600 5850 50  0000 L CNN
F 2 "" H 8550 5950 60  0001 C CNN
F 3 "" H 8550 5950 60  0001 C CNN
	1    8550 5950
	1    0    0    -1  
$EndComp
$Comp
L C C46
U 1 1 4B76DFB1
P 6700 5950
F 0 "C46" H 6750 6050 50  0000 L CNN
F 1 "100n" H 6750 5850 50  0000 L CNN
F 2 "" H 6700 5950 60  0001 C CNN
F 3 "" H 6700 5950 60  0001 C CNN
	1    6700 5950
	1    0    0    -1  
$EndComp
$Comp
L C C45
U 1 1 4B76DFB0
P 6350 5950
F 0 "C45" H 6400 6050 50  0000 L CNN
F 1 "100n" H 6400 5850 50  0000 L CNN
F 2 "" H 6350 5950 60  0001 C CNN
F 3 "" H 6350 5950 60  0001 C CNN
	1    6350 5950
	1    0    0    -1  
$EndComp
$Comp
L C C48
U 1 1 4B76DFA8
P 7400 5950
F 0 "C48" H 7450 6050 50  0000 L CNN
F 1 "100n" H 7450 5850 50  0000 L CNN
F 2 "" H 7400 5950 60  0001 C CNN
F 3 "" H 7400 5950 60  0001 C CNN
	1    7400 5950
	1    0    0    -1  
$EndComp
$Comp
L C C47
U 1 1 4B76DFA4
P 7050 5950
F 0 "C47" H 7100 6050 50  0000 L CNN
F 1 "100n" H 7100 5850 50  0000 L CNN
F 2 "" H 7050 5950 60  0001 C CNN
F 3 "" H 7050 5950 60  0001 C CNN
	1    7050 5950
	1    0    0    -1  
$EndComp
Text Label 7200 3200 0    20   ~ 0
GPIO57
Text Label 7200 3150 0    20   ~ 0
GPIO56
Text Label 7200 3100 0    20   ~ 0
GPIO55
Text Label 7200 3050 0    20   ~ 0
GPIO54
Text Label 7200 3000 0    20   ~ 0
GPIO53
Text Label 7200 2950 0    20   ~ 0
GPIO52
Text Label 7200 2900 0    20   ~ 0
GPIO51
Text Label 7200 2850 0    20   ~ 0
GPIO50
Text Label 7200 2800 0    20   ~ 0
GPIO49
Text Label 7200 2750 0    20   ~ 0
GPIO48
Text Label 7200 2700 0    20   ~ 0
GPIO47
Text Label 7200 2650 0    20   ~ 0
GPIO46
Text Label 7200 2550 0    20   ~ 0
GPIO44
Text Label 7200 2500 0    20   ~ 0
GPIO43
Text Label 7200 2350 0    20   ~ 0
GPIO42
Text Label 7200 2300 0    20   ~ 0
GPIO41
Text Label 7200 2250 0    20   ~ 0
GPIO40
Text Label 7200 2100 0    20   ~ 0
GPIO37
NoConn ~ 7150 3450
NoConn ~ 7150 3400
NoConn ~ 7150 3350
$Comp
L R R36
U 1 1 4B76D642
P 7600 3950
F 0 "R36" V 7660 4300 50  0000 C CNN
F 1 "68" V 7600 3950 50  0000 C CNN
F 2 "" H 7600 3950 60  0001 C CNN
F 3 "" H 7600 3950 60  0001 C CNN
	1    7600 3950
	0    1    1    0   
$EndComp
$Comp
L R R35
U 1 1 4B76D641
P 7600 3850
F 0 "R35" V 7660 4200 50  0000 C CNN
F 1 "68" V 7600 3850 50  0000 C CNN
F 2 "" H 7600 3850 60  0001 C CNN
F 3 "" H 7600 3850 60  0001 C CNN
	1    7600 3850
	0    1    1    0   
$EndComp
$Comp
L R R34
U 1 1 4B76D63C
P 7600 3750
F 0 "R34" V 7660 4100 50  0000 C CNN
F 1 "68" V 7600 3750 50  0000 C CNN
F 2 "" H 7600 3750 60  0001 C CNN
F 3 "" H 7600 3750 60  0001 C CNN
	1    7600 3750
	0    1    1    0   
$EndComp
$Comp
L R R33
U 1 1 4B76D5E5
P 7600 3650
F 0 "R33" V 7660 4000 50  0000 C CNN
F 1 "68" V 7600 3650 50  0000 C CNN
F 2 "" H 7600 3650 60  0001 C CNN
F 3 "" H 7600 3650 60  0001 C CNN
	1    7600 3650
	0    1    1    0   
$EndComp
$Comp
L R R30
U 1 1 4B76D3C1
P 2080 2460
F 0 "R30" V 2160 2460 50  0000 C CNN
F 1 "1K" V 2080 2460 50  0000 C CNN
F 2 "" H 2080 2460 60  0001 C CNN
F 3 "" H 2080 2460 60  0001 C CNN
	1    2080 2460
	1    0    0    1   
$EndComp
$Comp
L LED D6
U 1 1 4B76D3B0
P 2080 1960
F 0 "D6" H 2080 2060 50  0000 C CNN
F 1 "LED" H 2080 1860 50  0000 C CNN
F 2 "" H 2080 1960 60  0001 C CNN
F 3 "" H 2080 1960 60  0001 C CNN
	1    2080 1960
	0    1    1    0   
$EndComp
$Comp
L XC3SXXXE-VQ100 U3
U 1 1 4B76CE40
P 5350 2500
F 0 "U3" H 3900 3950 60  0000 C CNN
F 1 "XC3SXXXE-VQ100" H 5350 2500 60  0000 C CNN
F 2 "" H 5350 2500 60  0001 C CNN
F 3 "" H 5350 2500 60  0001 C CNN
	1    5350 2500
	1    0    0    -1  
$EndComp
$Comp
L LP3988IMF UF1
U 1 1 53151CDC
P 1400 4300
F 0 "UF1" H 1300 4650 60  0000 C CNN
F 1 "LP3988IMF" H 1400 4300 60  0000 C CNN
F 2 "~" H 1400 4300 60  0000 C CNN
F 3 "~" H 1400 4300 60  0000 C CNN
	1    1400 4300
	1    0    0    -1  
$EndComp
$Comp
L LT1117CST U6
U 1 1 53151CEB
P 3950 5200
F 0 "U6" H 3800 5500 60  0000 C CNN
F 1 "LT1117CST-1.2" H 3950 5200 40  0000 C CNN
F 2 "" H 3950 5200 60  0000 C CNN
F 3 "" H 3950 5200 60  0000 C CNN
	1    3950 5200
	1    0    0    -1  
$EndComp
$Comp
L LT1117CST U7
U 1 1 53151CFA
P 5450 5550
F 0 "U7" H 5300 5850 60  0000 C CNN
F 1 "LT1117CST-3.3" H 5450 5550 40  0000 C CNN
F 2 "" H 5450 5550 60  0000 C CNN
F 3 "" H 5450 5550 60  0000 C CNN
	1    5450 5550
	1    0    0    -1  
$EndComp
$Comp
L C C74
U 1 1 53151D90
P 5950 5650
F 0 "C74" H 5950 5750 40  0000 L CNN
F 1 "100n" H 5956 5565 40  0000 L CNN
F 2 "~" H 5988 5500 30  0000 C CNN
F 3 "~" H 5950 5650 60  0000 C CNN
	1    5950 5650
	1    0    0    -1  
$EndComp
$Comp
L C C73
U 1 1 53151D9F
P 4500 5300
F 0 "C73" H 4500 5400 40  0000 L CNN
F 1 "100n" H 4506 5215 40  0000 L CNN
F 2 "~" H 4538 5150 30  0000 C CNN
F 3 "~" H 4500 5300 60  0000 C CNN
	1    4500 5300
	1    0    0    -1  
$EndComp
$Comp
L C C72
U 1 1 53151DAE
P 2150 4400
F 0 "C72" H 2150 4500 40  0000 L CNN
F 1 "100n" H 2156 4315 40  0000 L CNN
F 2 "~" H 2188 4250 30  0000 C CNN
F 3 "~" H 2150 4400 60  0000 C CNN
	1    2150 4400
	1    0    0    -1  
$EndComp
Text GLabel 900  4050 0    20   BiDi ~ 0
3V3
Text GLabel 2100 4000 2    20   BiDi ~ 0
2V5
Text GLabel 5900 5250 2    20   BiDi ~ 0
3V3
Text GLabel 4650 4950 2    20   BiDi ~ 0
1V2
Text GLabel 2150 4700 2    20   BiDi ~ 0
GND
Text GLabel 850  4150 0    20   BiDi ~ 0
GND
Text GLabel 3200 5100 0    20   BiDi ~ 0
GND
Text GLabel 4350 5500 0    20   BiDi ~ 0
GND
Text GLabel 4850 5450 0    20   BiDi ~ 0
GND
Text GLabel 5800 5850 0    20   BiDi ~ 0
GND
Text GLabel 3450 5000 0    20   BiDi ~ 0
VIN
Text GLabel 5050 5350 0    20   BiDi ~ 0
VIN
Text GLabel 6000 5400 2    20   BiDi ~ 0
3V3
Text GLabel 4350 5000 2    20   BiDi ~ 0
1V2
NoConn ~ 1750 4150
$Comp
L VDD5V #PWR093
U 1 1 5315835D
P 740 4970
F 0 "#PWR093" H 740 5070 30  0001 C CNN
F 1 "VDD5V" H 740 5080 30  0000 C CNN
F 2 "" H 740 4970 60  0000 C CNN
F 3 "" H 740 4970 60  0000 C CNN
	1    740  4970
	1    0    0    -1  
$EndComp
$Comp
L GND #PWR094
U 1 1 531585A2
P 1070 4910
F 0 "#PWR094" H 1070 4910 30  0001 C CNN
F 1 "GND" H 1070 4840 30  0001 C CNN
F 2 "" H 1070 4910 60  0000 C CNN
F 3 "" H 1070 4910 60  0000 C CNN
	1    1070 4910
	-1   0    0    1   
$EndComp
Text HLabel 3230 3390 0    39   Input ~ 0
SPI_MISO
Text HLabel 3220 3500 0    39   Input ~ 0
SPI_SCK
Text HLabel 2950 2550 0    39   Input ~ 0
SPI_SS
Text HLabel 3020 2650 0    39   Input ~ 0
SPI_MOSI
Wire Wire Line
	1070 4910 1070 5130
Wire Wire Line
	740  4970 740  5130
Wire Wire Line
	740  5130 800  5130
Wire Wire Line
	4250 5000 4350 5000
Wire Wire Line
	4500 5100 4250 5100
Wire Wire Line
	5950 5400 6000 5400
Wire Wire Line
	5950 5450 5950 5400
Wire Wire Line
	5950 5450 5750 5450
Wire Wire Line
	5800 5350 5750 5350
Wire Wire Line
	5100 5350 5050 5350
Wire Wire Line
	3600 5000 3450 5000
Wire Wire Line
	5950 5850 5800 5850
Wire Wire Line
	4500 5500 4350 5500
Wire Wire Line
	850  4100 850  4150
Wire Wire Line
	1100 4100 850  4100
Wire Wire Line
	2150 4700 2150 4600
Wire Wire Line
	4650 4950 4500 4950
Connection ~ 5800 5350
Wire Wire Line
	5800 5250 5800 5350
Wire Wire Line
	5900 5250 5800 5250
Wire Wire Line
	4500 4950 4500 5100
Connection ~ 2050 4100
Wire Wire Line
	2050 4000 2050 4100
Wire Wire Line
	2100 4000 2050 4000
Connection ~ 1000 4050
Wire Wire Line
	2150 4100 2150 4200
Wire Wire Line
	1750 4100 2150 4100
Wire Wire Line
	900  4050 1100 4050
Wire Wire Line
	1000 4150 1000 4050
Wire Wire Line
	1100 4150 1000 4150
Wire Wire Line
	3250 2700 3500 2700
Wire Wire Line
	3250 2100 3500 2100
Connection ~ 3800 6350
Wire Wire Line
	3600 6350 3800 6350
Connection ~ 4050 5650
Wire Wire Line
	4050 5550 4050 5650
Wire Wire Line
	4250 5650 4250 5750
Wire Wire Line
	3800 5650 4250 5650
Wire Wire Line
	3800 5750 3800 5650
Wire Wire Line
	3800 6250 3800 6400
Connection ~ 1600 5950
Wire Wire Line
	1250 5950 1800 5950
Wire Wire Line
	1250 6050 1250 5950
Wire Wire Line
	2500 5950 2400 5950
Wire Wire Line
	2100 5500 2100 5700
Wire Wire Line
	1600 5500 2100 5500
Connection ~ 6350 6250
Wire Wire Line
	6250 6250 6250 6350
Wire Wire Line
	6250 6250 7400 6250
Connection ~ 7050 6250
Wire Wire Line
	7050 6150 7050 6250
Connection ~ 6700 5650
Wire Wire Line
	6700 5650 6700 5750
Wire Wire Line
	7400 5650 7400 5750
Wire Wire Line
	6350 5650 6350 5750
Wire Wire Line
	7850 3650 8050 3650
Wire Wire Line
	7350 1650 7150 1650
Wire Wire Line
	7350 1850 7150 1850
Wire Wire Line
	7350 1950 7150 1950
Wire Wire Line
	7350 2050 7150 2050
Wire Wire Line
	7350 2150 7150 2150
Wire Wire Line
	7350 2250 7150 2250
Wire Wire Line
	7350 2350 7150 2350
Wire Wire Line
	7625 2550 7150 2550
Wire Wire Line
	7625 2650 7150 2650
Wire Wire Line
	7625 2750 7150 2750
Wire Wire Line
	7625 2850 7150 2850
Wire Wire Line
	7625 2950 7150 2950
Wire Wire Line
	7625 3050 7150 3050
Wire Wire Line
	7625 3150 7150 3150
Wire Wire Line
	7350 3500 7150 3500
Wire Wire Line
	7150 3850 7350 3850
Wire Wire Line
	7150 3650 7350 3650
Connection ~ 6250 4550
Wire Wire Line
	6250 4500 6250 4550
Wire Wire Line
	6150 4550 6300 4550
Wire Wire Line
	6150 4500 6150 4550
Wire Wire Line
	5900 4550 5900 4500
Connection ~ 5900 4550
Connection ~ 6000 4550
Connection ~ 5950 4550
Wire Wire Line
	5850 4550 6000 4550
Wire Wire Line
	5850 4500 5850 4550
Wire Wire Line
	5400 4550 5400 4500
Wire Wire Line
	5300 4550 5300 4500
Wire Wire Line
	5200 4550 5200 4500
Connection ~ 5500 4550
Connection ~ 5200 4550
Connection ~ 5250 4550
Connection ~ 5300 4550
Connection ~ 5350 4550
Connection ~ 5400 4550
Connection ~ 5450 4550
Wire Wire Line
	5150 4550 5500 4550
Wire Wire Line
	5150 4500 5150 4550
Wire Wire Line
	4900 4550 4900 4500
Wire Wire Line
	4800 4550 4800 4500
Wire Wire Line
	4700 4550 4700 4500
Wire Wire Line
	4600 4550 4600 4500
Wire Wire Line
	4500 4550 4500 4500
Connection ~ 4950 4550
Connection ~ 4900 4550
Connection ~ 4850 4550
Connection ~ 4800 4550
Connection ~ 4750 4550
Connection ~ 4700 4550
Connection ~ 4650 4550
Connection ~ 4600 4550
Connection ~ 4550 4550
Connection ~ 4500 4550
Connection ~ 4450 4550
Wire Wire Line
	5000 4550 5000 4500
Wire Wire Line
	4450 4550 4450 4500
Wire Wire Line
	2080 2160 2080 2210
Wire Wire Line
	3400 3650 3500 3650
Wire Wire Line
	3250 3700 3500 3700
Wire Wire Line
	3050 3200 3500 3200
Wire Wire Line
	3050 3100 3500 3100
Wire Wire Line
	3050 2950 3500 2950
Wire Wire Line
	3050 2850 3500 2850
Wire Wire Line
	3050 2750 3500 2750
Wire Wire Line
	3020 2650 3500 2650
Wire Wire Line
	2950 2550 3500 2550
Wire Wire Line
	3250 2350 3500 2350
Wire Wire Line
	3250 2200 3500 2200
Wire Wire Line
	3250 2050 3500 2050
Wire Wire Line
	3250 1950 3500 1950
Wire Wire Line
	3170 1850 3500 1850
Wire Wire Line
	3250 1900 3500 1900
Wire Wire Line
	3250 2000 3500 2000
Wire Wire Line
	3250 2150 3500 2150
Wire Wire Line
	3250 2250 3500 2250
Wire Wire Line
	3250 2300 3500 2300
Wire Wire Line
	3250 2400 3500 2400
Wire Wire Line
	3250 2600 3500 2600
Wire Wire Line
	3050 2800 3500 2800
Wire Wire Line
	3050 2900 3500 2900
Wire Wire Line
	3050 3000 3500 3000
Wire Wire Line
	3050 3050 3500 3050
Wire Wire Line
	3050 3150 3500 3150
Wire Wire Line
	3050 3250 3500 3250
Wire Wire Line
	3250 3600 3500 3600
Wire Wire Line
	2080 2760 2080 2710
Wire Wire Line
	4350 4550 4350 4700
Wire Wire Line
	4350 4550 5000 4550
Wire Wire Line
	4550 4550 4550 4500
Wire Wire Line
	4650 4550 4650 4500
Wire Wire Line
	4750 4550 4750 4500
Wire Wire Line
	4850 4550 4850 4500
Wire Wire Line
	4950 4550 4950 4500
Wire Wire Line
	5500 4500 5500 4600
Wire Wire Line
	5500 4600 5600 4600
Wire Wire Line
	5250 4550 5250 4500
Wire Wire Line
	5350 4550 5350 4500
Wire Wire Line
	5450 4550 5450 4500
Wire Wire Line
	6000 4500 6000 4600
Wire Wire Line
	6000 4600 6100 4600
Wire Wire Line
	5950 4550 5950 4500
Wire Wire Line
	6200 4500 6200 4550
Connection ~ 6200 4550
Wire Wire Line
	6300 4500 6300 4600
Wire Wire Line
	6300 4600 6400 4600
Connection ~ 6300 4550
Wire Wire Line
	7350 3750 7150 3750
Wire Wire Line
	7350 3950 7150 3950
Wire Wire Line
	7625 3200 7150 3200
Wire Wire Line
	7625 3100 7150 3100
Wire Wire Line
	7625 3000 7150 3000
Wire Wire Line
	7625 2900 7150 2900
Wire Wire Line
	7625 2800 7150 2800
Wire Wire Line
	7625 2700 7150 2700
Wire Wire Line
	7625 2600 7150 2600
Wire Wire Line
	7625 2500 7150 2500
Wire Wire Line
	7350 2300 7150 2300
Wire Wire Line
	7350 2200 7150 2200
Wire Wire Line
	7350 2100 7150 2100
Wire Wire Line
	7350 2000 7150 2000
Wire Wire Line
	7350 1900 7150 1900
Wire Wire Line
	7350 1700 7150 1700
Wire Wire Line
	7350 1600 7150 1600
Wire Wire Line
	8050 3750 7850 3750
Wire Wire Line
	7050 5750 7050 5650
Connection ~ 7050 5650
Wire Wire Line
	6350 6250 6350 6150
Wire Wire Line
	7400 6250 7400 6150
Wire Wire Line
	6700 6250 6700 6150
Connection ~ 6700 6250
Wire Wire Line
	6250 5650 7400 5650
Wire Wire Line
	6250 5550 6250 5650
Connection ~ 6350 5650
Connection ~ 7850 6250
Wire Wire Line
	7750 6250 7750 6350
Wire Wire Line
	7750 6250 8900 6250
Connection ~ 8550 6250
Wire Wire Line
	8550 6150 8550 6250
Connection ~ 8200 5650
Wire Wire Line
	8200 5650 8200 5750
Wire Wire Line
	8900 5650 8900 5750
Wire Wire Line
	7850 5650 7850 5750
Wire Wire Line
	8550 5750 8550 5650
Connection ~ 8550 5650
Wire Wire Line
	7850 6250 7850 6150
Wire Wire Line
	8900 6250 8900 6150
Wire Wire Line
	8200 6250 8200 6150
Connection ~ 8200 6250
Wire Wire Line
	7750 5650 8900 5650
Wire Wire Line
	7750 5550 7750 5650
Connection ~ 7850 5650
Connection ~ 9450 6250
Wire Wire Line
	9350 6250 9350 6350
Wire Wire Line
	9350 6250 10500 6250
Connection ~ 10150 6250
Wire Wire Line
	10150 6150 10150 6250
Connection ~ 9800 5650
Wire Wire Line
	9800 5650 9800 5750
Wire Wire Line
	10500 5650 10500 5750
Wire Wire Line
	9450 5650 9450 5750
Wire Wire Line
	10150 5750 10150 5650
Connection ~ 10150 5650
Wire Wire Line
	9450 6250 9450 6150
Wire Wire Line
	10500 6250 10500 6150
Wire Wire Line
	9800 6250 9800 6150
Connection ~ 9800 6250
Wire Wire Line
	9350 5650 10500 5650
Wire Wire Line
	9350 5550 9350 5650
Connection ~ 9450 5650
Wire Wire Line
	2050 6300 2050 6200
Wire Wire Line
	1600 5450 1600 5950
Connection ~ 1600 5500
Wire Wire Line
	1250 6550 1250 6450
Wire Wire Line
	3800 7150 3800 7000
Wire Wire Line
	3800 7150 4250 7150
Wire Wire Line
	4250 7150 4250 7000
Wire Wire Line
	4050 7250 4050 7150
Connection ~ 4050 7150
Wire Wire Line
	4250 6250 4250 6400
Wire Wire Line
	4500 6350 4250 6350
Connection ~ 4250 6350
Wire Wire Line
	2080 1700 3500 1700
Wire Wire Line
	3500 3400 3230 3400
Wire Wire Line
	3230 3400 3230 3390
Wire Wire Line
	2080 1700 2080 1760
Wire Wire Line
	3500 1750 3250 1750
Wire Wire Line
	3500 3450 3500 3500
Wire Wire Line
	3500 3500 3220 3500
Wire Wire Line
	3250 1800 3500 1800
$Comp
L CONN_13X2 P8
U 1 1 5325EA65
P 9150 2150
F 0 "P8" H 9150 2850 60  0000 C CNN
F 1 "CONN_13X2" V 9150 2150 50  0000 C CNN
F 2 "" H 9150 2150 60  0000 C CNN
F 3 "" H 9150 2150 60  0000 C CNN
	1    9150 2150
	1    0    0    -1  
$EndComp
Text Label 8600 1550 0    20   ~ 0
DIG0
Text Label 9650 1550 0    20   ~ 0
DIG2
Text Label 8600 1650 0    20   ~ 0
DIG3
Text Label 9650 1650 0    20   ~ 0
DIG4
Text Label 8600 1750 0    20   ~ 0
DIG5
Text Label 8600 1850 0    20   ~ 0
DIG7
Text Label 8600 1950 0    20   ~ 0
DIG9
Text Label 8600 2050 0    20   ~ 0
DIG11
Text Label 8600 2150 0    20   ~ 0
DIG13
Text Label 8600 2250 0    20   ~ 0
DIG15
Text Label 8600 2350 0    20   ~ 0
DIG17
Text Label 8600 2450 0    20   ~ 0
DIG19
Text Label 8600 2550 0    20   ~ 0
DIG21
Text Label 8600 2650 0    20   ~ 0
DIG23
Text Label 9650 2650 0    20   ~ 0
DIG24
Text Label 9650 2550 0    20   ~ 0
DIG22
Text Label 9650 2450 0    20   ~ 0
DIG20
Text Label 9650 2350 0    20   ~ 0
DIG18
Text Label 9650 2250 0    20   ~ 0
DIG16
Text Label 9650 2150 0    20   ~ 0
DIG14
Text Label 9650 2050 0    20   ~ 0
DIG12
Text Label 9650 1950 0    20   ~ 0
DIG10
Text Label 9650 1850 0    20   ~ 0
DIG8
Text Label 9650 1750 0    20   ~ 0
DIG6
Wire Wire Line
	8750 1550 8600 1550
Wire Wire Line
	8750 1650 8600 1650
Wire Wire Line
	8750 1750 8600 1750
Wire Wire Line
	8750 1850 8600 1850
Wire Wire Line
	8750 1950 8600 1950
Wire Wire Line
	8750 2050 8600 2050
Wire Wire Line
	8750 2150 8600 2150
Wire Wire Line
	8750 2250 8600 2250
Wire Wire Line
	8750 2350 8600 2350
Wire Wire Line
	8750 2450 8600 2450
Wire Wire Line
	8750 2550 8600 2550
Wire Wire Line
	8750 2650 8600 2650
Wire Wire Line
	9650 1550 9550 1550
Wire Wire Line
	9650 2650 9550 2650
Wire Wire Line
	9650 2550 9550 2550
Wire Wire Line
	9650 2450 9550 2450
Wire Wire Line
	9650 2350 9550 2350
Wire Wire Line
	9650 2250 9550 2250
Wire Wire Line
	9650 2150 9550 2150
Wire Wire Line
	9650 2050 9550 2050
Wire Wire Line
	9650 1950 9550 1950
Wire Wire Line
	9650 1850 9550 1850
Wire Wire Line
	9650 1750 9550 1750
Wire Wire Line
	9650 1650 9550 1650
Text GLabel 9650 2750 2    20   BiDi ~ 0
GND
Wire Wire Line
	9650 2750 9550 2750
Text GLabel 1550 4850 2    20   BiDi ~ 0
VO5
Text GLabel 1550 5000 2    20   BiDi ~ 0
VIN
Wire Wire Line
	1550 4850 1550 5000
Text GLabel 8650 2750 0    20   BiDi ~ 0
VO5
Wire Wire Line
	8750 2750 8650 2750
$Comp
L JUMPER JP7
U 1 1 53267FCD
P 8850 3850
F 0 "JP7" H 8850 4000 60  0000 C CNN
F 1 "TDO" H 8850 3770 40  0000 C CNN
F 2 "~" H 8850 3850 60  0000 C CNN
F 3 "~" H 8850 3850 60  0000 C CNN
	1    8850 3850
	1    0    0    -1  
$EndComp
$Comp
L JUMPER JP8
U 1 1 53267FDC
P 8850 4200
F 0 "JP8" H 8850 4350 60  0000 C CNN
F 1 "TMS" H 8850 4120 40  0000 C CNN
F 2 "~" H 8850 4200 60  0000 C CNN
F 3 "~" H 8850 4200 60  0000 C CNN
	1    8850 4200
	1    0    0    -1  
$EndComp
Wire Wire Line
	9250 3850 9150 3850
Wire Wire Line
	8550 3850 7850 3850
Wire Wire Line
	9250 4200 9150 4200
Wire Wire Line
	8550 4200 8550 3950
Wire Wire Line
	8550 3950 7850 3950
Wire Wire Line
	3450 5100 3200 5100
Wire Wire Line
	4950 5450 4850 5450
$EndSCHEMATC
