EESchema Schematic File Version 2
LIBS:power
LIBS:device
LIBS:transistors
LIBS:conn
LIBS:linear
LIBS:regul
LIBS:74xx
LIBS:cmos4000
LIBS:adc-dac
LIBS:memory
LIBS:xilinx
LIBS:special
LIBS:microcontrollers
LIBS:dsp
LIBS:microchip
LIBS:analog_switches
LIBS:motorola
LIBS:texas
LIBS:intel
LIBS:audio
LIBS:interface
LIBS:digital-audio
LIBS:philips
LIBS:display
LIBS:cypress
LIBS:siliconi
LIBS:opto
LIBS:atmel
LIBS:contrib
LIBS:valves
LIBS:con-molex
LIBS:connect
LIBS:DRV
LIBS:DRV8837
LIBS:LME49740
LIBS:molex
LIBS:molex14
LIBS:opa1632
LIBS:opa1642
LIBS:pcm1791A
LIBS:pcm4202
LIBS:pcm4204
LIBS:plug
LIBS:VQ100Xilinx
LIBS:110VAC
LIBS:ABM8G
LIBS:ad7699
LIBS:ad8627
LIBS:adm3101e
LIBS:ap2281
LIBS:ba50dd0whfp
LIBS:bat_con
LIBS:Carlolib-dev
LIBS:con-jack
LIBS:crystal
LIBS:EEPROM
LIBS:fsusb20
LIBS:fsusb43
LIBS:ftdichip
LIBS:gl850g
LIBS:i.mx233stamp-cache
LIBS:ili9325
LIBS:iMX23
LIBS:IOUT
LIBS:ipc-7351-diode
LIBS:ipc-7351-transistor
LIBS:lm3478
LIBS:lt1117cst
LIBS:m25p32
LIBS:mcp130
LIBS:mcp73812
LIBS:mic29301
LIBS:micron_ddr_512Mb
LIBS:microsd
LIBS:mmdt3904
LIBS:m-pad-2.1
LIBS:opendous
LIBS:pasives-connectors
LIBS:PROpendous-cache
LIBS:PWR
LIBS:r_pack2
LIBS:rclamp0502b
LIBS:ref-packages
LIBS:Reset
LIBS:sdmmc
LIBS:sp481
LIBS:srf2012
LIBS:ssd1963_320x240
LIBS:stm32f2_lqfp100
LIBS:stm32f4_lqfp100
LIBS:stm32f100vxx
LIBS:switch-misc
LIBS:tps2400
LIBS:Transil_diode
LIBS:transistor-npn
LIBS:usb_a
LIBS:usba-plug
LIBS:usbconn
LIBS:usb-mini
LIBS:vasd1-s5-d5--sip
LIBS:VREF
LIBS:w_analog
LIBS:xbeepro
LIBS:Zilog-ZNEO-v1_0
LIBS:zxct1009
LIBS:zxmhc3f381n8
LIBS:DDR1-cache
LIBS:FPGA-cache
LIBS:i.MX233FPGA-cache
LIBS:i.mx233stampFPGA-cache
LIBS:i.mx233stampFPGA-cache
EELAYER 27 0
EELAYER END
$Descr A4 11693 8268
encoding utf-8
Sheet 1 5
Title ""
Date "23 mar 2014"
Rev ""
Comp ""
Comment1 ""
Comment2 ""
Comment3 ""
Comment4 ""
$EndDescr
$Sheet
S 3150 1600 1600 2950
U 4D30AC69
F0 "i.MX233" 60
F1 "i.MX233FPGA.sch" 60
F2 "DDR_A[0..12]" O R 4750 2400 60 
F3 "DDR_DQ[0..15]" B R 4750 2500 60 
F4 "DDR_WEN" O R 4750 2750 60 
F5 "DDR_RASN" O R 4750 2950 60 
F6 "DDR_DQS1" O R 4750 3200 60 
F7 "DDR_DQS0" O R 4750 3100 60 
F8 "DDR_DQM1" O R 4750 3450 60 
F9 "DDR_DQM0" O R 4750 3350 60 
F10 "DDR_CLK" O R 4750 3600 60 
F11 "DDR_CLKN" O R 4750 3700 60 
F12 "DDR_CKE" O R 4750 3800 60 
F13 "DDR_CASN" O R 4750 2850 60 
F14 "DDR_CE0" O R 4750 2650 60 
F15 "DDR_BA1" O R 4750 4050 60 
F16 "DDR_BA0" O R 4750 3950 60 
F17 "I2C_SCL" B L 3150 2700 60 
F18 "I2C_SDA" B L 3150 2800 60 
F19 "AUART_TX" B L 3150 1950 60 
F20 "AUART_RX" B L 3150 1850 60 
F21 "GPMI_RDN" O L 3150 2250 60 
F22 "GPMI_D06" O L 3150 2050 60 
F23 "GPMI_CLE" O L 3150 2350 60 
F24 "GPMI_D04" O L 3150 2150 60 
F25 "GPMI_ALE" O L 3150 2450 60 
F26 "TCK_F" O L 3150 3000 60 
F27 "IRQ_F" O L 3150 3150 60 
F28 "TDI_F" O L 3150 3300 60 
F29 "SPI_MOSI" B L 3150 3550 60 
F30 "SPI_MISO" B L 3150 3650 60 
F31 "SPI_SS" I L 3150 3750 60 
F32 "SPI_SCK" I L 3150 3850 60 
$EndSheet
$Sheet
S 5250 1600 1150 2500
U 4D30B991
F0 "DDR" 60
F1 "DDR1.sch" 60
F2 "DDR_A[0..12]" I L 5250 2400 60 
F3 "DDR_DQ[0..15]" B L 5250 2500 60 
F4 "DDR_BA0" I L 5250 3950 60 
F5 "DDR_BA1" I L 5250 4050 60 
F6 "DDR_CE0" I L 5250 2650 60 
F7 "DDR_CASN" I L 5250 2850 60 
F8 "DDR_CKE" I L 5250 3800 60 
F9 "DDR_CLKN" I L 5250 3700 60 
F10 "DDR_CLK" I L 5250 3600 60 
F11 "DDR_DQM0" I L 5250 3350 60 
F12 "DDR_DQM1" I L 5250 3450 60 
F13 "DDR_DQS0" I L 5250 3100 60 
F14 "DDR_DQS1" I L 5250 3200 60 
F15 "DDR_RASN" I L 5250 2950 60 
F16 "DDR_WEN" I L 5250 2750 60 
$EndSheet
$Sheet
S 1450 3250 1000 1000
U 53010DDF
F0 "FPGA" 50
F1 "FPGA.sch" 50
F2 "IRQ_F" B R 2450 3650 60 
F3 "OSC_XM" B R 2450 3850 60 
F4 "WE0_N" B L 1450 4150 60 
F5 "RDWR_N" B L 1450 4050 60 
F6 "TDI_F" B R 2450 3550 60 
F7 "TCK_F" B R 2450 3450 60 
F8 "TDO_F" B L 1450 3650 60 
F9 "TMS_F" B L 1450 3550 60 
F10 "SPI_MISO" I R 2450 3950 60 
F11 "SPI_SCK" I R 2450 4050 60 
F12 "SPI_SS" I R 2450 4150 60 
F13 "SPI_MOSI" I R 2450 3750 60 
$EndSheet
$Sheet
S 1500 1750 800  1150
U 53026973
F0 "SAM3N" 50
F1 "SAM3N.sch" 50
F2 "TWD" I R 2300 2800 60 
F3 "TWCK" I R 2300 2700 60 
F4 "SAM_RX" O R 2300 1950 60 
F5 "SAM_TX" O R 2300 1850 60 
F6 "JNRST" I R 2300 2050 60 
F7 "JTCK" I R 2300 2350 60 
F8 "JTMS" I R 2300 2450 60 
F9 "JTDO" I R 2300 2150 60 
F10 "JTDI" I R 2300 2250 60 
$EndSheet
Wire Bus Line
	5250 2400 4750 2400
Wire Wire Line
	4750 3450 5250 3450
Wire Wire Line
	5250 3200 4750 3200
Wire Wire Line
	4750 2950 5250 2950
Wire Wire Line
	4750 4050 5250 4050
Wire Wire Line
	4750 3800 5250 3800
Wire Wire Line
	4750 3600 5250 3600
Wire Wire Line
	4750 2850 5250 2850
Wire Wire Line
	4750 2750 5250 2750
Wire Wire Line
	4750 2650 5250 2650
Wire Wire Line
	4750 3700 5250 3700
Wire Wire Line
	4750 3950 5250 3950
Wire Wire Line
	4750 3100 5250 3100
Wire Wire Line
	5250 3350 4750 3350
Wire Bus Line
	4750 2500 5250 2500
Wire Wire Line
	2300 2350 3150 2350
Wire Wire Line
	2300 1850 3150 1850
Wire Wire Line
	3150 1950 2300 1950
Wire Wire Line
	3150 2050 2300 2050
Wire Wire Line
	3150 2150 2300 2150
Wire Wire Line
	3150 2450 2300 2450
Wire Wire Line
	2300 2250 3150 2250
Wire Wire Line
	2300 2700 3150 2700
Wire Wire Line
	2300 2800 3150 2800
Wire Wire Line
	1450 3650 1150 3650
Wire Wire Line
	1150 3650 1150 3100
Wire Wire Line
	1150 3100 2800 3100
Wire Wire Line
	2800 3100 2800 2700
Connection ~ 2800 2700
Wire Wire Line
	1450 3550 1300 3550
Wire Wire Line
	1300 3550 1300 3000
Wire Wire Line
	1300 3000 2550 3000
Wire Wire Line
	2550 3000 2550 2800
Connection ~ 2550 2800
Wire Wire Line
	3150 3150 2650 3150
Wire Wire Line
	2650 3150 2650 3650
Wire Wire Line
	2650 3650 2450 3650
Wire Wire Line
	3150 3000 2900 3000
Wire Wire Line
	2900 3000 2900 3450
Wire Wire Line
	2900 3450 2450 3450
Wire Wire Line
	3150 3300 2950 3300
Wire Wire Line
	2950 3300 2950 3550
Wire Wire Line
	2950 3550 2450 3550
Wire Wire Line
	2450 3750 3000 3750
Wire Wire Line
	3000 3750 3000 3550
Wire Wire Line
	3000 3550 3150 3550
Wire Wire Line
	2450 3950 2700 3950
Wire Wire Line
	2700 3950 2700 3650
Wire Wire Line
	2700 3650 3150 3650
Wire Wire Line
	2450 4050 2850 4050
Wire Wire Line
	2850 4050 2850 3850
Wire Wire Line
	2850 3850 3150 3850
Wire Wire Line
	2450 4150 2650 4150
Wire Wire Line
	2650 4150 2650 3800
Wire Wire Line
	2650 3800 3050 3800
Wire Wire Line
	3050 3800 3050 3750
Wire Wire Line
	3050 3750 3150 3750
$EndSCHEMATC
