Id,Designator,Package,Quantity,Designation,Supplier and ref,Purchased?,,,,,,,,,,
1,Y1,Y3,1,50_MHZ_F4100,,ok,,,,,,,,,,
2,U3,VQFP100,1,XC3SXXXE-VQ100,,ok,Web ID,Access ID,,   ,,  ,,   ,,  
3,"C71,C67,C18,C11,C9",SM1206,5,33uF,,,104093622,30239,http://www.digikey.com/short/5w377 ,,,,,,,
4,"C29,C21",SM1206,2,33uF Ceramic,,,,,,,,,,,,
5,"C63,C69",SM1206,2,4.7uF,,,,,,,,,,,,
6,"C7,C28",SM0805,2,1uF,,,,,,,,,,,,
7,"L2,L3,L4,L5,L6",SM0805,5,HZ0805D152R-10 (1500 ohm),,,,,,,,,,,,
8,C16,SM0805,1,4.7uF,,,,,,,,,,,,
9,L1,SM0805,1,15uH,,,,,,,,,,,,
10,"C39,C38,C40,C36,C35,C34,C42,C43,C31,C57,C65,C66,C64,C37,C20,C61,C32,C60,C33,C12,C25,C27,C22,C15,C8,C3,C23,C14,C2",SM0603,29,0.1uF,,,,,,,,,,,,
11,"C41,C68,C19,C17,C62,C30,C24,C10",SM0603,8,1uF,,,,,,,,,,,,
12,"R29,R28",SM0603,2,1K 1%,,,,,,,,,,,,
13,"C54,C48,C72,C73,C74,C47,C45,C46,C51,C52,C49,C50,C55,C56,C53,C44,C70",SM0603,17,100n,,,,,,,,,,,,
14,"R25,R18",SM0603,2,47K,,,,,,,,,,,,
15,R26,SM0603,1,110,,,,,,,,,,,,
16,"R27,R8,R19",SM0603,3,47k,,,,,,,,,,,,
17,"C5,C6,C58,C59",SM0603,4,20 pF,,,,,,,,,,,,
18,"R5,R30",SM0603,2,1K,,,,,,,,,,,,
19,R6,SM0603,1,100K,,,,,,,,,,,,
20,"R33,R34,R35,R36",SM0603,4,68,,,,,,,,,,,,
21,"R31,R32",SM0603,2,4.7K,,,,,,,,,,,,
22,"R15,R17,R16",SM0603,3,1.5k,,,,,,,,,,,,
23,"R12,R3,R24,R14,R38,R37,R11,R10",SM0603,8,1k,,,,,,,,,,,,
24,"D4,D8,D7",SM0603,3,LED,,,,,,,,,,,,
25,"R20,R21,R23,R22",SM0603,4,11k,,,,,,,,,,,,
26,"R9,R7,R13",SM0603,3,10k,,,,,,,,,,,,
27,"C4,C13,C1,C26",SM0603,4,0.01uF,,,,,,,,,,,,
28,"R4,R2",SM0603,2,0.1,,,,,,,,,,,,
29,R1,SM0603,1,1,,,,,,,,,,,,
30,JP6,PIN_ARRAY_2X1,1,TWD,,,,,,,,,,,,
31,JP5,PIN_ARRAY_2X1,1,TWCK,,,,,,,,,,,,
32,JP4,PIN_ARRAY_2X1,1,J,,,,,,,,,,,,
33,JP8,PIN_ARRAY_2X1,1,TMS,,,,,,,,,,,,
34,JP7,PIN_ARRAY_2X1,1,TDO,,,,,,,,,,,,
35,BT1,PIN_ARRAY_2X1,1,BATTERY,,,,,,,,,,,,
36,"JP2,JP1,JP3",PIN_ARRAY_2X1,3,JUMPER,,,,,,,,,,,,
37,P8,pin_array_13x2,1,CONN_13X2,,,,,,,,,,,,
38,"P1,P2,P7",pin_array_12x2,3,CONN_12X2,,,,,,,,,,,,
39,D6,LED-0603,1,LED,,,,,,,,,,,,
40,UF1,UF2,1,LP3988IMF,,,,,,,,,,,,
41,"U5,U7",U10,2,LT1117CST-3.3,,,,,,,,,,,,
42,U6,U10,1,LT1117CST-1.2,,,,,,,,,,,,
43,U2,TSOP66_JEDEC_DDR_SDRAM,1,MT46V32M16TG,,,,,,,,,,,,
44,U4,QFP48_0.5mm_7x7mm_SOT313_LPC1343,1,ATSAM3N0AA-AU,,,,,,,,,,,,
45,IC1,LQFP128_14x14mm_0.4mmPitch_iMX233,1,iMX233,,,,,,,,,,,,
46,J1,J1,1,MICROSD,,,,,,,,,,,,
47,Q1,-SOT363_PHILIPS,1,MMDT3904,,,,,,,,,,,,
48,U1,-SO08W,1,M25P32,,,,,,,,,,,,
49,"D5,D1,D3",LED0603,3,LED,,,,,,,,,,,,
50,D2,SOD123,1,10BQ015,,,,,,,,,,,,
51,X1,ABM8G,1,24MHz,,,,,,,,,,,,
52,X2,ABM8G,1,12MHz,,,,,,,,,,,,
53,"P6,P5,P4,P3",MHOLE,4,CONN_1,,,,,,,,,,,,
54,PB1,SW_PUSH_SMD,1,I1,,,,,,,,,,,,
55,PB2,SW_PUSH_SMD,1,I2,,,,,,,,,,,,
